{
  "id": "079485b7-14b5-43fe-a6ab-1caade5012dc",
  "outputs": [
    {
      "id": "17891052-8562-436c-8dfa-6b5c58ab06be",
      "feature": {
        "id": "73ddf02e-a068-45f7-a2a1-77c9ec207a3c",
        "name": "Lawn",
        "geometry_type": 3,
        "is_custom": false
      },
      "style": {
        "color": "#2DCA73",
        "width": 1,
        "opacity": 0.2,
        "is_visible": true,
        "layer_order": 1
      },
      "measurements": [
        {
          "name": "area",
          "value": 55842,
          "unit": "sqft"
        },
        {
          "name": "perimeter",
          "value": 6908,
          "unit": "ft"
        }
      ],
      "output_geojson": {
        "type": "FeatureCollection",
        "features": [
          {
            "type": "Feature",
            "geometry": {
              "type": "Polygon",
              "coordinates": [
                [
                  [
                    -81.845176,
                    26.540413
                  ],
                  [
                    -81.84516,
                    26.540412
                  ],
                  [
                    -81.845154,
                    26.540404
                  ],
                  [
                    -81.845154,
                    26.540394
                  ],
                  [
                    -81.845161,
                    26.540378
                  ],
                  [
                    -81.845169,
                    26.540373
                  ],
                  [
                    -81.845184,
                    26.540375
                  ],
                  [
                    -81.845197,
                    26.540387
                  ],
                  [
                    -81.845202,
                    26.540396
                  ],
                  [
                    -81.845202,
                    26.540408
                  ],
                  [
                    -81.845199,
                    26.540411
                  ],
                  [
                    -81.845176,
                    26.540413
                  ]
                ]
              ]
            },
            "properties": {
              "id": 1,
              "area": 181.37,
              "perimeter": 49.91
            }
          },
          {
            "type": "Feature",
            "geometry": {
              "type": "Polygon",
              "coordinates": [
                [
                  [
                    -81.845892,
                    26.540065
                  ],
                  [
                    -81.845928,
                    26.540066
                  ],
                  [
                    -81.845936,
                    26.540069
                  ],
                  [
                    -81.845945,
                    26.540079
                  ],
                  [
                    -81.845953,
                    26.540079
                  ],
                  [
                    -81.845965,
                    26.540067
                  ],
                  [
                    -81.846213,
                    26.540084
                  ],
                  [
                    -81.846227,
                    26.540092
                  ],
                  [
                    -81.846228,
                    26.540098
                  ],
                  [
                    -81.846237,
                    26.540106
                  ],
                  [
                    -81.846216,
                    26.540117
                  ],
                  [
                    -81.846217,
                    26.54012
                  ],
                  [
                    -81.846225,
                    26.54012
                  ],
                  [
                    -81.846224,
                    26.540125
                  ],
                  [
                    -81.846183,
                    26.540123
                  ],
                  [
                    -81.846161,
                    26.54013
                  ],
                  [
                    -81.846096,
                    26.54013
                  ],
                  [
                    -81.846076,
                    26.540136
                  ],
                  [
                    -81.846051,
                    26.540136
                  ],
                  [
                    -81.846023,
                    26.540131
                  ],
                  [
                    -81.846,
                    26.540145
                  ],
                  [
                    -81.845947,
                    26.540144
                  ],
                  [
                    -81.845929,
                    26.540138
                  ],
                  [
                    -81.84589,
                    26.540143
                  ],
                  [
                    -81.84586,
                    26.540142
                  ],
                  [
                    -81.845851,
                    26.540137
                  ],
                  [
                    -81.845847,
                    26.540127
                  ],
                  [
                    -81.845851,
                    26.540093
                  ],
                  [
                    -81.84587,
                    26.540073
                  ],
                  [
                    -81.845892,
                    26.540065
                  ]
                ]
              ]
            },
            "properties": {
              "id": 2,
              "area": 2713.71,
              "perimeter": 293.58
            }
          },
          {
            "type": "Feature",
            "geometry": {
              "type": "Polygon",
              "coordinates": [
                [
                  [
                    -81.845366,
                    26.54027
                  ],
                  [
                    -81.845342,
                    26.54027
                  ],
                  [
                    -81.845322,
                    26.540247
                  ],
                  [
                    -81.845319,
                    26.54024
                  ],
                  [
                    -81.845321,
                    26.540234
                  ],
                  [
                    -81.845346,
                    26.540225
                  ],
                  [
                    -81.845367,
                    26.54023
                  ],
                  [
                    -81.84537,
                    26.540234
                  ],
                  [
                    -81.845368,
                    26.540258
                  ],
                  [
                    -81.84537,
                    26.540266
                  ],
                  [
                    -81.845366,
                    26.54027
                  ]
                ]
              ]
            },
            "properties": {
              "id": 3,
              "area": 206.26,
              "perimeter": 54.81
            }
          },
          {
            "type": "Feature",
            "geometry": {
              "type": "Polygon",
              "coordinates": [
                [
                  [
                    -81.846549,
                    26.540251
                  ],
                  [
                    -81.846516,
                    26.540251
                  ],
                  [
                    -81.846515,
                    26.54022
                  ],
                  [
                    -81.84652,
                    26.540209
                  ],
                  [
                    -81.84653,
                    26.540205
                  ],
                  [
                    -81.846548,
                    26.540206
                  ],
                  [
                    -81.846561,
                    26.540209
                  ],
                  [
                    -81.846572,
                    26.540216
                  ],
                  [
                    -81.846578,
                    26.540232
                  ],
                  [
                    -81.846577,
                    26.540239
                  ],
                  [
                    -81.846571,
                    26.540245
                  ],
                  [
                    -81.846549,
                    26.540251
                  ]
                ]
              ]
            },
            "properties": {
              "id": 4,
              "area": 290.17,
              "perimeter": 63.81
            }
          },
          {
            "type": "Feature",
            "geometry": {
              "type": "Polygon",
              "coordinates": [
                [
                  [
                    -81.846231,
                    26.540256
                  ],
                  [
                    -81.846222,
                    26.540258
                  ],
                  [
                    -81.846207,
                    26.540256
                  ],
                  [
                    -81.846204,
                    26.540224
                  ],
                  [
                    -81.846208,
                    26.540216
                  ],
                  [
                    -81.846214,
                    26.540212
                  ],
                  [
                    -81.846224,
                    26.540211
                  ],
                  [
                    -81.846232,
                    26.540215
                  ],
                  [
                    -81.84623,
                    26.540224
                  ],
                  [
                    -81.846234,
                    26.54023
                  ],
                  [
                    -81.846234,
                    26.540251
                  ],
                  [
                    -81.846231,
                    26.540256
                  ]
                ]
              ]
            },
            "properties": {
              "id": 5,
              "area": 142.2,
              "perimeter": 47.16
            }
          },
          {
            "type": "Feature",
            "geometry": {
              "type": "Polygon",
              "coordinates": [
                [
                  [
                    -81.845748,
                    26.540306
                  ],
                  [
                    -81.845737,
                    26.540306
                  ],
                  [
                    -81.845737,
                    26.540266
                  ],
                  [
                    -81.845669,
                    26.540264
                  ],
                  [
                    -81.845667,
                    26.540235
                  ],
                  [
                    -81.84567,
                    26.540225
                  ],
                  [
                    -81.845685,
                    26.540219
                  ],
                  [
                    -81.845708,
                    26.540222
                  ],
                  [
                    -81.845725,
                    26.540228
                  ],
                  [
                    -81.845744,
                    26.540243
                  ],
                  [
                    -81.845756,
                    26.540269
                  ],
                  [
                    -81.845759,
                    26.540286
                  ],
                  [
                    -81.845759,
                    26.540295
                  ],
                  [
                    -81.845753,
                    26.540304
                  ],
                  [
                    -81.845748,
                    26.540306
                  ]
                ]
              ]
            },
            "properties": {
              "id": 6,
              "area": 464.88,
              "perimeter": 107.28
            }
          },
          {
            "type": "Feature",
            "geometry": {
              "type": "Polygon",
              "coordinates": [
                [
                  [
                    -81.845888,
                    26.540511
                  ],
                  [
                    -81.845857,
                    26.540507
                  ],
                  [
                    -81.845848,
                    26.540498
                  ],
                  [
                    -81.845844,
                    26.540486
                  ],
                  [
                    -81.845839,
                    26.540274
                  ],
                  [
                    -81.845847,
                    26.540251
                  ],
                  [
                    -81.845864,
                    26.540232
                  ],
                  [
                    -81.845887,
                    26.540219
                  ],
                  [
                    -81.845912,
                    26.540216
                  ],
                  [
                    -81.845924,
                    26.54022
                  ],
                  [
                    -81.84593,
                    26.540259
                  ],
                  [
                    -81.845924,
                    26.540262
                  ],
                  [
                    -81.845893,
                    26.540263
                  ],
                  [
                    -81.845889,
                    26.540268
                  ],
                  [
                    -81.84589,
                    26.540287
                  ],
                  [
                    -81.845896,
                    26.540297
                  ],
                  [
                    -81.845896,
                    26.540309
                  ],
                  [
                    -81.845892,
                    26.540318
                  ],
                  [
                    -81.845893,
                    26.540505
                  ],
                  [
                    -81.845888,
                    26.540511
                  ]
                ]
              ]
            },
            "properties": {
              "id": 7,
              "area": 1830.59,
              "perimeter": 253.79
            }
          },
          {
            "type": "Feature",
            "geometry": {
              "type": "Polygon",
              "coordinates": [
                [
                  [
                    -81.846514,
                    26.540472
                  ],
                  [
                    -81.846507,
                    26.540464
                  ],
                  [
                    -81.846502,
                    26.540402
                  ],
                  [
                    -81.846493,
                    26.540395
                  ],
                  [
                    -81.846487,
                    26.540392
                  ],
                  [
                    -81.846456,
                    26.540393
                  ],
                  [
                    -81.846406,
                    26.540397
                  ],
                  [
                    -81.846393,
                    26.540403
                  ],
                  [
                    -81.84638,
                    26.540402
                  ],
                  [
                    -81.84638,
                    26.540362
                  ],
                  [
                    -81.846395,
                    26.540366
                  ],
                  [
                    -81.846398,
                    26.54036
                  ],
                  [
                    -81.846391,
                    26.540358
                  ],
                  [
                    -81.846388,
                    26.540361
                  ],
                  [
                    -81.84638,
                    26.540358
                  ],
                  [
                    -81.846377,
                    26.54032
                  ],
                  [
                    -81.846379,
                    26.540295
                  ],
                  [
                    -81.846375,
                    26.54027
                  ],
                  [
                    -81.846514,
                    26.540268
                  ],
                  [
                    -81.846519,
                    26.540279
                  ],
                  [
                    -81.846517,
                    26.540356
                  ],
                  [
                    -81.846521,
                    26.540376
                  ],
                  [
                    -81.846517,
                    26.540405
                  ],
                  [
                    -81.846519,
                    26.540456
                  ],
                  [
                    -81.846514,
                    26.540472
                  ]
                ]
              ]
            },
            "properties": {
              "id": 8,
              "area": 2213.28,
              "perimeter": 249.3
            }
          },
          {
            "type": "Feature",
            "geometry": {
              "type": "Polygon",
              "coordinates": [
                [
                  [
                    -81.84656,
                    26.54053
                  ],
                  [
                    -81.846539,
                    26.540528
                  ],
                  [
                    -81.84654,
                    26.540505
                  ],
                  [
                    -81.846546,
                    26.540501
                  ],
                  [
                    -81.84658,
                    26.540501
                  ],
                  [
                    -81.846587,
                    26.540508
                  ],
                  [
                    -81.846584,
                    26.540527
                  ],
                  [
                    -81.84656,
                    26.54053
                  ]
                ]
              ]
            },
            "properties": {
              "id": 9,
              "area": 148.03,
              "perimeter": 47.15
            }
          },
          {
            "type": "Feature",
            "geometry": {
              "type": "Polygon",
              "coordinates": [
                [
                  [
                    -81.845242,
                    26.540857
                  ],
                  [
                    -81.84523,
                    26.540853
                  ],
                  [
                    -81.845227,
                    26.540849
                  ],
                  [
                    -81.845224,
                    26.540808
                  ],
                  [
                    -81.845216,
                    26.540784
                  ],
                  [
                    -81.845215,
                    26.540698
                  ],
                  [
                    -81.845221,
                    26.540687
                  ],
                  [
                    -81.845216,
                    26.540662
                  ],
                  [
                    -81.845225,
                    26.54065
                  ],
                  [
                    -81.84522,
                    26.540637
                  ],
                  [
                    -81.845221,
                    26.540624
                  ],
                  [
                    -81.84523,
                    26.540618
                  ],
                  [
                    -81.845221,
                    26.540608
                  ],
                  [
                    -81.845218,
                    26.540557
                  ],
                  [
                    -81.845212,
                    26.540551
                  ],
                  [
                    -81.845212,
                    26.540507
                  ],
                  [
                    -81.845215,
                    26.540505
                  ],
                  [
                    -81.845228,
                    26.540507
                  ],
                  [
                    -81.845212,
                    26.540498
                  ],
                  [
                    -81.845214,
                    26.540491
                  ],
                  [
                    -81.845211,
                    26.540445
                  ],
                  [
                    -81.845217,
                    26.540431
                  ],
                  [
                    -81.845219,
                    26.540411
                  ],
                  [
                    -81.84526,
                    26.540369
                  ],
                  [
                    -81.845346,
                    26.54029
                  ],
                  [
                    -81.845356,
                    26.5403
                  ],
                  [
                    -81.845357,
                    26.540338
                  ],
                  [
                    -81.845358,
                    26.540327
                  ],
                  [
                    -81.845359,
                    26.54033
                  ],
                  [
                    -81.845356,
                    26.540375
                  ],
                  [
                    -81.845359,
                    26.54038
                  ],
                  [
                    -81.845359,
                    26.540405
                  ],
                  [
                    -81.845363,
                    26.540417
                  ],
                  [
                    -81.845361,
                    26.540421
                  ],
                  [
                    -81.84533,
                    26.540424
                  ],
                  [
                    -81.845312,
                    26.54042
                  ],
                  [
                    -81.845305,
                    26.540413
                  ],
                  [
                    -81.845282,
                    26.540414
                  ],
                  [
                    -81.845273,
                    26.54042
                  ],
                  [
                    -81.845267,
                    26.54042
                  ],
                  [
                    -81.845265,
                    26.540414
                  ],
                  [
                    -81.845258,
                    26.540413
                  ],
                  [
                    -81.845239,
                    26.540413
                  ],
                  [
                    -81.845236,
                    26.540417
                  ],
                  [
                    -81.845237,
                    26.5405
                  ],
                  [
                    -81.845241,
                    26.540513
                  ],
                  [
                    -81.845237,
                    26.540524
                  ],
                  [
                    -81.845241,
                    26.540538
                  ],
                  [
                    -81.845238,
                    26.540545
                  ],
                  [
                    -81.845241,
                    26.540589
                  ],
                  [
                    -81.845239,
                    26.540618
                  ],
                  [
                    -81.845242,
                    26.540638
                  ],
                  [
                    -81.845236,
                    26.540651
                  ],
                  [
                    -81.84524,
                    26.540656
                  ],
                  [
                    -81.845242,
                    26.540722
                  ],
                  [
                    -81.845246,
                    26.540733
                  ],
                  [
                    -81.845246,
                    26.540758
                  ],
                  [
                    -81.845242,
                    26.540772
                  ],
                  [
                    -81.845242,
                    26.540857
                  ]
                ]
              ]
            },
            "properties": {
              "id": 10,
              "area": 2378.01,
              "perimeter": 505.06
            }
          },
          {
            "type": "Feature",
            "geometry": {
              "type": "Polygon",
              "coordinates": [
                [
                  [
                    -81.845718,
                    26.541143
                  ],
                  [
                    -81.845693,
                    26.541143
                  ],
                  [
                    -81.845684,
                    26.541139
                  ],
                  [
                    -81.845678,
                    26.541143
                  ],
                  [
                    -81.845576,
                    26.541144
                  ],
                  [
                    -81.845551,
                    26.54114
                  ],
                  [
                    -81.845538,
                    26.541144
                  ],
                  [
                    -81.845492,
                    26.541144
                  ],
                  [
                    -81.845448,
                    26.541139
                  ],
                  [
                    -81.845434,
                    26.541133
                  ],
                  [
                    -81.845433,
                    26.541127
                  ],
                  [
                    -81.845428,
                    26.541132
                  ],
                  [
                    -81.845281,
                    26.541074
                  ],
                  [
                    -81.845165,
                    26.540978
                  ],
                  [
                    -81.845072,
                    26.540917
                  ],
                  [
                    -81.845016,
                    26.54089
                  ],
                  [
                    -81.845038,
                    26.540868
                  ],
                  [
                    -81.845039,
                    26.540822
                  ],
                  [
                    -81.844995,
                    26.540745
                  ],
                  [
                    -81.844999,
                    26.540741
                  ],
                  [
                    -81.844983,
                    26.54075
                  ],
                  [
                    -81.844992,
                    26.540744
                  ],
                  [
                    -81.845011,
                    26.540713
                  ],
                  [
                    -81.84502,
                    26.540681
                  ],
                  [
                    -81.845031,
                    26.540658
                  ],
                  [
                    -81.845027,
                    26.540606
                  ],
                  [
                    -81.845033,
                    26.540584
                  ],
                  [
                    -81.845034,
                    26.540484
                  ],
                  [
                    -81.845027,
                    26.540452
                  ],
                  [
                    -81.845029,
                    26.540447
                  ],
                  [
                    -81.845023,
                    26.540247
                  ],
                  [
                    -81.845025,
                    26.540234
                  ],
                  [
                    -81.845017,
                    26.540202
                  ],
                  [
                    -81.845004,
                    26.540184
                  ],
                  [
                    -81.844997,
                    26.540183
                  ],
                  [
                    -81.844996,
                    26.540172
                  ],
                  [
                    -81.844989,
                    26.540166
                  ],
                  [
                    -81.844985,
                    26.540166
                  ],
                  [
                    -81.844982,
                    26.540171
                  ],
                  [
                    -81.844944,
                    26.540139
                  ],
                  [
                    -81.844942,
                    26.540009
                  ],
                  [
                    -81.844959,
                    26.540009
                  ],
                  [
                    -81.84497,
                    26.540015
                  ],
                  [
                    -81.844974,
                    26.540024
                  ],
                  [
                    -81.84498,
                    26.540026
                  ],
                  [
                    -81.844986,
                    26.540025
                  ],
                  [
                    -81.844989,
                    26.540019
                  ],
                  [
                    -81.845,
                    26.540011
                  ],
                  [
                    -81.845267,
                    26.540035
                  ],
                  [
                    -81.845277,
                    26.54005
                  ],
                  [
                    -81.845285,
                    26.540052
                  ],
                  [
                    -81.845301,
                    26.540041
                  ],
                  [
                    -81.845367,
                    26.540046
                  ],
                  [
                    -81.845377,
                    26.540058
                  ],
                  [
                    -81.845387,
                    26.540062
                  ],
                  [
                    -81.845454,
                    26.540056
                  ],
                  [
                    -81.845591,
                    26.540065
                  ],
                  [
                    -81.845701,
                    26.540065
                  ],
                  [
                    -81.84575,
                    26.540073
                  ],
                  [
                    -81.84576,
                    26.540082
                  ],
                  [
                    -81.845762,
                    26.540091
                  ],
                  [
                    -81.845758,
                    26.540107
                  ],
                  [
                    -81.845737,
                    26.540124
                  ],
                  [
                    -81.845726,
                    26.54014
                  ],
                  [
                    -81.845708,
                    26.540144
                  ],
                  [
                    -81.845687,
                    26.540142
                  ],
                  [
                    -81.845677,
                    26.540134
                  ],
                  [
                    -81.84565,
                    26.540128
                  ],
                  [
                    -81.845641,
                    26.540121
                  ],
                  [
                    -81.845603,
                    26.540115
                  ],
                  [
                    -81.845571,
                    26.540121
                  ],
                  [
                    -81.845558,
                    26.54012
                  ],
                  [
                    -81.845543,
                    26.540123
                  ],
                  [
                    -81.845537,
                    26.540128
                  ],
                  [
                    -81.845524,
                    26.540127
                  ],
                  [
                    -81.84549,
                    26.540135
                  ],
                  [
                    -81.845479,
                    26.540134
                  ],
                  [
                    -81.84547,
                    26.540128
                  ],
                  [
                    -81.845446,
                    26.540127
                  ],
                  [
                    -81.845434,
                    26.540119
                  ],
                  [
                    -81.845428,
                    26.540119
                  ],
                  [
                    -81.845406,
                    26.540126
                  ],
                  [
                    -81.845388,
                    26.540127
                  ],
                  [
                    -81.845369,
                    26.540136
                  ],
                  [
                    -81.845364,
                    26.540142
                  ],
                  [
                    -81.845323,
                    26.540146
                  ],
                  [
                    -81.845297,
                    26.540153
                  ],
                  [
                    -81.845257,
                    26.540152
                  ],
                  [
                    -81.845232,
                    26.540155
                  ],
                  [
                    -81.845205,
                    26.540163
                  ],
                  [
                    -81.845194,
                    26.540172
                  ],
                  [
                    -81.845141,
                    26.540201
                  ],
                  [
                    -81.845129,
                    26.540221
                  ],
                  [
                    -81.845121,
                    26.540242
                  ],
                  [
                    -81.845087,
                    26.540278
                  ],
                  [
                    -81.845086,
                    26.540287
                  ],
                  [
                    -81.845093,
                    26.540313
                  ],
                  [
                    -81.845086,
                    26.540346
                  ],
                  [
                    -81.84507,
                    26.540384
                  ],
                  [
                    -81.845074,
                    26.540516
                  ],
                  [
                    -81.845069,
                    26.540551
                  ],
                  [
                    -81.84507,
                    26.540566
                  ],
                  [
                    -81.845074,
                    26.540571
                  ],
                  [
                    -81.845072,
                    26.5406
                  ],
                  [
                    -81.845075,
                    26.540619
                  ],
                  [
                    -81.845074,
                    26.540649
                  ],
                  [
                    -81.845078,
                    26.540672
                  ],
                  [
                    -81.845078,
                    26.540839
                  ],
                  [
                    -81.845079,
                    26.540849
                  ],
                  [
                    -81.84509,
                    26.540877
                  ],
                  [
                    -81.845107,
                    26.540901
                  ],
                  [
                    -81.84511,
                    26.540915
                  ],
                  [
                    -81.84515,
                    26.540931
                  ],
                  [
                    -81.845169,
                    26.540951
                  ],
                  [
                    -81.845173,
                    26.540951
                  ],
                  [
                    -81.845193,
                    26.540965
                  ],
                  [
                    -81.845263,
                    26.541021
                  ],
                  [
                    -81.845299,
                    26.541045
                  ],
                  [
                    -81.845357,
                    26.541077
                  ],
                  [
                    -81.845422,
                    26.5411
                  ],
                  [
                    -81.845435,
                    26.541108
                  ],
                  [
                    -81.845451,
                    26.541106
                  ],
                  [
                    -81.845481,
                    26.541113
                  ],
                  [
                    -81.845533,
                    26.541118
                  ],
                  [
                    -81.845719,
                    26.541116
                  ],
                  [
                    -81.845724,
                    26.541128
                  ],
                  [
                    -81.845718,
                    26.541143
                  ]
                ],
                [
                  [
                    -81.844999,
                    26.54074
                  ],
                  [
                    -81.845002,
                    26.540742
                  ],
                  [
                    -81.845006,
                    26.540736
                  ],
                  [
                    -81.845002,
                    26.540737
                  ],
                  [
                    -81.844999,
                    26.54074
                  ]
                ],
                [
                  [
                    -81.845002,
                    26.540737
                  ],
                  [
                    -81.845002,
                    26.540733
                  ],
                  [
                    -81.845001,
                    26.540732
                  ],
                  [
                    -81.845002,
                    26.540737
                  ]
                ]
              ]
            },
            "properties": {
              "id": 11,
              "area": 17425.85,
              "perimeter": 1643.32
            }
          },
          {
            "type": "Feature",
            "geometry": {
              "type": "Polygon",
              "coordinates": [
                [
                  [
                    -81.845002,
                    26.540739
                  ],
                  [
                    -81.844999,
                    26.54074
                  ],
                  [
                    -81.845002,
                    26.540738
                  ],
                  [
                    -81.845002,
                    26.540739
                  ]
                ]
              ]
            },
            "properties": {
              "id": 12,
              "area": 0.18,
              "perimeter": 2.63
            }
          },
          {
            "type": "Feature",
            "geometry": {
              "type": "Polygon",
              "coordinates": [
                [
                  [
                    -81.845174,
                    26.540615
                  ],
                  [
                    -81.84516,
                    26.540617
                  ],
                  [
                    -81.845155,
                    26.540614
                  ],
                  [
                    -81.845157,
                    26.540595
                  ],
                  [
                    -81.845165,
                    26.540591
                  ],
                  [
                    -81.845208,
                    26.540592
                  ],
                  [
                    -81.845208,
                    26.540611
                  ],
                  [
                    -81.845205,
                    26.540615
                  ],
                  [
                    -81.845183,
                    26.540614
                  ],
                  [
                    -81.845179,
                    26.540611
                  ],
                  [
                    -81.845175,
                    26.540611
                  ],
                  [
                    -81.845174,
                    26.540615
                  ]
                ]
              ]
            },
            "properties": {
              "id": 13,
              "area": 140.12,
              "perimeter": 50.96
            }
          },
          {
            "type": "Feature",
            "geometry": {
              "type": "Polygon",
              "coordinates": [
                [
                  [
                    -81.846893,
                    26.540172
                  ],
                  [
                    -81.846891,
                    26.540245
                  ],
                  [
                    -81.846886,
                    26.540258
                  ],
                  [
                    -81.846881,
                    26.540322
                  ],
                  [
                    -81.846886,
                    26.540408
                  ],
                  [
                    -81.84686,
                    26.541086
                  ],
                  [
                    -81.846843,
                    26.541106
                  ],
                  [
                    -81.846811,
                    26.541117
                  ],
                  [
                    -81.846815,
                    26.540968
                  ],
                  [
                    -81.846814,
                    26.540844
                  ],
                  [
                    -81.846818,
                    26.540833
                  ],
                  [
                    -81.846819,
                    26.540737
                  ],
                  [
                    -81.846824,
                    26.540653
                  ],
                  [
                    -81.846836,
                    26.54012
                  ],
                  [
                    -81.846889,
                    26.540162
                  ],
                  [
                    -81.846893,
                    26.540172
                  ]
                ]
              ]
            },
            "properties": {
              "id": 14,
              "area": 6092.77,
              "perimeter": 742.84
            }
          },
          {
            "type": "Feature",
            "geometry": {
              "type": "Polygon",
              "coordinates": [
                [
                  [
                    -81.846811,
                    26.5401
                  ],
                  [
                    -81.846821,
                    26.540108
                  ],
                  [
                    -81.846817,
                    26.540197
                  ],
                  [
                    -81.846817,
                    26.54044
                  ],
                  [
                    -81.846813,
                    26.540486
                  ],
                  [
                    -81.846816,
                    26.540505
                  ],
                  [
                    -81.846813,
                    26.54052
                  ],
                  [
                    -81.846816,
                    26.540532
                  ],
                  [
                    -81.846811,
                    26.540557
                  ],
                  [
                    -81.846814,
                    26.540574
                  ],
                  [
                    -81.84681,
                    26.540595
                  ],
                  [
                    -81.846811,
                    26.540645
                  ],
                  [
                    -81.846803,
                    26.540832
                  ],
                  [
                    -81.846799,
                    26.540857
                  ],
                  [
                    -81.846805,
                    26.540902
                  ],
                  [
                    -81.846802,
                    26.540909
                  ],
                  [
                    -81.846795,
                    26.541123
                  ],
                  [
                    -81.84678,
                    26.541128
                  ],
                  [
                    -81.846765,
                    26.541128
                  ],
                  [
                    -81.84676,
                    26.541122
                  ],
                  [
                    -81.846754,
                    26.541127
                  ],
                  [
                    -81.846749,
                    26.541123
                  ],
                  [
                    -81.846738,
                    26.541123
                  ],
                  [
                    -81.846731,
                    26.541128
                  ],
                  [
                    -81.846721,
                    26.541129
                  ],
                  [
                    -81.84665,
                    26.541131
                  ],
                  [
                    -81.84644,
                    26.541129
                  ],
                  [
                    -81.846405,
                    26.541131
                  ],
                  [
                    -81.846397,
                    26.541134
                  ],
                  [
                    -81.846352,
                    26.541134
                  ],
                  [
                    -81.846331,
                    26.54113
                  ],
                  [
                    -81.846301,
                    26.541135
                  ],
                  [
                    -81.846266,
                    26.541133
                  ],
                  [
                    -81.846243,
                    26.541136
                  ],
                  [
                    -81.846229,
                    26.541132
                  ],
                  [
                    -81.846165,
                    26.541136
                  ],
                  [
                    -81.846066,
                    26.541134
                  ],
                  [
                    -81.846047,
                    26.541139
                  ],
                  [
                    -81.845928,
                    26.541138
                  ],
                  [
                    -81.845913,
                    26.541134
                  ],
                  [
                    -81.845908,
                    26.541127
                  ],
                  [
                    -81.84591,
                    26.541118
                  ],
                  [
                    -81.845914,
                    26.541115
                  ],
                  [
                    -81.845933,
                    26.541113
                  ],
                  [
                    -81.846205,
                    26.541108
                  ],
                  [
                    -81.846229,
                    26.541111
                  ],
                  [
                    -81.846236,
                    26.541114
                  ],
                  [
                    -81.846241,
                    26.541121
                  ],
                  [
                    -81.846245,
                    26.54111
                  ],
                  [
                    -81.846255,
                    26.541106
                  ],
                  [
                    -81.846642,
                    26.541101
                  ],
                  [
                    -81.846732,
                    26.541103
                  ],
                  [
                    -81.846736,
                    26.5411
                  ],
                  [
                    -81.846735,
                    26.541045
                  ],
                  [
                    -81.846681,
                    26.541042
                  ],
                  [
                    -81.846677,
                    26.541032
                  ],
                  [
                    -81.846678,
                    26.541022
                  ],
                  [
                    -81.846687,
                    26.541014
                  ],
                  [
                    -81.846714,
                    26.541013
                  ],
                  [
                    -81.846719,
                    26.54101
                  ],
                  [
                    -81.84673,
                    26.540968
                  ],
                  [
                    -81.846726,
                    26.540943
                  ],
                  [
                    -81.84673,
                    26.540897
                  ],
                  [
                    -81.846729,
                    26.540831
                  ],
                  [
                    -81.846723,
                    26.540794
                  ],
                  [
                    -81.846712,
                    26.540786
                  ],
                  [
                    -81.846682,
                    26.540787
                  ],
                  [
                    -81.846675,
                    26.540782
                  ],
                  [
                    -81.846672,
                    26.540773
                  ],
                  [
                    -81.846672,
                    26.540763
                  ],
                  [
                    -81.846677,
                    26.540757
                  ],
                  [
                    -81.846686,
                    26.540754
                  ],
                  [
                    -81.846707,
                    26.540754
                  ],
                  [
                    -81.846719,
                    26.540748
                  ],
                  [
                    -81.846728,
                    26.540709
                  ],
                  [
                    -81.846725,
                    26.540539
                  ],
                  [
                    -81.846709,
                    26.540517
                  ],
                  [
                    -81.846706,
                    26.540516
                  ],
                  [
                    -81.846706,
                    26.54052
                  ],
                  [
                    -81.846701,
                    26.540523
                  ],
                  [
                    -81.846681,
                    26.540525
                  ],
                  [
                    -81.846672,
                    26.54052
                  ],
                  [
                    -81.846669,
                    26.540511
                  ],
                  [
                    -81.84667,
                    26.540507
                  ],
                  [
                    -81.846677,
                    26.540503
                  ],
                  [
                    -81.846712,
                    26.540507
                  ],
                  [
                    -81.846721,
                    26.540498
                  ],
                  [
                    -81.846726,
                    26.540486
                  ],
                  [
                    -81.846719,
                    26.540436
                  ],
                  [
                    -81.846719,
                    26.540343
                  ],
                  [
                    -81.846714,
                    26.540322
                  ],
                  [
                    -81.846717,
                    26.540282
                  ],
                  [
                    -81.846711,
                    26.540255
                  ],
                  [
                    -81.846667,
                    26.540255
                  ],
                  [
                    -81.84666,
                    26.540235
                  ],
                  [
                    -81.846661,
                    26.540227
                  ],
                  [
                    -81.846666,
                    26.540222
                  ],
                  [
                    -81.846706,
                    26.540221
                  ],
                  [
                    -81.846712,
                    26.540218
                  ],
                  [
                    -81.846718,
                    26.540195
                  ],
                  [
                    -81.846714,
                    26.540147
                  ],
                  [
                    -81.846692,
                    26.54014
                  ],
                  [
                    -81.846672,
                    26.540142
                  ],
                  [
                    -81.846626,
                    26.540137
                  ],
                  [
                    -81.846598,
                    26.540138
                  ],
                  [
                    -81.846584,
                    26.540132
                  ],
                  [
                    -81.84656,
                    26.54013
                  ],
                  [
                    -81.846547,
                    26.540134
                  ],
                  [
                    -81.846537,
                    26.540133
                  ],
                  [
                    -81.846517,
                    26.540125
                  ],
                  [
                    -81.846513,
                    26.540125
                  ],
                  [
                    -81.846496,
                    26.540139
                  ],
                  [
                    -81.846487,
                    26.540139
                  ],
                  [
                    -81.846487,
                    26.54013
                  ],
                  [
                    -81.846482,
                    26.540129
                  ],
                  [
                    -81.846463,
                    26.540127
                  ],
                  [
                    -81.846429,
                    26.540134
                  ],
                  [
                    -81.846391,
                    26.540123
                  ],
                  [
                    -81.846383,
                    26.540124
                  ],
                  [
                    -81.846363,
                    26.540138
                  ],
                  [
                    -81.846309,
                    26.540138
                  ],
                  [
                    -81.846286,
                    26.540135
                  ],
                  [
                    -81.846264,
                    26.54012
                  ],
                  [
                    -81.846269,
                    26.540119
                  ],
                  [
                    -81.846277,
                    26.540102
                  ],
                  [
                    -81.846286,
                    26.540093
                  ],
                  [
                    -81.846291,
                    26.540092
                  ],
                  [
                    -81.846311,
                    26.540094
                  ],
                  [
                    -81.846337,
                    26.540107
                  ],
                  [
                    -81.846337,
                    26.54011
                  ],
                  [
                    -81.846359,
                    26.540105
                  ],
                  [
                    -81.846365,
                    26.540099
                  ],
                  [
                    -81.846363,
                    26.540093
                  ],
                  [
                    -81.846377,
                    26.540092
                  ],
                  [
                    -81.846386,
                    26.5401
                  ],
                  [
                    -81.846406,
                    26.540103
                  ],
                  [
                    -81.846414,
                    26.540103
                  ],
                  [
                    -81.846432,
                    26.540096
                  ],
                  [
                    -81.846459,
                    26.540103
                  ],
                  [
                    -81.846474,
                    26.540097
                  ],
                  [
                    -81.846482,
                    26.540098
                  ],
                  [
                    -81.846483,
                    26.540092
                  ],
                  [
                    -81.846487,
                    26.540089
                  ],
                  [
                    -81.84658,
                    26.540086
                  ],
                  [
                    -81.846667,
                    26.540088
                  ],
                  [
                    -81.846679,
                    26.540098
                  ],
                  [
                    -81.846692,
                    26.5401
                  ],
                  [
                    -81.846703,
                    26.54009
                  ],
                  [
                    -81.846722,
                    26.54009
                  ],
                  [
                    -81.846724,
                    26.540086
                  ],
                  [
                    -81.846767,
                    26.540088
                  ],
                  [
                    -81.846784,
                    26.540086
                  ],
                  [
                    -81.846796,
                    26.540089
                  ],
                  [
                    -81.846811,
                    26.5401
                  ]
                ]
              ]
            },
            "properties": {
              "id": 15,
              "area": 16074.19,
              "perimeter": 1773.36
            }
          },
          {
            "type": "Feature",
            "geometry": {
              "type": "Polygon",
              "coordinates": [
                [
                  [
                    -81.846542,
                    26.540786
                  ],
                  [
                    -81.84654,
                    26.540765
                  ],
                  [
                    -81.846582,
                    26.540763
                  ],
                  [
                    -81.84659,
                    26.540774
                  ],
                  [
                    -81.846585,
                    26.540785
                  ],
                  [
                    -81.846542,
                    26.540786
                  ]
                ]
              ]
            },
            "properties": {
              "id": 16,
              "area": 117.54,
              "perimeter": 44.58
            }
          },
          {
            "type": "Feature",
            "geometry": {
              "type": "Polygon",
              "coordinates": [
                [
                  [
                    -81.84523,
                    26.540893
                  ],
                  [
                    -81.845216,
                    26.54089
                  ],
                  [
                    -81.845177,
                    26.540859
                  ],
                  [
                    -81.845165,
                    26.54084
                  ],
                  [
                    -81.845167,
                    26.540828
                  ],
                  [
                    -81.845178,
                    26.540823
                  ],
                  [
                    -81.845208,
                    26.540823
                  ],
                  [
                    -81.845212,
                    26.540826
                  ],
                  [
                    -81.845212,
                    26.540856
                  ],
                  [
                    -81.845216,
                    26.540864
                  ],
                  [
                    -81.845224,
                    26.540866
                  ],
                  [
                    -81.845254,
                    26.540864
                  ],
                  [
                    -81.845254,
                    26.54087
                  ],
                  [
                    -81.845249,
                    26.540877
                  ],
                  [
                    -81.84523,
                    26.540893
                  ]
                ]
              ]
            },
            "properties": {
              "id": 17,
              "area": 346.62,
              "perimeter": 89.98
            }
          },
          {
            "type": "Feature",
            "geometry": {
              "type": "Polygon",
              "coordinates": [
                [
                  [
                    -81.845902,
                    26.540963
                  ],
                  [
                    -81.845902,
                    26.540993
                  ],
                  [
                    -81.845905,
                    26.540995
                  ],
                  [
                    -81.845951,
                    26.540996
                  ],
                  [
                    -81.845961,
                    26.540999
                  ],
                  [
                    -81.845963,
                    26.541006
                  ],
                  [
                    -81.84596,
                    26.541033
                  ],
                  [
                    -81.845943,
                    26.541041
                  ],
                  [
                    -81.845887,
                    26.541041
                  ],
                  [
                    -81.845868,
                    26.541035
                  ],
                  [
                    -81.845861,
                    26.541029
                  ],
                  [
                    -81.845853,
                    26.541013
                  ],
                  [
                    -81.845848,
                    26.540761
                  ],
                  [
                    -81.84585,
                    26.54075
                  ],
                  [
                    -81.845863,
                    26.54073
                  ],
                  [
                    -81.845874,
                    26.540725
                  ],
                  [
                    -81.845882,
                    26.540727
                  ],
                  [
                    -81.845887,
                    26.540734
                  ],
                  [
                    -81.845887,
                    26.540767
                  ],
                  [
                    -81.845869,
                    26.540771
                  ],
                  [
                    -81.84586,
                    26.540783
                  ],
                  [
                    -81.845859,
                    26.540819
                  ],
                  [
                    -81.845865,
                    26.54094
                  ],
                  [
                    -81.845902,
                    26.540963
                  ]
                ]
              ]
            },
            "properties": {
              "id": 18,
              "area": 1228.55,
              "perimeter": 292.83
            }
          },
          {
            "type": "Feature",
            "geometry": {
              "type": "Polygon",
              "coordinates": [
                [
                  [
                    -81.845361,
                    26.540926
                  ],
                  [
                    -81.845351,
                    26.540926
                  ],
                  [
                    -81.845338,
                    26.540909
                  ],
                  [
                    -81.845314,
                    26.540898
                  ],
                  [
                    -81.845298,
                    26.540883
                  ],
                  [
                    -81.845297,
                    26.540866
                  ],
                  [
                    -81.84529,
                    26.540863
                  ],
                  [
                    -81.845343,
                    26.540859
                  ],
                  [
                    -81.84537,
                    26.54086
                  ],
                  [
                    -81.845369,
                    26.540911
                  ],
                  [
                    -81.845367,
                    26.540922
                  ],
                  [
                    -81.845361,
                    26.540926
                  ]
                ]
              ]
            },
            "properties": {
              "id": 19,
              "area": 412.23,
              "perimeter": 87.12
            }
          },
          {
            "type": "Feature",
            "geometry": {
              "type": "Polygon",
              "coordinates": [
                [
                  [
                    -81.846584,
                    26.541016
                  ],
                  [
                    -81.84657,
                    26.541025
                  ],
                  [
                    -81.846551,
                    26.541027
                  ],
                  [
                    -81.846544,
                    26.541019
                  ],
                  [
                    -81.846546,
                    26.540995
                  ],
                  [
                    -81.846544,
                    26.540982
                  ],
                  [
                    -81.846546,
                    26.540988
                  ],
                  [
                    -81.846544,
                    26.540981
                  ],
                  [
                    -81.846542,
                    26.54098
                  ],
                  [
                    -81.846508,
                    26.540972
                  ],
                  [
                    -81.846436,
                    26.540972
                  ],
                  [
                    -81.846389,
                    26.54096
                  ],
                  [
                    -81.846389,
                    26.540953
                  ],
                  [
                    -81.846395,
                    26.540946
                  ],
                  [
                    -81.846392,
                    26.540934
                  ],
                  [
                    -81.846395,
                    26.54093
                  ],
                  [
                    -81.846398,
                    26.540932
                  ],
                  [
                    -81.846397,
                    26.540919
                  ],
                  [
                    -81.846391,
                    26.540912
                  ],
                  [
                    -81.846391,
                    26.540897
                  ],
                  [
                    -81.846398,
                    26.540897
                  ],
                  [
                    -81.846398,
                    26.540888
                  ],
                  [
                    -81.846389,
                    26.54088
                  ],
                  [
                    -81.846389,
                    26.540846
                  ],
                  [
                    -81.846523,
                    26.540841
                  ],
                  [
                    -81.846523,
                    26.540854
                  ],
                  [
                    -81.846519,
                    26.540866
                  ],
                  [
                    -81.846519,
                    26.540897
                  ],
                  [
                    -81.84653,
                    26.540944
                  ],
                  [
                    -81.846544,
                    26.540954
                  ],
                  [
                    -81.846562,
                    26.540947
                  ],
                  [
                    -81.846578,
                    26.540951
                  ],
                  [
                    -81.846589,
                    26.540965
                  ],
                  [
                    -81.846594,
                    26.540967
                  ],
                  [
                    -81.846595,
                    26.540992
                  ],
                  [
                    -81.846584,
                    26.541016
                  ]
                ]
              ]
            },
            "properties": {
              "id": 20,
              "area": 2432.55,
              "perimeter": 260.53
            }
          },
          {
            "type": "Feature",
            "geometry": {
              "type": "Polygon",
              "coordinates": [
                [
                  [
                    -81.845392,
                    26.541018
                  ],
                  [
                    -81.845373,
                    26.541014
                  ],
                  [
                    -81.84537,
                    26.541011
                  ],
                  [
                    -81.845373,
                    26.541004
                  ],
                  [
                    -81.84536,
                    26.540991
                  ],
                  [
                    -81.84533,
                    26.540982
                  ],
                  [
                    -81.845321,
                    26.540972
                  ],
                  [
                    -81.845322,
                    26.540964
                  ],
                  [
                    -81.845344,
                    26.540937
                  ],
                  [
                    -81.845352,
                    26.54094
                  ],
                  [
                    -81.845353,
                    26.54095
                  ],
                  [
                    -81.845358,
                    26.54095
                  ],
                  [
                    -81.845358,
                    26.540958
                  ],
                  [
                    -81.845361,
                    26.54096
                  ],
                  [
                    -81.845364,
                    26.540953
                  ],
                  [
                    -81.845371,
                    26.54097
                  ],
                  [
                    -81.845387,
                    26.540977
                  ],
                  [
                    -81.845395,
                    26.540987
                  ],
                  [
                    -81.845394,
                    26.540999
                  ],
                  [
                    -81.845398,
                    26.541008
                  ],
                  [
                    -81.845392,
                    26.541018
                  ]
                ]
              ]
            },
            "properties": {
              "id": 21,
              "area": 325.71,
              "perimeter": 90.93
            }
          },
          {
            "type": "Feature",
            "geometry": {
              "type": "Polygon",
              "coordinates": [
                [
                  [
                    -81.845752,
                    26.541042
                  ],
                  [
                    -81.845732,
                    26.541046
                  ],
                  [
                    -81.84572,
                    26.541043
                  ],
                  [
                    -81.845713,
                    26.541046
                  ],
                  [
                    -81.845701,
                    26.541044
                  ],
                  [
                    -81.845693,
                    26.541037
                  ],
                  [
                    -81.84569,
                    26.541018
                  ],
                  [
                    -81.845694,
                    26.540999
                  ],
                  [
                    -81.845732,
                    26.540995
                  ],
                  [
                    -81.845742,
                    26.540989
                  ],
                  [
                    -81.845742,
                    26.540983
                  ],
                  [
                    -81.845746,
                    26.540978
                  ],
                  [
                    -81.845743,
                    26.540969
                  ],
                  [
                    -81.845745,
                    26.540955
                  ],
                  [
                    -81.845758,
                    26.54097
                  ],
                  [
                    -81.845755,
                    26.540976
                  ],
                  [
                    -81.845758,
                    26.540983
                  ],
                  [
                    -81.845759,
                    26.540981
                  ],
                  [
                    -81.845766,
                    26.540983
                  ],
                  [
                    -81.845774,
                    26.540977
                  ],
                  [
                    -81.845778,
                    26.540991
                  ],
                  [
                    -81.845778,
                    26.541011
                  ],
                  [
                    -81.845774,
                    26.541022
                  ],
                  [
                    -81.845765,
                    26.541035
                  ],
                  [
                    -81.845752,
                    26.541042
                  ]
                ]
              ]
            },
            "properties": {
              "id": 22,
              "area": 542.61,
              "perimeter": 110.25
            }
          },
          {
            "type": "Feature",
            "geometry": {
              "type": "Polygon",
              "coordinates": [
                [
                  [
                    -81.846262,
                    26.541027
                  ],
                  [
                    -81.846253,
                    26.541034
                  ],
                  [
                    -81.846244,
                    26.541034
                  ],
                  [
                    -81.846237,
                    26.541028
                  ],
                  [
                    -81.846236,
                    26.540989
                  ],
                  [
                    -81.846264,
                    26.540989
                  ],
                  [
                    -81.846262,
                    26.541027
                  ]
                ]
              ]
            },
            "properties": {
              "id": 23,
              "area": 134.3,
              "perimeter": 47.16
            }
          }
        ]
      }
    }
  ],
  "input": {
    "id": "f7e16d15-1253-485d-ae11-5debbe782219",
    "address": "13881 Plantation Rd, Fort Myers, FL 33912, USA",
    "aoi_geojson": {
      "type": "FeatureCollection",
      "features": [
        {
          "type": "Feature",
          "geometry": {
            "type": "Polygon",
            "coordinates": [
              [
                [
                  -81.844941,
                  26.539978
                ],
                [
                  -81.845086,
                  26.539987
                ],
                [
                  -81.845357,
                  26.540018
                ],
                [
                  -81.845485,
                  26.540028
                ],
                [
                  -81.845613,
                  26.540033
                ],
                [
                  -81.845742,
                  26.540033
                ],
                [
                  -81.845907,
                  26.540031
                ],
                [
                  -81.84623,
                  26.540053
                ],
                [
                  -81.846751,
                  26.540045
                ],
                [
                  -81.846723,
                  26.541086
                ],
                [
                  -81.845476,
                  26.541105
                ],
                [
                  -81.845419,
                  26.541102
                ],
                [
                  -81.845363,
                  26.541092
                ],
                [
                  -81.845309,
                  26.541075
                ],
                [
                  -81.845258,
                  26.541052
                ],
                [
                  -81.845211,
                  26.541023
                ],
                [
                  -81.845122,
                  26.54095
                ],
                [
                  -81.845072,
                  26.540917
                ],
                [
                  -81.845016,
                  26.54089
                ],
                [
                  -81.844958,
                  26.54087
                ],
                [
                  -81.844941,
                  26.539978
                ]
              ]
            ]
          },
          "properties": {}
        }
      ]
    },
    "parcel_area": 238393,
    "name": "Parcel",
    "lat": null,
    "lon": null,
    "is_edited": false
  },
  "status": 3,
  "additional_seconds": 0,
  "eta": 60.0,
  "initial_eta": 60.0,
  "completed_at": null,
  "generated_at": null,
  "created_at": "2021-01-22T17:28:58.802310+05:30",
  "is_eta_update": false,
  "feature_report": {
    "id": "17854716-6609-4797-aeda-14490ab3c5e0",
    "name": "Lawn Report",
    "description": "Lawn measurement, ideal for all properties.",
    "features": [
      {
        "id": "73ddf02e-a068-45f7-a2a1-77c9ec207a3c",
        "name": "Lawn",
        "identifier": "lawn"
      }
    ],
    "attributes": {
      "id": "71a8d434-5427-4366-9aef-91306e0ad796",
      "min_threshold_price": 0.2,
      "max_threshold_price": 0.12,
      "first_range_price": 0.17,
      "second_range_price": 0.14,
      "min_threshold_area": 50000,
      "mid_threshold_area": 200000,
      "max_threshold_area": 1000000,
      "feature_report_definition": null,
      "average_time": 720,
      "average_time_exceed": 360,
      "pdf_sample": "https://storage.googleapis.com/falcon-prod-filestore/prod/pdf_samples/2021_4_20/LAWN_REPORT.pdf",
      "excel_sample": "https://storage.googleapis.com/falcon-prod-filestore/prod/excel_samples/2021_4_20/Lawn_Report___Sample_2.xlsx",
      "order": 1,
      "is_default": false
    }
  },
  "job_id_map": {},
  "tiff_url": null,
  "feedback": {},
  "is_sample": false,
  "shareable_link": "",
  "features": [
    {
      "id": "73ddf02e-a068-45f7-a2a1-77c9ec207a3c",
      "name": "Lawn",
      "identifier": "lawn"
    }
  ]
}