{
  "id": "0b1d41da-80e9-4664-a152-6d9f82748b2f",
  "outputs": [
    {
      "id": "9dd6f6df-267d-4f66-9ca4-609872370969",
      "feature": {
        "id": "df73cc66-4d50-445e-a906-70b6e7bfc189",
        "name": "Sidewalk",
        "geometry_type": 3,
        "is_custom": false
      },
      "style": {
        "color": "#E1FF00",
        "width": 3,
        "opacity": 0.5,
        "is_visible": true,
        "layer_order": 1
      },
      "measurements": [
        {
          "name": "area",
          "value": 10229,
          "unit": "sqft"
        },
        {
          "name": "perimeter",
          "value": 2583,
          "unit": "ft"
        }
      ],
      "output_geojson": {
        "type": "FeatureCollection",
        "features": [
          {
            "type": "Feature",
            "geometry": {
              "type": "Polygon",
              "coordinates": [
                [
                  [
                    -82.907535,
                    39.924055
                  ],
                  [
                    -82.907508,
                    39.924053
                  ],
                  [
                    -82.907509,
                    39.924035
                  ],
                  [
                    -82.907536,
                    39.924036
                  ],
                  [
                    -82.907535,
                    39.924055
                  ]
                ]
              ]
            },
            "properties": {
              "id": 1,
              "area": 51.98,
              "perimeter": 28.91
            }
          },
          {
            "type": "Feature",
            "geometry": {
              "type": "Polygon",
              "coordinates": [
                [
                  [
                    -82.906298,
                    39.92394
                  ],
                  [
                    -82.906306,
                    39.923851
                  ],
                  [
                    -82.906325,
                    39.923852
                  ],
                  [
                    -82.906318,
                    39.923941
                  ],
                  [
                    -82.906298,
                    39.92394
                  ]
                ]
              ]
            },
            "properties": {
              "id": 2,
              "area": 176.51,
              "perimeter": 75.51
            }
          },
          {
            "type": "Feature",
            "geometry": {
              "type": "Polygon",
              "coordinates": [
                [
                  [
                    -82.907538,
                    39.924016
                  ],
                  [
                    -82.907515,
                    39.924013
                  ],
                  [
                    -82.907517,
                    39.923999
                  ],
                  [
                    -82.907541,
                    39.924001
                  ],
                  [
                    -82.907538,
                    39.924016
                  ]
                ]
              ]
            },
            "properties": {
              "id": 3,
              "area": 35.62,
              "perimeter": 23.97
            }
          },
          {
            "type": "Feature",
            "geometry": {
              "type": "Polygon",
              "coordinates": [
                [
                  [
                    -82.907359,
                    39.924415
                  ],
                  [
                    -82.907349,
                    39.924415
                  ],
                  [
                    -82.907358,
                    39.92432
                  ],
                  [
                    -82.905644,
                    39.924226
                  ],
                  [
                    -82.905525,
                    39.924268
                  ],
                  [
                    -82.905474,
                    39.924294
                  ],
                  [
                    -82.905431,
                    39.924291
                  ],
                  [
                    -82.905525,
                    39.924243
                  ],
                  [
                    -82.905613,
                    39.92421
                  ],
                  [
                    -82.905642,
                    39.924203
                  ],
                  [
                    -82.905691,
                    39.924208
                  ],
                  [
                    -82.906067,
                    39.924228
                  ],
                  [
                    -82.906098,
                    39.923936
                  ],
                  [
                    -82.906102,
                    39.923926
                  ],
                  [
                    -82.906118,
                    39.923907
                  ],
                  [
                    -82.906237,
                    39.923836
                  ],
                  [
                    -82.90626,
                    39.923851
                  ],
                  [
                    -82.906131,
                    39.923927
                  ],
                  [
                    -82.906124,
                    39.923937
                  ],
                  [
                    -82.906093,
                    39.924229
                  ],
                  [
                    -82.906271,
                    39.924239
                  ],
                  [
                    -82.906278,
                    39.924147
                  ],
                  [
                    -82.906295,
                    39.924148
                  ],
                  [
                    -82.906288,
                    39.92424
                  ],
                  [
                    -82.906763,
                    39.924265
                  ],
                  [
                    -82.906767,
                    39.924217
                  ],
                  [
                    -82.906799,
                    39.924219
                  ],
                  [
                    -82.906795,
                    39.924267
                  ],
                  [
                    -82.90736,
                    39.9243
                  ],
                  [
                    -82.907372,
                    39.924179
                  ],
                  [
                    -82.907292,
                    39.924175
                  ],
                  [
                    -82.907294,
                    39.924153
                  ],
                  [
                    -82.907374,
                    39.924157
                  ],
                  [
                    -82.907389,
                    39.924005
                  ],
                  [
                    -82.907378,
                    39.923989
                  ],
                  [
                    -82.906922,
                    39.923967
                  ],
                  [
                    -82.906916,
                    39.924038
                  ],
                  [
                    -82.906896,
                    39.924037
                  ],
                  [
                    -82.906902,
                    39.923966
                  ],
                  [
                    -82.906891,
                    39.923966
                  ],
                  [
                    -82.906894,
                    39.923933
                  ],
                  [
                    -82.907077,
                    39.923945
                  ],
                  [
                    -82.907083,
                    39.923879
                  ],
                  [
                    -82.907054,
                    39.923876
                  ],
                  [
                    -82.907057,
                    39.923856
                  ],
                  [
                    -82.907085,
                    39.923858
                  ],
                  [
                    -82.907103,
                    39.923668
                  ],
                  [
                    -82.907131,
                    39.923669
                  ],
                  [
                    -82.907105,
                    39.923946
                  ],
                  [
                    -82.907381,
                    39.923957
                  ],
                  [
                    -82.90738,
                    39.923953
                  ],
                  [
                    -82.907409,
                    39.92397
                  ],
                  [
                    -82.90742,
                    39.923985
                  ],
                  [
                    -82.907424,
                    39.924007
                  ],
                  [
                    -82.907419,
                    39.924006
                  ],
                  [
                    -82.907379,
                    39.924411
                  ],
                  [
                    -82.907363,
                    39.92441
                  ],
                  [
                    -82.907363,
                    39.924416
                  ],
                  [
                    -82.907359,
                    39.924415
                  ]
                ]
              ]
            },
            "properties": {
              "id": 4,
              "area": 9965.19,
              "perimeter": 2454.42
            }
          }
        ]
      }
    }
  ],
  "input": {
    "id": "7ced9cb1-d47b-4dcc-ad7e-6da17e42cfe2",
    "address": "2360 Garnet Place, Columbus, OH, USA",
    "aoi_geojson": {
      "type": "FeatureCollection",
      "features": [
        {
          "type": "Feature",
          "geometry": {
            "type": "Polygon",
            "coordinates": [
              [
                [
                  -82.905483,
                  39.923087
                ],
                [
                  -82.907965,
                  39.923232
                ],
                [
                  -82.907858,
                  39.924428
                ],
                [
                  -82.907328,
                  39.924398
                ],
                [
                  -82.905548,
                  39.924293
                ],
                [
                  -82.905375,
                  39.924282
                ],
                [
                  -82.905483,
                  39.923087
                ]
              ]
            ]
          },
          "properties": {}
        }
      ]
    },
    "parcel_area": 308806,
    "name": "Parcel",
    "lat": null,
    "lon": null,
    "is_edited": false
  },
  "status": 3,
  "additional_seconds": 0,
  "eta": 3578.0,
  "initial_eta": 3578.0,
  "completed_at": "2021-06-02T21:17:56.709846+05:30",
  "generated_at": "2021-06-02T20:46:11.332135+05:30",
  "created_at": "2021-06-02T20:46:01.085796+05:30",
  "is_eta_update": false,
  "feature_report": {
    "id": "6c4c4925-f2f4-4aa5-9c7e-04cb8eea572d",
    "name": "ygj",
    "description": null,
    "features": [
      {
        "id": "df73cc66-4d50-445e-a906-70b6e7bfc189",
        "name": "Sidewalk",
        "identifier": "sidewalk"
      }
    ],
    "attributes": {
      "id": "2911c262-0d1b-484f-8517-948573c69403",
      "min_threshold_price": 0.1,
      "max_threshold_price": 0.05,
      "first_range_price": 0.08,
      "second_range_price": 0.07,
      "min_threshold_area": 50000,
      "mid_threshold_area": 200000,
      "max_threshold_area": 1000000,
      "feature_report_definition": null,
      "average_time": 60,
      "average_time_exceed": 30,
      "pdf_sample": null,
      "excel_sample": null,
      "order": null,
      "is_default": false
    }
  },
  "job_id_map": {
    "ml_process": {
      "FalconHardscape": "94569ded-a97c-4927-96c7-c5332b27a1e6"
    },
    "qa_process": "ebfffd89-397b-4e95-8a87-0cedf4a653f5",
    "qc_process": "3ca87228-0ae5-45e5-8230-de1e82c22f71",
    "imagery_fetching_process": "83c4711d-788c-4643-b4c7-56b2ca8dc0f5",
    "parcel_correction_process": "309c9039-98ad-4a8e-9bb9-9ac0ce022217",
    "canopy_cover_check_process": "df00a574-c7d0-4b29-be58-99beedb09115",
    "parcel_correction_qa_process": "194e711e-454c-429f-a623-201598c98515"
  },
  "tiff_url": "https://storage.googleapis.com/autofx-outputs/ImageryFetchingProcessV3/83c4711d-788c-4643-b4c7-56b2ca8dc0f5/output_tiff.tif",
  "feedback": {},
  "is_sample": false,
  "shareable_link": "https://app.attentive.ai/shared-view?id=afdc5499-801d-45a2-8eb8-c97bcf4831b3",
  "features": [
    {
      "id": "df73cc66-4d50-445e-a906-70b6e7bfc189",
      "name": "Sidewalk",
      "identifier": "sidewalk"
    }
  ]
}