{
  "id": "19424eb7-c282-4e2b-98bc-9904a4032546",
  "outputs": [
    {
      "id": "112e1b97-3f7b-4efc-ad46-2a5a7ef60a9b",
      "feature": {
        "id": "73ddf02e-a068-45f7-a2a1-77c9ec207a3c",
        "name": "Lawn",
        "geometry_type": 3,
        "is_custom": false
      },
      "style": {
        "color": "#2DCA73",
        "width": 1,
        "opacity": 0.2,
        "is_visible": true,
        "layer_order": 1
      },
      "measurements": [
        {
          "name": "area",
          "value": 3407,
          "unit": "sqft"
        },
        {
          "name": "perimeter",
          "value": 441,
          "unit": "ft"
        }
      ],
      "output_geojson": {
        "type": "FeatureCollection",
        "features": [
          {
            "type": "Feature",
            "geometry": {
              "type": "Polygon",
              "coordinates": [
                [
                  [
                    -70.224503,
                    43.616274
                  ],
                  [
                    -70.224495,
                    43.616317
                  ],
                  [
                    -70.224481,
                    43.616336
                  ],
                  [
                    -70.224464,
                    43.616344
                  ],
                  [
                    -70.224442,
                    43.616347
                  ],
                  [
                    -70.224412,
                    43.616341
                  ],
                  [
                    -70.22438,
                    43.616319
                  ],
                  [
                    -70.224357,
                    43.616282
                  ],
                  [
                    -70.224353,
                    43.616248
                  ],
                  [
                    -70.224373,
                    43.616214
                  ],
                  [
                    -70.224388,
                    43.616222
                  ],
                  [
                    -70.224397,
                    43.616234
                  ],
                  [
                    -70.224385,
                    43.616252
                  ],
                  [
                    -70.224384,
                    43.616275
                  ],
                  [
                    -70.224403,
                    43.616288
                  ],
                  [
                    -70.224428,
                    43.616298
                  ],
                  [
                    -70.224456,
                    43.616288
                  ],
                  [
                    -70.224463,
                    43.616267
                  ],
                  [
                    -70.224503,
                    43.616274
                  ]
                ]
              ]
            },
            "properties": {
              "id": 1,
              "area": 846.15,
              "perimeter": 162.69
            }
          },
          {
            "type": "Feature",
            "geometry": {
              "type": "Polygon",
              "coordinates": [
                [
                  [
                    -70.22428,
                    43.616622
                  ],
                  [
                    -70.224244,
                    43.616606
                  ],
                  [
                    -70.224215,
                    43.616582
                  ],
                  [
                    -70.224178,
                    43.616566
                  ],
                  [
                    -70.224122,
                    43.616575
                  ],
                  [
                    -70.224034,
                    43.616624
                  ],
                  [
                    -70.224001,
                    43.616633
                  ],
                  [
                    -70.22396,
                    43.61662
                  ],
                  [
                    -70.223935,
                    43.616597
                  ],
                  [
                    -70.223946,
                    43.616551
                  ],
                  [
                    -70.22394,
                    43.61651
                  ],
                  [
                    -70.223989,
                    43.616503
                  ],
                  [
                    -70.223999,
                    43.616514
                  ],
                  [
                    -70.224034,
                    43.61654
                  ],
                  [
                    -70.224136,
                    43.61652
                  ],
                  [
                    -70.224185,
                    43.616518
                  ],
                  [
                    -70.224242,
                    43.616533
                  ],
                  [
                    -70.224326,
                    43.616599
                  ],
                  [
                    -70.22428,
                    43.616622
                  ]
                ]
              ]
            },
            "properties": {
              "id": 2,
              "area": 2560.78,
              "perimeter": 278.57
            }
          }
        ]
      }
    }
  ],
  "input": {
    "id": "4c4b31d2-f1be-4e9c-b101-87ae88238e64",
    "address": "35 Rock Crest Dr, Cape Elizabeth, ME 04107, USA",
    "aoi_geojson": {
      "type": "FeatureCollection",
      "features": [
        {
          "type": "Feature",
          "geometry": {
            "type": "Polygon",
            "coordinates": [
              [
                [
                  -70.224323,
                  43.616135
                ],
                [
                  -70.224334,
                  43.616155
                ],
                [
                  -70.224342,
                  43.616165
                ],
                [
                  -70.224359,
                  43.616185
                ],
                [
                  -70.22438,
                  43.616203
                ],
                [
                  -70.224403,
                  43.616218
                ],
                [
                  -70.224431,
                  43.616231
                ],
                [
                  -70.224459,
                  43.616241
                ],
                [
                  -70.224474,
                  43.616245
                ],
                [
                  -70.224505,
                  43.61625
                ],
                [
                  -70.224521,
                  43.616252
                ],
                [
                  -70.224561,
                  43.616253
                ],
                [
                  -70.224571,
                  43.61637
                ],
                [
                  -70.224677,
                  43.61711
                ],
                [
                  -70.223342,
                  43.616502
                ],
                [
                  -70.223314,
                  43.616379
                ],
                [
                  -70.224323,
                  43.616135
                ]
              ]
            ]
          },
          "properties": {}
        }
      ]
    },
    "parcel_area": 69132,
    "name": "Parcel",
    "lat": null,
    "lon": null,
    "is_edited": false
  },
  "status": 3,
  "additional_seconds": 0,
  "eta": 356.2,
  "initial_eta": 356.2,
  "completed_at": "2021-02-11T21:58:46.590544+05:30",
  "generated_at": null,
  "created_at": "2021-02-11T21:52:23.240527+05:30",
  "is_eta_update": false,
  "feature_report": {
    "id": "17854716-6609-4797-aeda-14490ab3c5e0",
    "name": "Lawn Report",
    "description": "Lawn measurement, ideal for all properties.",
    "features": [
      {
        "id": "73ddf02e-a068-45f7-a2a1-77c9ec207a3c",
        "name": "Lawn",
        "identifier": "lawn"
      }
    ],
    "attributes": {
      "id": "71a8d434-5427-4366-9aef-91306e0ad796",
      "min_threshold_price": 0.2,
      "max_threshold_price": 0.12,
      "first_range_price": 0.17,
      "second_range_price": 0.14,
      "min_threshold_area": 50000,
      "mid_threshold_area": 200000,
      "max_threshold_area": 1000000,
      "feature_report_definition": null,
      "average_time": 720,
      "average_time_exceed": 360,
      "pdf_sample": "https://storage.googleapis.com/falcon-prod-filestore/prod/pdf_samples/2021_4_20/LAWN_REPORT.pdf",
      "excel_sample": "https://storage.googleapis.com/falcon-prod-filestore/prod/excel_samples/2021_4_20/Lawn_Report___Sample_2.xlsx",
      "order": 1,
      "is_default": false
    }
  },
  "job_id_map": {
    "ml_process": "7e80a8af-3125-4ca7-8e6d-647acbcdf258",
    "qa_process": "33b2efdb-9815-4470-8b0b-907b8609f88c",
    "qc_process": "a250dc67-2a31-4885-8c21-5b6c1c720146",
    "tiff_to_png_process": "a98853e4-710d-4bd2-a3cb-af934c57833c",
    "imagery_fetching_process": "fe14b991-cd2f-4d4e-8426-aa0d8593ec41",
    "parcel_correction_process": "1d59e482-9550-492c-b35c-dabb7d5824b2"
  },
  "tiff_url": "https://storage.googleapis.com/autofx-outputs/ImageryFetchingProcess/fe14b991-cd2f-4d4e-8426-aa0d8593ec41/output_tiff.tif",
  "feedback": {},
  "is_sample": false,
  "shareable_link": "",
  "features": [
    {
      "id": "73ddf02e-a068-45f7-a2a1-77c9ec207a3c",
      "name": "Lawn",
      "identifier": "lawn"
    }
  ]
}