{
  "id": "22347a63-57f5-4956-9f5e-d34c1cfedafd",
  "outputs": [
    {
      "id": "1e0102d8-5103-4efa-81e0-e36b2e8b8c43",
      "feature": {
        "id": "73ddf02e-a068-45f7-a2a1-77c9ec207a3c",
        "name": "Lawn",
        "geometry_type": 3,
        "is_custom": false
      },
      "style": {
        "color": "#2DCA73",
        "width": 1,
        "opacity": 0.2,
        "is_visible": true,
        "layer_order": 1
      },
      "measurements": [
        {
          "name": "area",
          "value": 201730,
          "unit": "sqft"
        },
        {
          "name": "perimeter",
          "value": 6643,
          "unit": "ft"
        }
      ],
      "output_geojson": {
        "type": "FeatureCollection",
        "features": [
          {
            "type": "Feature",
            "geometry": {
              "type": "Polygon",
              "coordinates": [
                [
                  [
                    -82.907092,
                    39.923785
                  ],
                  [
                    -82.907084,
                    39.923856
                  ],
                  [
                    -82.907062,
                    39.923851
                  ],
                  [
                    -82.907068,
                    39.923829
                  ],
                  [
                    -82.907067,
                    39.923804
                  ],
                  [
                    -82.907072,
                    39.923763
                  ],
                  [
                    -82.906975,
                    39.923754
                  ],
                  [
                    -82.906972,
                    39.923747
                  ],
                  [
                    -82.906978,
                    39.923684
                  ],
                  [
                    -82.906974,
                    39.923681
                  ],
                  [
                    -82.906861,
                    39.923675
                  ],
                  [
                    -82.906858,
                    39.923673
                  ],
                  [
                    -82.906859,
                    39.923658
                  ],
                  [
                    -82.906869,
                    39.923656
                  ],
                  [
                    -82.907102,
                    39.923669
                  ],
                  [
                    -82.907102,
                    39.923695
                  ],
                  [
                    -82.907092,
                    39.923785
                  ]
                ]
              ]
            },
            "properties": {
              "id": 1,
              "area": 1624.65,
              "perimeter": 268.53
            }
          },
          {
            "type": "Feature",
            "geometry": {
              "type": "Polygon",
              "coordinates": [
                [
                  [
                    -82.90658,
                    39.923898
                  ],
                  [
                    -82.906322,
                    39.923875
                  ],
                  [
                    -82.906327,
                    39.923851
                  ],
                  [
                    -82.906585,
                    39.923862
                  ],
                  [
                    -82.90658,
                    39.923898
                  ]
                ]
              ]
            },
            "properties": {
              "id": 2,
              "area": 799.5,
              "perimeter": 167.37
            }
          },
          {
            "type": "Feature",
            "geometry": {
              "type": "Polygon",
              "coordinates": [
                [
                  [
                    -82.907079,
                    39.923879
                  ],
                  [
                    -82.907074,
                    39.923945
                  ],
                  [
                    -82.906894,
                    39.923933
                  ],
                  [
                    -82.906895,
                    39.923926
                  ],
                  [
                    -82.907054,
                    39.923936
                  ],
                  [
                    -82.907059,
                    39.923879
                  ],
                  [
                    -82.907079,
                    39.923879
                  ]
                ]
              ]
            },
            "properties": {
              "id": 3,
              "area": 255.84,
              "perimeter": 148.5
            }
          },
          {
            "type": "Feature",
            "geometry": {
              "type": "Polygon",
              "coordinates": [
                [
                  [
                    -82.907965,
                    39.923232
                  ],
                  [
                    -82.907858,
                    39.924428
                  ],
                  [
                    -82.90748,
                    39.924407
                  ],
                  [
                    -82.907482,
                    39.92436
                  ],
                  [
                    -82.907489,
                    39.924333
                  ],
                  [
                    -82.907486,
                    39.92431
                  ],
                  [
                    -82.907491,
                    39.924265
                  ],
                  [
                    -82.90749,
                    39.924246
                  ],
                  [
                    -82.907496,
                    39.924231
                  ],
                  [
                    -82.907499,
                    39.924167
                  ],
                  [
                    -82.907506,
                    39.924136
                  ],
                  [
                    -82.907506,
                    39.924056
                  ],
                  [
                    -82.907509,
                    39.924054
                  ],
                  [
                    -82.907535,
                    39.924056
                  ],
                  [
                    -82.907535,
                    39.924068
                  ],
                  [
                    -82.90755,
                    39.92407
                  ],
                  [
                    -82.907551,
                    39.924081
                  ],
                  [
                    -82.907564,
                    39.924082
                  ],
                  [
                    -82.907564,
                    39.924072
                  ],
                  [
                    -82.907584,
                    39.92407
                  ],
                  [
                    -82.907587,
                    39.924057
                  ],
                  [
                    -82.907582,
                    39.924055
                  ],
                  [
                    -82.907583,
                    39.924038
                  ],
                  [
                    -82.907509,
                    39.924033
                  ],
                  [
                    -82.907513,
                    39.924017
                  ],
                  [
                    -82.907539,
                    39.924018
                  ],
                  [
                    -82.907539,
                    39.924025
                  ],
                  [
                    -82.907578,
                    39.924027
                  ],
                  [
                    -82.907581,
                    39.92402
                  ],
                  [
                    -82.907581,
                    39.923993
                  ],
                  [
                    -82.907545,
                    39.923991
                  ],
                  [
                    -82.907541,
                    39.923994
                  ],
                  [
                    -82.907541,
                    39.923999
                  ],
                  [
                    -82.907523,
                    39.923999
                  ],
                  [
                    -82.907533,
                    39.923988
                  ],
                  [
                    -82.907543,
                    39.923969
                  ],
                  [
                    -82.907557,
                    39.923965
                  ],
                  [
                    -82.907769,
                    39.923973
                  ],
                  [
                    -82.907784,
                    39.923969
                  ],
                  [
                    -82.907787,
                    39.923963
                  ],
                  [
                    -82.907805,
                    39.923777
                  ],
                  [
                    -82.907809,
                    39.923759
                  ],
                  [
                    -82.907816,
                    39.923687
                  ],
                  [
                    -82.907812,
                    39.923682
                  ],
                  [
                    -82.907799,
                    39.923677
                  ],
                  [
                    -82.907744,
                    39.923674
                  ],
                  [
                    -82.907731,
                    39.923669
                  ],
                  [
                    -82.907721,
                    39.923656
                  ],
                  [
                    -82.907722,
                    39.923623
                  ],
                  [
                    -82.907712,
                    39.923618
                  ],
                  [
                    -82.907475,
                    39.923604
                  ],
                  [
                    -82.907453,
                    39.9236
                  ],
                  [
                    -82.907404,
                    39.9236
                  ],
                  [
                    -82.907148,
                    39.923586
                  ],
                  [
                    -82.907145,
                    39.923588
                  ],
                  [
                    -82.907141,
                    39.923632
                  ],
                  [
                    -82.907138,
                    39.923638
                  ],
                  [
                    -82.907091,
                    39.923638
                  ],
                  [
                    -82.906992,
                    39.923629
                  ],
                  [
                    -82.906981,
                    39.923624
                  ],
                  [
                    -82.906982,
                    39.923573
                  ],
                  [
                    -82.906981,
                    39.923567
                  ],
                  [
                    -82.906977,
                    39.923564
                  ],
                  [
                    -82.90686,
                    39.923556
                  ],
                  [
                    -82.906779,
                    39.923555
                  ],
                  [
                    -82.906713,
                    39.92355
                  ],
                  [
                    -82.906694,
                    39.923544
                  ],
                  [
                    -82.906684,
                    39.923533
                  ],
                  [
                    -82.906687,
                    39.923463
                  ],
                  [
                    -82.906683,
                    39.923459
                  ],
                  [
                    -82.906631,
                    39.923461
                  ],
                  [
                    -82.906608,
                    39.923456
                  ],
                  [
                    -82.906564,
                    39.923453
                  ],
                  [
                    -82.906277,
                    39.923443
                  ],
                  [
                    -82.906274,
                    39.923449
                  ],
                  [
                    -82.906264,
                    39.923563
                  ],
                  [
                    -82.906252,
                    39.923644
                  ],
                  [
                    -82.906252,
                    39.923666
                  ],
                  [
                    -82.906243,
                    39.923734
                  ],
                  [
                    -82.90624,
                    39.923786
                  ],
                  [
                    -82.906242,
                    39.923813
                  ],
                  [
                    -82.906239,
                    39.923834
                  ],
                  [
                    -82.906227,
                    39.923845
                  ],
                  [
                    -82.90612,
                    39.923905
                  ],
                  [
                    -82.906102,
                    39.923923
                  ],
                  [
                    -82.906091,
                    39.923983
                  ],
                  [
                    -82.906068,
                    39.92421
                  ],
                  [
                    -82.906066,
                    39.924223
                  ],
                  [
                    -82.906062,
                    39.924226
                  ],
                  [
                    -82.905933,
                    39.924222
                  ],
                  [
                    -82.905941,
                    39.924221
                  ],
                  [
                    -82.905639,
                    39.924204
                  ],
                  [
                    -82.905617,
                    39.924207
                  ],
                  [
                    -82.905611,
                    39.924212
                  ],
                  [
                    -82.905553,
                    39.924231
                  ],
                  [
                    -82.905471,
                    39.924272
                  ],
                  [
                    -82.905447,
                    39.924287
                  ],
                  [
                    -82.905375,
                    39.924282
                  ],
                  [
                    -82.905483,
                    39.923087
                  ],
                  [
                    -82.907965,
                    39.923232
                  ]
                ],
                [
                  [
                    -82.906432,
                    39.923435
                  ],
                  [
                    -82.906456,
                    39.92343
                  ],
                  [
                    -82.906508,
                    39.923429
                  ],
                  [
                    -82.906516,
                    39.923425
                  ],
                  [
                    -82.906522,
                    39.923407
                  ],
                  [
                    -82.906527,
                    39.923403
                  ],
                  [
                    -82.906528,
                    39.923381
                  ],
                  [
                    -82.906531,
                    39.923375
                  ],
                  [
                    -82.906531,
                    39.923361
                  ],
                  [
                    -82.906527,
                    39.923352
                  ],
                  [
                    -82.90653,
                    39.923331
                  ],
                  [
                    -82.906525,
                    39.923326
                  ],
                  [
                    -82.906524,
                    39.923312
                  ],
                  [
                    -82.906531,
                    39.923292
                  ],
                  [
                    -82.906527,
                    39.923263
                  ],
                  [
                    -82.906517,
                    39.923243
                  ],
                  [
                    -82.906498,
                    39.923237
                  ],
                  [
                    -82.906492,
                    39.923228
                  ],
                  [
                    -82.906481,
                    39.923223
                  ],
                  [
                    -82.906412,
                    39.923227
                  ],
                  [
                    -82.906382,
                    39.923237
                  ],
                  [
                    -82.906367,
                    39.923255
                  ],
                  [
                    -82.906359,
                    39.92328
                  ],
                  [
                    -82.906353,
                    39.923286
                  ],
                  [
                    -82.906349,
                    39.923297
                  ],
                  [
                    -82.906348,
                    39.923374
                  ],
                  [
                    -82.906351,
                    39.923413
                  ],
                  [
                    -82.906392,
                    39.923419
                  ],
                  [
                    -82.90641,
                    39.923425
                  ],
                  [
                    -82.906416,
                    39.923432
                  ],
                  [
                    -82.906432,
                    39.923435
                  ]
                ]
              ]
            },
            "properties": {
              "id": 4,
              "area": 171773.31,
              "perimeter": 3371.07
            }
          },
          {
            "type": "Feature",
            "geometry": {
              "type": "Polygon",
              "coordinates": [
                [
                  [
                    -82.906896,
                    39.924034
                  ],
                  [
                    -82.906886,
                    39.924034
                  ],
                  [
                    -82.906891,
                    39.923962
                  ],
                  [
                    -82.906902,
                    39.923962
                  ],
                  [
                    -82.906896,
                    39.924034
                  ]
                ]
              ]
            },
            "properties": {
              "id": 5,
              "area": 77.24,
              "perimeter": 58.44
            }
          },
          {
            "type": "Feature",
            "geometry": {
              "type": "Polygon",
              "coordinates": [
                [
                  [
                    -82.906917,
                    39.924036
                  ],
                  [
                    -82.906915,
                    39.924033
                  ],
                  [
                    -82.906919,
                    39.924021
                  ],
                  [
                    -82.906924,
                    39.923965
                  ],
                  [
                    -82.907,
                    39.923967
                  ],
                  [
                    -82.907096,
                    39.923975
                  ],
                  [
                    -82.907213,
                    39.923979
                  ],
                  [
                    -82.907239,
                    39.923983
                  ],
                  [
                    -82.907375,
                    39.92399
                  ],
                  [
                    -82.907387,
                    39.924005
                  ],
                  [
                    -82.907376,
                    39.924156
                  ],
                  [
                    -82.907313,
                    39.924155
                  ],
                  [
                    -82.907299,
                    39.924152
                  ],
                  [
                    -82.907298,
                    39.924131
                  ],
                  [
                    -82.907304,
                    39.924096
                  ],
                  [
                    -82.907305,
                    39.924061
                  ],
                  [
                    -82.906917,
                    39.924036
                  ]
                ]
              ]
            },
            "properties": {
              "id": 6,
              "area": 4234.64,
              "perimeter": 378.87
            }
          },
          {
            "type": "Feature",
            "geometry": {
              "type": "Polygon",
              "coordinates": [
                [
                  [
                    -82.906268,
                    39.924239
                  ],
                  [
                    -82.906102,
                    39.924228
                  ],
                  [
                    -82.906095,
                    39.924223
                  ],
                  [
                    -82.906095,
                    39.924203
                  ],
                  [
                    -82.906109,
                    39.924097
                  ],
                  [
                    -82.906109,
                    39.924063
                  ],
                  [
                    -82.906122,
                    39.923975
                  ],
                  [
                    -82.906123,
                    39.923947
                  ],
                  [
                    -82.90613,
                    39.92393
                  ],
                  [
                    -82.906153,
                    39.923911
                  ],
                  [
                    -82.906257,
                    39.923852
                  ],
                  [
                    -82.906268,
                    39.923849
                  ],
                  [
                    -82.906291,
                    39.923849
                  ],
                  [
                    -82.906307,
                    39.923852
                  ],
                  [
                    -82.9063,
                    39.92394
                  ],
                  [
                    -82.906215,
                    39.923935
                  ],
                  [
                    -82.906201,
                    39.923936
                  ],
                  [
                    -82.906194,
                    39.92394
                  ],
                  [
                    -82.906186,
                    39.924036
                  ],
                  [
                    -82.90618,
                    39.924073
                  ],
                  [
                    -82.90618,
                    39.9241
                  ],
                  [
                    -82.906175,
                    39.924128
                  ],
                  [
                    -82.906176,
                    39.924133
                  ],
                  [
                    -82.906183,
                    39.924137
                  ],
                  [
                    -82.906233,
                    39.924142
                  ],
                  [
                    -82.906267,
                    39.924142
                  ],
                  [
                    -82.906278,
                    39.924145
                  ],
                  [
                    -82.906273,
                    39.924228
                  ],
                  [
                    -82.906268,
                    39.924239
                  ]
                ]
              ]
            },
            "properties": {
              "id": 7,
              "area": 4208.53,
              "perimeter": 413.84
            }
          },
          {
            "type": "Feature",
            "geometry": {
              "type": "Polygon",
              "coordinates": [
                [
                  [
                    -82.906748,
                    39.924265
                  ],
                  [
                    -82.906296,
                    39.924241
                  ],
                  [
                    -82.90629,
                    39.924239
                  ],
                  [
                    -82.90629,
                    39.924223
                  ],
                  [
                    -82.906294,
                    39.924206
                  ],
                  [
                    -82.906298,
                    39.924204
                  ],
                  [
                    -82.906552,
                    39.924219
                  ],
                  [
                    -82.906557,
                    39.924213
                  ],
                  [
                    -82.906562,
                    39.924148
                  ],
                  [
                    -82.906565,
                    39.924139
                  ],
                  [
                    -82.906573,
                    39.924135
                  ],
                  [
                    -82.906637,
                    39.924138
                  ],
                  [
                    -82.906646,
                    39.924142
                  ],
                  [
                    -82.906642,
                    39.9242
                  ],
                  [
                    -82.906645,
                    39.924207
                  ],
                  [
                    -82.906745,
                    39.924212
                  ],
                  [
                    -82.906768,
                    39.924216
                  ],
                  [
                    -82.906766,
                    39.924256
                  ],
                  [
                    -82.906748,
                    39.924265
                  ]
                ]
              ]
            },
            "properties": {
              "id": 8,
              "area": 2682.48,
              "perimeter": 346.27
            }
          },
          {
            "type": "Feature",
            "geometry": {
              "type": "Polygon",
              "coordinates": [
                [
                  [
                    -82.90736,
                    39.9243
                  ],
                  [
                    -82.907244,
                    39.924296
                  ],
                  [
                    -82.906816,
                    39.924269
                  ],
                  [
                    -82.906799,
                    39.924262
                  ],
                  [
                    -82.906797,
                    39.924246
                  ],
                  [
                    -82.906798,
                    39.924242
                  ],
                  [
                    -82.906803,
                    39.92424
                  ],
                  [
                    -82.906852,
                    39.924241
                  ],
                  [
                    -82.907283,
                    39.924267
                  ],
                  [
                    -82.907287,
                    39.924265
                  ],
                  [
                    -82.907292,
                    39.924188
                  ],
                  [
                    -82.907295,
                    39.924179
                  ],
                  [
                    -82.9073,
                    39.924176
                  ],
                  [
                    -82.907369,
                    39.924179
                  ],
                  [
                    -82.907373,
                    39.924181
                  ],
                  [
                    -82.907371,
                    39.924214
                  ],
                  [
                    -82.907364,
                    39.924295
                  ],
                  [
                    -82.90736,
                    39.9243
                  ]
                ]
              ]
            },
            "properties": {
              "id": 9,
              "area": 2508.99,
              "perimeter": 401.41
            }
          },
          {
            "type": "Feature",
            "geometry": {
              "type": "Polygon",
              "coordinates": [
                [
                  [
                    -82.907328,
                    39.924398
                  ],
                  [
                    -82.905548,
                    39.924293
                  ],
                  [
                    -82.905486,
                    39.924289
                  ],
                  [
                    -82.905576,
                    39.924247
                  ],
                  [
                    -82.905601,
                    39.92424
                  ],
                  [
                    -82.905616,
                    39.924232
                  ],
                  [
                    -82.905658,
                    39.924226
                  ],
                  [
                    -82.905696,
                    39.924231
                  ],
                  [
                    -82.905745,
                    39.924231
                  ],
                  [
                    -82.905952,
                    39.924245
                  ],
                  [
                    -82.905988,
                    39.924244
                  ],
                  [
                    -82.906158,
                    39.924253
                  ],
                  [
                    -82.906208,
                    39.92426
                  ],
                  [
                    -82.906228,
                    39.924273
                  ],
                  [
                    -82.906242,
                    39.924277
                  ],
                  [
                    -82.90633,
                    39.924286
                  ],
                  [
                    -82.906359,
                    39.924286
                  ],
                  [
                    -82.906405,
                    39.924269
                  ],
                  [
                    -82.906431,
                    39.924269
                  ],
                  [
                    -82.906823,
                    39.924289
                  ],
                  [
                    -82.90689,
                    39.924296
                  ],
                  [
                    -82.907357,
                    39.924322
                  ],
                  [
                    -82.907359,
                    39.924334
                  ],
                  [
                    -82.907353,
                    39.924399
                  ],
                  [
                    -82.907328,
                    39.924398
                  ]
                ]
              ]
            },
            "properties": {
              "id": 10,
              "area": 13564.61,
              "perimeter": 1089.08
            }
          }
        ]
      }
    }
  ],
  "input": {
    "id": "18afd9b5-9742-4bce-b505-603c90ba01f0",
    "address": "2360 Garnet Pl, Columbus, OH 43232, United States",
    "aoi_geojson": {
      "type": "FeatureCollection",
      "features": [
        {
          "type": "Feature",
          "geometry": {
            "type": "Polygon",
            "coordinates": [
              [
                [
                  -82.905483,
                  39.923087
                ],
                [
                  -82.907965,
                  39.923232
                ],
                [
                  -82.907858,
                  39.924428
                ],
                [
                  -82.907328,
                  39.924398
                ],
                [
                  -82.905548,
                  39.924293
                ],
                [
                  -82.905375,
                  39.924282
                ],
                [
                  -82.905483,
                  39.923087
                ]
              ]
            ]
          },
          "properties": {}
        }
      ]
    },
    "parcel_area": 305049,
    "name": "Parcel",
    "lat": null,
    "lon": null,
    "is_edited": false
  },
  "status": 3,
  "additional_seconds": 0,
  "eta": 60.0,
  "initial_eta": 60.0,
  "completed_at": null,
  "generated_at": null,
  "created_at": "2021-02-01T20:30:23.629603+05:30",
  "is_eta_update": false,
  "feature_report": {
    "id": "17854716-6609-4797-aeda-14490ab3c5e0",
    "name": "Lawn Report",
    "description": "Lawn measurement, ideal for all properties.",
    "features": [
      {
        "id": "73ddf02e-a068-45f7-a2a1-77c9ec207a3c",
        "name": "Lawn",
        "identifier": "lawn"
      }
    ],
    "attributes": {
      "id": "71a8d434-5427-4366-9aef-91306e0ad796",
      "min_threshold_price": 0.2,
      "max_threshold_price": 0.12,
      "first_range_price": 0.17,
      "second_range_price": 0.14,
      "min_threshold_area": 50000,
      "mid_threshold_area": 200000,
      "max_threshold_area": 1000000,
      "feature_report_definition": null,
      "average_time": 720,
      "average_time_exceed": 360,
      "pdf_sample": "https://storage.googleapis.com/falcon-prod-filestore/prod/pdf_samples/2021_4_20/LAWN_REPORT.pdf",
      "excel_sample": "https://storage.googleapis.com/falcon-prod-filestore/prod/excel_samples/2021_4_20/Lawn_Report___Sample_2.xlsx",
      "order": 1,
      "is_default": false
    }
  },
  "job_id_map": {},
  "tiff_url": null,
  "feedback": {},
  "is_sample": false,
  "shareable_link": "",
  "features": [
    {
      "id": "73ddf02e-a068-45f7-a2a1-77c9ec207a3c",
      "name": "Lawn",
      "identifier": "lawn"
    }
  ]
}