{
  "id": "40eb36ca-b207-4c5c-8994-c25a657144fc",
  "outputs": [
    {
      "id": "89525c7e-4abc-4f47-bd6f-c6546ba6e4ac",
      "feature": {
        "id": "df73cc66-4d50-445e-a906-70b6e7bfc189",
        "name": "Sidewalk",
        "geometry_type": 3,
        "is_custom": false
      },
      "style": {
        "color": "#E1FF00",
        "width": 3,
        "opacity": 0.5,
        "is_visible": true,
        "layer_order": 1
      },
      "measurements": [
        {
          "name": "perimeter",
          "value": 281,
          "unit": "ft"
        },
        {
          "name": "area",
          "value": 550,
          "unit": "sqft"
        }
      ],
      "output_geojson": {
        "type": "FeatureCollection",
        "features": [
          {
            "type": "Feature",
            "geometry": {
              "type": "Polygon",
              "coordinates": [
                [
                  [
                    -81.045575,
                    29.155578
                  ],
                  [
                    -81.045589,
                    29.155577
                  ],
                  [
                    -81.045591,
                    29.155688
                  ],
                  [
                    -81.045577,
                    29.155688
                  ],
                  [
                    -81.045575,
                    29.155578
                  ]
                ]
              ]
            },
            "properties": {
              "id": 1,
              "area": 179.87,
              "perimeter": 89.07
            }
          },
          {
            "type": "Feature",
            "geometry": {
              "type": "Polygon",
              "coordinates": [
                [
                  [
                    -81.045704,
                    29.155775
                  ],
                  [
                    -81.045672,
                    29.155775
                  ],
                  [
                    -81.045671,
                    29.155736
                  ],
                  [
                    -81.045686,
                    29.155736
                  ],
                  [
                    -81.045685,
                    29.155763
                  ],
                  [
                    -81.045704,
                    29.155763
                  ],
                  [
                    -81.045704,
                    29.155775
                  ]
                ]
              ]
            },
            "properties": {
              "id": 2,
              "area": 88.33,
              "perimeter": 48.98
            }
          },
          {
            "type": "Feature",
            "geometry": {
              "type": "Polygon",
              "coordinates": [
                [
                  [
                    -81.045619,
                    29.155922
                  ],
                  [
                    -81.045606,
                    29.155923
                  ],
                  [
                    -81.045609,
                    29.155861
                  ],
                  [
                    -81.045607,
                    29.15585
                  ],
                  [
                    -81.045589,
                    29.155816
                  ],
                  [
                    -81.045583,
                    29.155797
                  ],
                  [
                    -81.045579,
                    29.155778
                  ],
                  [
                    -81.045579,
                    29.155741
                  ],
                  [
                    -81.045593,
                    29.155743
                  ],
                  [
                    -81.045594,
                    29.155785
                  ],
                  [
                    -81.045602,
                    29.15581
                  ],
                  [
                    -81.04562,
                    29.155847
                  ],
                  [
                    -81.045619,
                    29.155922
                  ]
                ]
              ]
            },
            "properties": {
              "id": 3,
              "area": 281.76,
              "perimeter": 142.98
            }
          }
        ]
      }
    },
    {
      "id": "db18e70a-3479-4398-8e6f-d199c24b99a6",
      "feature": {
        "id": "7b7dc0e2-9622-4bd3-b7f4-c99d47f3d560",
        "name": "Parking Spot",
        "geometry_type": 3,
        "is_custom": false
      },
      "style": {
        "color": "#5C2EDC",
        "width": 2,
        "opacity": 0.4,
        "is_visible": true,
        "layer_order": 1
      },
      "measurements": [
        {
          "name": "area",
          "value": 0,
          "unit": "sqft"
        },
        {
          "name": "perimeter",
          "value": 0,
          "unit": "ft"
        }
      ],
      "output_geojson": {
        "type": "FeatureCollection",
        "features": []
      }
    },
    {
      "id": "57049f53-8a4f-49d7-89e9-94c00f8f86f9",
      "feature": {
        "id": "95f4b6ba-519c-42fe-ac9c-30a02773baf1",
        "name": "Drivable Area",
        "geometry_type": 3,
        "is_custom": false
      },
      "style": {
        "color": "#09D2EC",
        "width": 4,
        "opacity": 0.4,
        "is_visible": true,
        "layer_order": 1
      },
      "measurements": [
        {
          "name": "area",
          "value": 871,
          "unit": "sqft"
        },
        {
          "name": "perimeter",
          "value": 141,
          "unit": "ft"
        }
      ],
      "output_geojson": {
        "type": "FeatureCollection",
        "features": [
          {
            "type": "Feature",
            "geometry": {
              "type": "Polygon",
              "coordinates": [
                [
                  [
                    -81.045526,
                    29.155754
                  ],
                  [
                    -81.045524,
                    29.155689
                  ],
                  [
                    -81.045562,
                    29.155695
                  ],
                  [
                    -81.045681,
                    29.155694
                  ],
                  [
                    -81.045683,
                    29.155736
                  ],
                  [
                    -81.045671,
                    29.155736
                  ],
                  [
                    -81.045671,
                    29.155738
                  ],
                  [
                    -81.04558,
                    29.155741
                  ],
                  [
                    -81.045579,
                    29.155741
                  ],
                  [
                    -81.045579,
                    29.155741
                  ],
                  [
                    -81.045562,
                    29.155742
                  ],
                  [
                    -81.045526,
                    29.155754
                  ]
                ]
              ]
            },
            "properties": {
              "id": 1,
              "area": 871.33,
              "perimeter": 141.23
            }
          }
        ]
      }
    },
    {
      "id": "dab8be24-cc22-47bb-a81e-d28947236840",
      "feature": {
        "id": "73ddf02e-a068-45f7-a2a1-77c9ec207a3c",
        "name": "Lawn",
        "geometry_type": 3,
        "is_custom": false
      },
      "style": {
        "color": "#67E401",
        "width": 1,
        "opacity": 0.3,
        "is_visible": true,
        "layer_order": 1
      },
      "measurements": [
        {
          "name": "area",
          "value": 10953,
          "unit": "sqft"
        },
        {
          "name": "perimeter",
          "value": 1258,
          "unit": "ft"
        }
      ],
      "output_geojson": {
        "type": "FeatureCollection",
        "features": [
          {
            "type": "Feature",
            "geometry": {
              "type": "Polygon",
              "coordinates": [
                [
                  [
                    -81.045996,
                    29.155911
                  ],
                  [
                    -81.045619,
                    29.155922
                  ],
                  [
                    -81.045619,
                    29.155897
                  ],
                  [
                    -81.045622,
                    29.15586
                  ],
                  [
                    -81.04562,
                    29.155852
                  ],
                  [
                    -81.04562,
                    29.155847
                  ],
                  [
                    -81.045618,
                    29.155842
                  ],
                  [
                    -81.045616,
                    29.155832
                  ],
                  [
                    -81.0456,
                    29.155804
                  ],
                  [
                    -81.045596,
                    29.155789
                  ],
                  [
                    -81.0456,
                    29.155743
                  ],
                  [
                    -81.045671,
                    29.155741
                  ],
                  [
                    -81.045672,
                    29.155775
                  ],
                  [
                    -81.045676,
                    29.155775
                  ],
                  [
                    -81.045676,
                    29.155779
                  ],
                  [
                    -81.045692,
                    29.155781
                  ],
                  [
                    -81.045701,
                    29.155797
                  ],
                  [
                    -81.045704,
                    29.155843
                  ],
                  [
                    -81.045709,
                    29.155861
                  ],
                  [
                    -81.045785,
                    29.155863
                  ],
                  [
                    -81.045788,
                    29.155868
                  ],
                  [
                    -81.04579,
                    29.155888
                  ],
                  [
                    -81.045792,
                    29.155888
                  ],
                  [
                    -81.045792,
                    29.155889
                  ],
                  [
                    -81.04581,
                    29.155888
                  ],
                  [
                    -81.045811,
                    29.155906
                  ],
                  [
                    -81.045813,
                    29.155906
                  ],
                  [
                    -81.045813,
                    29.155907
                  ],
                  [
                    -81.045867,
                    29.155905
                  ],
                  [
                    -81.045955,
                    29.155902
                  ],
                  [
                    -81.045955,
                    29.155901
                  ],
                  [
                    -81.045955,
                    29.155901
                  ],
                  [
                    -81.045955,
                    29.155882
                  ],
                  [
                    -81.04595,
                    29.15576
                  ],
                  [
                    -81.045919,
                    29.155761
                  ],
                  [
                    -81.045919,
                    29.155751
                  ],
                  [
                    -81.045902,
                    29.155752
                  ],
                  [
                    -81.045898,
                    29.155752
                  ],
                  [
                    -81.045897,
                    29.155672
                  ],
                  [
                    -81.045894,
                    29.155669
                  ],
                  [
                    -81.045679,
                    29.155674
                  ],
                  [
                    -81.045681,
                    29.155688
                  ],
                  [
                    -81.04559,
                    29.15569
                  ],
                  [
                    -81.04559,
                    29.155688
                  ],
                  [
                    -81.045591,
                    29.155688
                  ],
                  [
                    -81.04559,
                    29.155656
                  ],
                  [
                    -81.045591,
                    29.155577
                  ],
                  [
                    -81.045684,
                    29.155577
                  ],
                  [
                    -81.045693,
                    29.155592
                  ],
                  [
                    -81.045709,
                    29.155605
                  ],
                  [
                    -81.045738,
                    29.155614
                  ],
                  [
                    -81.045801,
                    29.155617
                  ],
                  [
                    -81.045852,
                    29.155604
                  ],
                  [
                    -81.045857,
                    29.155601
                  ],
                  [
                    -81.045858,
                    29.155593
                  ],
                  [
                    -81.045846,
                    29.155586
                  ],
                  [
                    -81.045832,
                    29.155584
                  ],
                  [
                    -81.045713,
                    29.155582
                  ],
                  [
                    -81.045707,
                    29.155577
                  ],
                  [
                    -81.046029,
                    29.155574
                  ],
                  [
                    -81.045996,
                    29.155877
                  ],
                  [
                    -81.045996,
                    29.155911
                  ]
                ],
                [
                  [
                    -81.045605,
                    29.155683
                  ],
                  [
                    -81.04561,
                    29.155682
                  ],
                  [
                    -81.045608,
                    29.155677
                  ],
                  [
                    -81.045602,
                    29.155678
                  ],
                  [
                    -81.045605,
                    29.155683
                  ]
                ]
              ]
            },
            "properties": {
              "id": 1,
              "area": 9057.15,
              "perimeter": 978.19
            }
          },
          {
            "type": "Feature",
            "geometry": {
              "type": "Polygon",
              "coordinates": [
                [
                  [
                    -81.045605,
                    29.155923
                  ],
                  [
                    -81.045538,
                    29.155925
                  ],
                  [
                    -81.04553,
                    29.155753
                  ],
                  [
                    -81.04556,
                    29.155743
                  ],
                  [
                    -81.045579,
                    29.155743
                  ],
                  [
                    -81.045579,
                    29.155778
                  ],
                  [
                    -81.045583,
                    29.155797
                  ],
                  [
                    -81.045589,
                    29.155816
                  ],
                  [
                    -81.045604,
                    29.155844
                  ],
                  [
                    -81.045608,
                    29.15586
                  ],
                  [
                    -81.045605,
                    29.155923
                  ]
                ]
              ]
            },
            "properties": {
              "id": 2,
              "area": 1271.75,
              "perimeter": 167.81
            }
          },
          {
            "type": "Feature",
            "geometry": {
              "type": "Polygon",
              "coordinates": [
                [
                  [
                    -81.045535,
                    29.155578
                  ],
                  [
                    -81.045575,
                    29.155578
                  ],
                  [
                    -81.045573,
                    29.15569
                  ],
                  [
                    -81.045558,
                    29.155693
                  ],
                  [
                    -81.045529,
                    29.155688
                  ],
                  [
                    -81.045523,
                    29.155578
                  ],
                  [
                    -81.045535,
                    29.155578
                  ]
                ]
              ]
            },
            "properties": {
              "id": 3,
              "area": 623.62,
              "perimeter": 111.67
            }
          }
        ]
      }
    },
    {
      "id": "d47b89c7-27cf-4793-8770-651c955525cb",
      "feature": {
        "id": "179e99fd-b756-4e2d-a8e6-acb09f6f4807",
        "name": "Pavement",
        "geometry_type": 3,
        "is_custom": false
      },
      "style": {
        "color": "#085CE2",
        "width": 2,
        "opacity": 0.6,
        "is_visible": true,
        "layer_order": 1
      },
      "measurements": [
        {
          "name": "area",
          "value": 1408,
          "unit": "sqft"
        },
        {
          "name": "perimeter",
          "value": 336,
          "unit": "ft"
        }
      ],
      "output_geojson": {
        "type": "FeatureCollection",
        "features": [
          {
            "type": "Feature",
            "geometry": {
              "type": "Polygon",
              "coordinates": [
                [
                  [
                    -81.045887,
                    29.155715
                  ],
                  [
                    -81.045887,
                    29.155702
                  ],
                  [
                    -81.045898,
                    29.155702
                  ],
                  [
                    -81.045898,
                    29.155715
                  ],
                  [
                    -81.045887,
                    29.155715
                  ]
                ]
              ]
            },
            "properties": {
              "id": 1,
              "area": 16.4,
              "perimeter": 16.44
            }
          },
          {
            "type": "Feature",
            "geometry": {
              "type": "Polygon",
              "coordinates": [
                [
                  [
                    -81.04595,
                    29.15576
                  ],
                  [
                    -81.045955,
                    29.155901
                  ],
                  [
                    -81.045813,
                    29.155907
                  ],
                  [
                    -81.045811,
                    29.155886
                  ],
                  [
                    -81.04579,
                    29.155888
                  ],
                  [
                    -81.045787,
                    29.155859
                  ],
                  [
                    -81.045852,
                    29.155858
                  ],
                  [
                    -81.045849,
                    29.155772
                  ],
                  [
                    -81.045867,
                    29.155764
                  ],
                  [
                    -81.045884,
                    29.155764
                  ],
                  [
                    -81.045885,
                    29.155752
                  ],
                  [
                    -81.045919,
                    29.155751
                  ],
                  [
                    -81.045918,
                    29.155761
                  ],
                  [
                    -81.04595,
                    29.15576
                  ]
                ],
                [
                  [
                    -81.045934,
                    29.155883
                  ],
                  [
                    -81.04593,
                    29.155787
                  ],
                  [
                    -81.045918,
                    29.15578
                  ],
                  [
                    -81.045877,
                    29.155785
                  ],
                  [
                    -81.045886,
                    29.155887
                  ],
                  [
                    -81.045934,
                    29.155883
                  ]
                ]
              ]
            },
            "properties": {
              "id": 2,
              "area": 1391.67,
              "perimeter": 319.83
            }
          }
        ]
      }
    },
    {
      "id": "f4f94d09-7cd3-4cb1-a7fe-1d315fd7f62f",
      "feature": {
        "id": "a362e15f-ee52-473a-8b9e-425974275744",
        "name": "Beds",
        "geometry_type": 3,
        "is_custom": false
      },
      "style": {
        "color": "#E19500",
        "width": 2,
        "opacity": 0.4,
        "is_visible": true,
        "layer_order": 1
      },
      "measurements": [
        {
          "name": "area",
          "value": 870,
          "unit": "sqft"
        },
        {
          "name": "perimeter",
          "value": 477,
          "unit": "ft"
        }
      ],
      "output_geojson": {
        "type": "FeatureCollection",
        "features": [
          {
            "type": "Feature",
            "geometry": {
              "type": "Polygon",
              "coordinates": [
                [
                  [
                    -81.045702,
                    29.155577
                  ],
                  [
                    -81.045707,
                    29.155577
                  ],
                  [
                    -81.045713,
                    29.155582
                  ],
                  [
                    -81.045846,
                    29.155586
                  ],
                  [
                    -81.045855,
                    29.155592
                  ],
                  [
                    -81.045858,
                    29.155596
                  ],
                  [
                    -81.045857,
                    29.155601
                  ],
                  [
                    -81.045851,
                    29.155604
                  ],
                  [
                    -81.045801,
                    29.155617
                  ],
                  [
                    -81.045738,
                    29.155614
                  ],
                  [
                    -81.045709,
                    29.155605
                  ],
                  [
                    -81.045693,
                    29.155592
                  ],
                  [
                    -81.045684,
                    29.155577
                  ],
                  [
                    -81.045702,
                    29.155577
                  ]
                ]
              ]
            },
            "properties": {
              "id": 1,
              "area": 527.92,
              "perimeter": 121.75
            }
          },
          {
            "type": "Feature",
            "geometry": {
              "type": "Polygon",
              "coordinates": [
                [
                  [
                    -81.045605,
                    29.155683
                  ],
                  [
                    -81.045602,
                    29.155678
                  ],
                  [
                    -81.045608,
                    29.155677
                  ],
                  [
                    -81.04561,
                    29.155682
                  ],
                  [
                    -81.045605,
                    29.155683
                  ]
                ]
              ]
            },
            "properties": {
              "id": 2,
              "area": 3.36,
              "perimeter": 7.4
            }
          },
          {
            "type": "Feature",
            "geometry": {
              "type": "Polygon",
              "coordinates": [
                [
                  [
                    -81.045897,
                    29.155702
                  ],
                  [
                    -81.045889,
                    29.155701
                  ],
                  [
                    -81.045889,
                    29.155675
                  ],
                  [
                    -81.04568,
                    29.155682
                  ],
                  [
                    -81.045679,
                    29.155674
                  ],
                  [
                    -81.045892,
                    29.155669
                  ],
                  [
                    -81.045897,
                    29.155672
                  ],
                  [
                    -81.045897,
                    29.155702
                  ]
                ]
              ]
            },
            "properties": {
              "id": 3,
              "area": 187.64,
              "perimeter": 162.13
            }
          },
          {
            "type": "Feature",
            "geometry": {
              "type": "Polygon",
              "coordinates": [
                [
                  [
                    -81.045887,
                    29.155752
                  ],
                  [
                    -81.045887,
                    29.155715
                  ],
                  [
                    -81.045887,
                    29.155715
                  ],
                  [
                    -81.045887,
                    29.155715
                  ],
                  [
                    -81.045897,
                    29.155715
                  ],
                  [
                    -81.045898,
                    29.155752
                  ],
                  [
                    -81.045887,
                    29.155752
                  ]
                ]
              ]
            },
            "properties": {
              "id": 4,
              "area": 45.07,
              "perimeter": 33.78
            }
          },
          {
            "type": "Feature",
            "geometry": {
              "type": "Polygon",
              "coordinates": [
                [
                  [
                    -81.045685,
                    29.155742
                  ],
                  [
                    -81.045694,
                    29.155742
                  ],
                  [
                    -81.045696,
                    29.155763
                  ],
                  [
                    -81.045685,
                    29.155763
                  ],
                  [
                    -81.045685,
                    29.155742
                  ]
                ]
              ]
            },
            "properties": {
              "id": 5,
              "area": 24.0,
              "perimeter": 21.59
            }
          },
          {
            "type": "Feature",
            "geometry": {
              "type": "Polygon",
              "coordinates": [
                [
                  [
                    -81.045807,
                    29.155858
                  ],
                  [
                    -81.045807,
                    29.155859
                  ],
                  [
                    -81.045787,
                    29.155859
                  ],
                  [
                    -81.045788,
                    29.155868
                  ],
                  [
                    -81.045785,
                    29.155863
                  ],
                  [
                    -81.04578,
                    29.155862
                  ],
                  [
                    -81.045709,
                    29.155861
                  ],
                  [
                    -81.045704,
                    29.155843
                  ],
                  [
                    -81.045701,
                    29.155797
                  ],
                  [
                    -81.045692,
                    29.155781
                  ],
                  [
                    -81.045705,
                    29.15578
                  ],
                  [
                    -81.045712,
                    29.15586
                  ],
                  [
                    -81.045807,
                    29.155858
                  ]
                ]
              ]
            },
            "properties": {
              "id": 6,
              "area": 82.43,
              "perimeter": 130.23
            }
          }
        ]
      }
    },
    {
      "id": "d3f41742-5cd6-45d7-8617-87c0720f259c",
      "feature": {
        "id": "a774a2f1-b6ac-4802-90cf-c3e21d93fa6e",
        "name": "Hedge",
        "geometry_type": 3,
        "is_custom": false
      },
      "style": {
        "color": "#DD55AB",
        "width": 5,
        "opacity": 0.3,
        "is_visible": true,
        "layer_order": 1
      },
      "measurements": [
        {
          "name": "area",
          "value": 0,
          "unit": "sqft"
        },
        {
          "name": "perimeter",
          "value": 0,
          "unit": "ft"
        }
      ],
      "output_geojson": {
        "type": "FeatureCollection",
        "features": []
      }
    },
    {
      "id": "f7218a6b-f15c-4b8c-9895-1abf385ec4b9",
      "feature": {
        "id": "8aa6d1a9-2b88-47c3-a0c3-8af988c831e2",
        "name": "Tree",
        "geometry_type": 1,
        "is_custom": false
      },
      "style": {
        "color": "#A1E600",
        "width": 3,
        "opacity": 0.3,
        "is_visible": true,
        "layer_order": 1
      },
      "measurements": [
        {
          "name": "count",
          "value": 14,
          "unit": "number"
        }
      ],
      "output_geojson": {
        "type": "FeatureCollection",
        "features": [
          {
            "type": "Feature",
            "geometry": {
              "type": "Point",
              "coordinates": [
                -81.04584,
                29.155673
              ]
            },
            "properties": {
              "id": 1
            }
          },
          {
            "type": "Feature",
            "geometry": {
              "type": "Point",
              "coordinates": [
                -81.045606,
                29.15568
              ]
            },
            "properties": {
              "id": 2
            }
          },
          {
            "type": "Feature",
            "geometry": {
              "type": "Point",
              "coordinates": [
                -81.045626,
                29.155918
              ]
            },
            "properties": {
              "id": 3
            }
          },
          {
            "type": "Feature",
            "geometry": {
              "type": "Point",
              "coordinates": [
                -81.045577,
                29.155919
              ]
            },
            "properties": {
              "id": 4
            }
          },
          {
            "type": "Feature",
            "geometry": {
              "type": "Point",
              "coordinates": [
                -81.045956,
                29.15571
              ]
            },
            "properties": {
              "id": 5
            }
          },
          {
            "type": "Feature",
            "geometry": {
              "type": "Point",
              "coordinates": [
                -81.045639,
                29.15592
              ]
            },
            "properties": {
              "id": 6
            }
          },
          {
            "type": "Feature",
            "geometry": {
              "type": "Point",
              "coordinates": [
                -81.045565,
                29.15592
              ]
            },
            "properties": {
              "id": 7
            }
          },
          {
            "type": "Feature",
            "geometry": {
              "type": "Point",
              "coordinates": [
                -81.045961,
                29.155589
              ]
            },
            "properties": {
              "id": 8
            }
          },
          {
            "type": "Feature",
            "geometry": {
              "type": "Point",
              "coordinates": [
                -81.045736,
                29.155595
              ]
            },
            "properties": {
              "id": 9
            }
          },
          {
            "type": "Feature",
            "geometry": {
              "type": "Point",
              "coordinates": [
                -81.045795,
                29.155598
              ]
            },
            "properties": {
              "id": 10
            }
          },
          {
            "type": "Feature",
            "geometry": {
              "type": "Point",
              "coordinates": [
                -81.045607,
                29.155614
              ]
            },
            "properties": {
              "id": 11
            }
          },
          {
            "type": "Feature",
            "geometry": {
              "type": "Point",
              "coordinates": [
                -81.04567,
                29.155617
              ]
            },
            "properties": {
              "id": 12
            }
          },
          {
            "type": "Feature",
            "geometry": {
              "type": "Point",
              "coordinates": [
                -81.045947,
                29.155644
              ]
            },
            "properties": {
              "id": 13
            }
          },
          {
            "type": "Feature",
            "geometry": {
              "type": "Point",
              "coordinates": [
                -81.04567,
                29.15565
              ]
            },
            "properties": {
              "id": 14
            }
          }
        ]
      }
    },
    {
      "id": "a52fe9c3-e9bd-4252-93a6-01844e701a61",
      "feature": {
        "id": "49d3af3d-f7cd-43d0-a8d1-293eadc92f88",
        "name": "Hard Edge",
        "geometry_type": 2,
        "is_custom": false
      },
      "style": {
        "color": "#4D0467",
        "width": 4,
        "opacity": 0.3,
        "is_visible": true,
        "layer_order": 1
      },
      "measurements": [
        {
          "name": "length",
          "value": 705,
          "unit": "ft"
        }
      ],
      "output_geojson": {
        "type": "FeatureCollection",
        "features": [
          {
            "type": "Feature",
            "geometry": {
              "type": "LineString",
              "coordinates": [
                [
                  -81.04581,
                  29.155888
                ],
                [
                  -81.045811,
                  29.155906
                ],
                [
                  -81.045955,
                  29.155902
                ],
                [
                  -81.045952,
                  29.155806
                ],
                [
                  -81.04595,
                  29.15576
                ],
                [
                  -81.045919,
                  29.155761
                ],
                [
                  -81.045919,
                  29.155751
                ],
                [
                  -81.045898,
                  29.155752
                ],
                [
                  -81.045897,
                  29.155733
                ]
              ]
            },
            "properties": {
              "id": 1,
              "length": 131.38
            }
          },
          {
            "type": "Feature",
            "geometry": {
              "type": "LineString",
              "coordinates": [
                [
                  -81.045692,
                  29.155781
                ],
                [
                  -81.045695,
                  29.155784
                ],
                [
                  -81.045697,
                  29.155788
                ],
                [
                  -81.0457,
                  29.155793
                ],
                [
                  -81.045701,
                  29.155797
                ],
                [
                  -81.045703,
                  29.155827
                ],
                [
                  -81.045703,
                  29.155833
                ],
                [
                  -81.045704,
                  29.155843
                ],
                [
                  -81.045705,
                  29.155849
                ],
                [
                  -81.045707,
                  29.155858
                ],
                [
                  -81.045709,
                  29.155861
                ],
                [
                  -81.045711,
                  29.155862
                ],
                [
                  -81.045715,
                  29.155863
                ],
                [
                  -81.04572,
                  29.155863
                ],
                [
                  -81.04578,
                  29.155862
                ]
              ]
            },
            "properties": {
              "id": 2,
              "length": 52.96
            }
          },
          {
            "type": "Feature",
            "geometry": {
              "type": "LineString",
              "coordinates": [
                [
                  -81.045538,
                  29.155925
                ],
                [
                  -81.045529,
                  29.155752
                ],
                [
                  -81.045559,
                  29.155743
                ],
                [
                  -81.045585,
                  29.155743
                ],
                [
                  -81.045583,
                  29.155758
                ],
                [
                  -81.045581,
                  29.155772
                ],
                [
                  -81.045581,
                  29.155785
                ],
                [
                  -81.045584,
                  29.155799
                ],
                [
                  -81.045588,
                  29.155813
                ],
                [
                  -81.045602,
                  29.155835
                ],
                [
                  -81.045606,
                  29.155846
                ],
                [
                  -81.045608,
                  29.15586
                ],
                [
                  -81.045608,
                  29.155878
                ],
                [
                  -81.045606,
                  29.155903
                ],
                [
                  -81.045605,
                  29.155923
                ]
              ]
            },
            "properties": {
              "id": 3,
              "length": 148.47
            }
          },
          {
            "type": "Feature",
            "geometry": {
              "type": "LineString",
              "coordinates": [
                [
                  -81.045617,
                  29.155922
                ],
                [
                  -81.045621,
                  29.155885
                ],
                [
                  -81.045622,
                  29.15586
                ],
                [
                  -81.04562,
                  29.155845
                ],
                [
                  -81.045616,
                  29.155832
                ],
                [
                  -81.04561,
                  29.155822
                ],
                [
                  -81.0456,
                  29.155804
                ],
                [
                  -81.045596,
                  29.155789
                ],
                [
                  -81.045596,
                  29.155768
                ],
                [
                  -81.0456,
                  29.155743
                ],
                [
                  -81.045673,
                  29.155741
                ]
              ]
            },
            "properties": {
              "id": 4,
              "length": 90.13
            }
          },
          {
            "type": "Feature",
            "geometry": {
              "type": "LineString",
              "coordinates": [
                [
                  -81.045673,
                  29.155741
                ],
                [
                  -81.045676,
                  29.155779
                ],
                [
                  -81.04568,
                  29.155781
                ],
                [
                  -81.045686,
                  29.155781
                ],
                [
                  -81.045692,
                  29.155781
                ]
              ]
            },
            "properties": {
              "id": 5,
              "length": 19.15
            }
          },
          {
            "type": "Feature",
            "geometry": {
              "type": "LineString",
              "coordinates": [
                [
                  -81.045897,
                  29.155733
                ],
                [
                  -81.045896,
                  29.155714
                ],
                [
                  -81.045897,
                  29.155714
                ],
                [
                  -81.045897,
                  29.155702
                ],
                [
                  -81.045897,
                  29.155672
                ],
                [
                  -81.045894,
                  29.155669
                ],
                [
                  -81.04589,
                  29.155669
                ],
                [
                  -81.045679,
                  29.155674
                ],
                [
                  -81.04568,
                  29.155682
                ]
              ]
            },
            "properties": {
              "id": 6,
              "length": 95.54
            }
          },
          {
            "type": "Feature",
            "geometry": {
              "type": "LineString",
              "coordinates": [
                [
                  -81.04568,
                  29.155682
                ],
                [
                  -81.045681,
                  29.155688
                ],
                [
                  -81.04559,
                  29.15569
                ],
                [
                  -81.045591,
                  29.155577
                ]
              ]
            },
            "properties": {
              "id": 7,
              "length": 72.2
            }
          },
          {
            "type": "Feature",
            "geometry": {
              "type": "LineString",
              "coordinates": [
                [
                  -81.045575,
                  29.155578
                ],
                [
                  -81.045573,
                  29.15569
                ],
                [
                  -81.045558,
                  29.155693
                ],
                [
                  -81.045529,
                  29.155688
                ],
                [
                  -81.045523,
                  29.155578
                ]
              ]
            },
            "properties": {
              "id": 8,
              "length": 95.13
            }
          }
        ]
      }
    },
    {
      "id": "d89df439-9fde-443b-9c0f-f6670fd6fd81",
      "feature": {
        "id": "726fed81-2c9a-46aa-a8c1-612c5a5f693d",
        "name": "Soft Edge",
        "geometry_type": 2,
        "is_custom": false
      },
      "style": {
        "color": "#E52510",
        "width": 4,
        "opacity": 0.3,
        "is_visible": true,
        "layer_order": 1
      },
      "measurements": [
        {
          "name": "length",
          "value": 140,
          "unit": "ft"
        }
      ],
      "output_geojson": {
        "type": "FeatureCollection",
        "features": [
          {
            "type": "Feature",
            "geometry": {
              "type": "LineString",
              "coordinates": [
                [
                  -81.04578,
                  29.155862
                ],
                [
                  -81.045785,
                  29.155863
                ],
                [
                  -81.045787,
                  29.155866
                ],
                [
                  -81.045789,
                  29.155868
                ],
                [
                  -81.045791,
                  29.155874
                ],
                [
                  -81.045792,
                  29.155889
                ],
                [
                  -81.04581,
                  29.155888
                ]
              ]
            },
            "properties": {
              "id": 1,
              "length": 17.36
            }
          },
          {
            "type": "Feature",
            "geometry": {
              "type": "LineString",
              "coordinates": [
                [
                  -81.045684,
                  29.155577
                ],
                [
                  -81.045693,
                  29.155592
                ],
                [
                  -81.045709,
                  29.155605
                ]
              ]
            },
            "properties": {
              "id": 2,
              "length": 13.12
            }
          },
          {
            "type": "Feature",
            "geometry": {
              "type": "LineString",
              "coordinates": [
                [
                  -81.045709,
                  29.155605
                ],
                [
                  -81.045738,
                  29.155614
                ],
                [
                  -81.045769,
                  29.155617
                ],
                [
                  -81.045801,
                  29.155617
                ],
                [
                  -81.04582,
                  29.155614
                ],
                [
                  -81.045847,
                  29.155606
                ],
                [
                  -81.045852,
                  29.155604
                ],
                [
                  -81.045857,
                  29.155601
                ],
                [
                  -81.045859,
                  29.155598
                ],
                [
                  -81.045858,
                  29.155593
                ],
                [
                  -81.045854,
                  29.155589
                ],
                [
                  -81.045846,
                  29.155586
                ],
                [
                  -81.045832,
                  29.155584
                ],
                [
                  -81.045796,
                  29.155583
                ],
                [
                  -81.045713,
                  29.155582
                ],
                [
                  -81.04571,
                  29.155581
                ],
                [
                  -81.045707,
                  29.155577
                ]
              ]
            },
            "properties": {
              "id": 3,
              "length": 102.05
            }
          },
          {
            "type": "Feature",
            "geometry": {
              "type": "LineString",
              "coordinates": [
                [
                  -81.045605,
                  29.155683
                ],
                [
                  -81.045608,
                  29.155683
                ],
                [
                  -81.04561,
                  29.155682
                ],
                [
                  -81.04561,
                  29.15568
                ],
                [
                  -81.045608,
                  29.155677
                ],
                [
                  -81.045606,
                  29.155677
                ],
                [
                  -81.045604,
                  29.155677
                ],
                [
                  -81.045602,
                  29.155678
                ],
                [
                  -81.045602,
                  29.15568
                ],
                [
                  -81.045603,
                  29.155682
                ],
                [
                  -81.045605,
                  29.155683
                ]
              ]
            },
            "properties": {
              "id": 4,
              "length": 7.95
            }
          }
        ]
      }
    }
  ],
  "input": {
    "id": "16808861-8986-4b5c-85cc-c33c7309c87a",
    "address": "532 Pelican Bay Dr, Daytona Beach, FL 32119, USA",
    "aoi_geojson": {
      "type": "FeatureCollection",
      "features": [
        {
          "type": "Feature",
          "geometry": {
            "type": "Polygon",
            "coordinates": [
              [
                [
                  -81.046061,
                  29.155574
                ],
                [
                  -81.046016,
                  29.15591
                ],
                [
                  -81.045582,
                  29.155924
                ],
                [
                  -81.045556,
                  29.155579
                ],
                [
                  -81.046061,
                  29.155574
                ]
              ]
            ]
          },
          "properties": {}
        }
      ]
    },
    "parcel_area": 19220,
    "name": "Parcel",
    "lat": null,
    "lon": null,
    "is_edited": false
  },
  "status": 3,
  "additional_seconds": 0,
  "eta": 8242.0,
  "initial_eta": 8242.0,
  "completed_at": "2021-07-01T00:37:46.541450+05:30",
  "generated_at": "2021-06-30T23:51:58.883495+05:30",
  "created_at": "2021-06-30T23:51:34.922073+05:30",
  "is_eta_update": false,
  "feature_report": {
    "id": "56588128-8f09-47f2-97f5-4fb3f0251c83",
    "name": "Advanced Landscaping Report",
    "description": "Includes all property-features. The most comprehensive report for any property.",
    "features": [
      {
        "id": "73ddf02e-a068-45f7-a2a1-77c9ec207a3c",
        "name": "Lawn",
        "identifier": "lawn"
      },
      {
        "id": "179e99fd-b756-4e2d-a8e6-acb09f6f4807",
        "name": "Pavement",
        "identifier": "pavement"
      },
      {
        "id": "df73cc66-4d50-445e-a906-70b6e7bfc189",
        "name": "Sidewalk",
        "identifier": "sidewalk"
      },
      {
        "id": "c51a1b40-95d5-4dcc-80c4-41043c3cbf3e",
        "name": "Driveway",
        "identifier": "driveway"
      },
      {
        "id": "7b7dc0e2-9622-4bd3-b7f4-c99d47f3d560",
        "name": "Parking Spot",
        "identifier": "parking_spot"
      },
      {
        "id": "a774a2f1-b6ac-4802-90cf-c3e21d93fa6e",
        "name": "Hedge",
        "identifier": "hedge"
      },
      {
        "id": "8aa6d1a9-2b88-47c3-a0c3-8af988c831e2",
        "name": "Tree",
        "identifier": "tree"
      },
      {
        "id": "49d3af3d-f7cd-43d0-a8d1-293eadc92f88",
        "name": "Hard Edge",
        "identifier": "hard_edge"
      },
      {
        "id": "726fed81-2c9a-46aa-a8c1-612c5a5f693d",
        "name": "Soft Edge",
        "identifier": "soft_edge"
      },
      {
        "id": "113e8390-fc4b-4ca8-a03b-223db2a55c01",
        "name": "Mulch Bed",
        "identifier": "mulch_bed"
      },
      {
        "id": "117e842d-849e-4a1c-90b4-88de50122971",
        "name": "Gravel Bed",
        "identifier": "gravel_bed"
      },
      {
        "id": "f70c4b1b-f806-46f8-a239-6cb6290e1e75",
        "name": "Road",
        "identifier": "road"
      }
    ],
    "attributes": {
      "id": "ecc0ce78-bdfc-41cd-9680-5891ad7f6f78",
      "min_threshold_price": 0.98,
      "max_threshold_price": 0.53,
      "first_range_price": 0.81,
      "second_range_price": 0.68,
      "min_threshold_area": 50000,
      "mid_threshold_area": 200000,
      "max_threshold_area": 1000000,
      "feature_report_definition": null,
      "average_time": 2400,
      "average_time_exceed": 1440,
      "pdf_sample": "https://storage.googleapis.com/falcon-prod-filestore/prod/pdf_samples/2021_4_20/ADVANCED_LANDSCAPING_REPORT.pdf",
      "excel_sample": "https://storage.googleapis.com/falcon-prod-filestore/prod/excel_samples/2021_4_20/Advanced_Landscaping_Report___Sample.xlsx",
      "order": 4,
      "is_default": false
    }
  },
  "job_id_map": {
    "ml_process": {
      "FalconHardscape": "add27249-c977-47da-8ab5-2d6386941191"
    },
    "qa_process": "2a431ba6-2195-46eb-9b8d-cbc7f4ac0416",
    "qc_process": "d45247d0-e968-438d-a8af-e3c4c2129c3e",
    "lawn_edge_qa_process": "05fb96f2-ae44-4dcf-966c-37e777aa781c",
    "lawn_edge_qc_process": "57c40e08-b405-4587-b062-cbbf7283e68a",
    "imagery_fetching_process": "371d2944-4989-4382-b886-a83177562f9d",
    "parcel_correction_process": "c42cdb13-1cef-43fe-a9c8-2e5d78e8075c",
    "canopy_cover_check_process": "f468c908-ce79-46ed-a9e9-19531e1e6f8f",
    "parcel_correction_qa_process": "1d68eb22-f55e-4278-82d6-ac5b3f10db76"
  },
  "tiff_url": "https://storage.googleapis.com/autofx-outputs/ImageryFetchingProcessV3/371d2944-4989-4382-b886-a83177562f9d/output_tiff.tif",
  "feedback": {},
  "is_sample": false,
  "shareable_link": "https://app.attentive.ai/shared-view?id=de6f1395-58c7-4287-9132-347a933eb79a",
  "features": [
    {
      "id": "73ddf02e-a068-45f7-a2a1-77c9ec207a3c",
      "name": "Lawn",
      "identifier": "lawn"
    },
    {
      "id": "179e99fd-b756-4e2d-a8e6-acb09f6f4807",
      "name": "Pavement",
      "identifier": "pavement"
    },
    {
      "id": "df73cc66-4d50-445e-a906-70b6e7bfc189",
      "name": "Sidewalk",
      "identifier": "sidewalk"
    },
    {
      "id": "7b7dc0e2-9622-4bd3-b7f4-c99d47f3d560",
      "name": "Parking Spot",
      "identifier": "parking_spot"
    },
    {
      "id": "95f4b6ba-519c-42fe-ac9c-30a02773baf1",
      "name": "Drivable Area",
      "identifier": "drivable_area"
    },
    {
      "id": "a362e15f-ee52-473a-8b9e-425974275744",
      "name": "Beds",
      "identifier": "beds"
    },
    {
      "id": "a774a2f1-b6ac-4802-90cf-c3e21d93fa6e",
      "name": "Hedge",
      "identifier": "hedge"
    },
    {
      "id": "8aa6d1a9-2b88-47c3-a0c3-8af988c831e2",
      "name": "Tree",
      "identifier": "tree"
    },
    {
      "id": "49d3af3d-f7cd-43d0-a8d1-293eadc92f88",
      "name": "Hard Edge",
      "identifier": "hard_edge"
    },
    {
      "id": "726fed81-2c9a-46aa-a8c1-612c5a5f693d",
      "name": "Soft Edge",
      "identifier": "soft_edge"
    }
  ]
}