{
  "id": "4e9794dc-e284-4901-a78c-fc499e6a9e0f",
  "outputs": [
    {
      "id": "a35e2a27-3796-4779-8bdb-b6f717630471",
      "feature": {
        "id": "73ddf02e-a068-45f7-a2a1-77c9ec207a3c",
        "name": "Lawn",
        "geometry_type": 3,
        "is_custom": false
      },
      "style": {
        "color": "#2DCA73",
        "width": 1,
        "opacity": 0.2,
        "is_visible": true,
        "layer_order": 1
      },
      "measurements": [
        {
          "name": "area",
          "value": 39340,
          "unit": "sqft"
        },
        {
          "name": "perimeter",
          "value": 2105,
          "unit": "ft"
        }
      ],
      "output_geojson": {
        "type": "FeatureCollection",
        "features": [
          {
            "type": "Feature",
            "geometry": {
              "type": "Polygon",
              "coordinates": [
                [
                  [
                    -74.33048,
                    40.738317
                  ],
                  [
                    -74.330514,
                    40.738294
                  ],
                  [
                    -74.330519,
                    40.738272
                  ],
                  [
                    -74.330548,
                    40.738252
                  ],
                  [
                    -74.330567,
                    40.738252
                  ],
                  [
                    -74.330583,
                    40.738263
                  ],
                  [
                    -74.330583,
                    40.738269
                  ],
                  [
                    -74.330577,
                    40.738277
                  ],
                  [
                    -74.330585,
                    40.738284
                  ],
                  [
                    -74.330582,
                    40.738288
                  ],
                  [
                    -74.330568,
                    40.738291
                  ],
                  [
                    -74.330566,
                    40.738298
                  ],
                  [
                    -74.330555,
                    40.738302
                  ],
                  [
                    -74.330555,
                    40.738308
                  ],
                  [
                    -74.330566,
                    40.738318
                  ],
                  [
                    -74.330573,
                    40.738318
                  ],
                  [
                    -74.330588,
                    40.738337
                  ],
                  [
                    -74.330575,
                    40.738339
                  ],
                  [
                    -74.330559,
                    40.738347
                  ],
                  [
                    -74.330544,
                    40.738362
                  ],
                  [
                    -74.330522,
                    40.738377
                  ],
                  [
                    -74.330507,
                    40.738377
                  ],
                  [
                    -74.330487,
                    40.738383
                  ],
                  [
                    -74.330466,
                    40.738381
                  ],
                  [
                    -74.330464,
                    40.738359
                  ],
                  [
                    -74.330477,
                    40.73835
                  ],
                  [
                    -74.330473,
                    40.738335
                  ],
                  [
                    -74.330481,
                    40.738321
                  ],
                  [
                    -74.33048,
                    40.738317
                  ]
                ]
              ]
            },
            "properties": {
              "id": 1,
              "area": 919.45,
              "perimeter": 145.95
            }
          },
          {
            "type": "Feature",
            "geometry": {
              "type": "Polygon",
              "coordinates": [
                [
                  [
                    -74.331228,
                    40.738622
                  ],
                  [
                    -74.331191,
                    40.738648
                  ],
                  [
                    -74.331071,
                    40.738581
                  ],
                  [
                    -74.331012,
                    40.738489
                  ],
                  [
                    -74.330999,
                    40.738485
                  ],
                  [
                    -74.330998,
                    40.738479
                  ],
                  [
                    -74.330991,
                    40.738474
                  ],
                  [
                    -74.330985,
                    40.738464
                  ],
                  [
                    -74.330972,
                    40.738459
                  ],
                  [
                    -74.330964,
                    40.738451
                  ],
                  [
                    -74.330961,
                    40.738429
                  ],
                  [
                    -74.33095,
                    40.738415
                  ],
                  [
                    -74.330945,
                    40.738392
                  ],
                  [
                    -74.330932,
                    40.738382
                  ],
                  [
                    -74.330914,
                    40.738358
                  ],
                  [
                    -74.33091,
                    40.738355
                  ],
                  [
                    -74.330904,
                    40.738357
                  ],
                  [
                    -74.330902,
                    40.738346
                  ],
                  [
                    -74.330891,
                    40.738343
                  ],
                  [
                    -74.330871,
                    40.738327
                  ],
                  [
                    -74.330855,
                    40.738303
                  ],
                  [
                    -74.330769,
                    40.738196
                  ],
                  [
                    -74.330738,
                    40.738209
                  ],
                  [
                    -74.330719,
                    40.738209
                  ],
                  [
                    -74.330713,
                    40.738221
                  ],
                  [
                    -74.330709,
                    40.738241
                  ],
                  [
                    -74.330705,
                    40.738245
                  ],
                  [
                    -74.330688,
                    40.738251
                  ],
                  [
                    -74.330645,
                    40.738256
                  ],
                  [
                    -74.330624,
                    40.738268
                  ],
                  [
                    -74.330607,
                    40.738273
                  ],
                  [
                    -74.330603,
                    40.738272
                  ],
                  [
                    -74.3306,
                    40.738262
                  ],
                  [
                    -74.330561,
                    40.738219
                  ],
                  [
                    -74.330439,
                    40.738201
                  ],
                  [
                    -74.330435,
                    40.738206
                  ],
                  [
                    -74.330441,
                    40.738206
                  ],
                  [
                    -74.330425,
                    40.73823
                  ],
                  [
                    -74.330401,
                    40.738244
                  ],
                  [
                    -74.330385,
                    40.738265
                  ],
                  [
                    -74.330369,
                    40.738276
                  ],
                  [
                    -74.330368,
                    40.738285
                  ],
                  [
                    -74.330361,
                    40.738289
                  ],
                  [
                    -74.330357,
                    40.738317
                  ],
                  [
                    -74.330349,
                    40.738327
                  ],
                  [
                    -74.330352,
                    40.738338
                  ],
                  [
                    -74.330377,
                    40.738357
                  ],
                  [
                    -74.330388,
                    40.738361
                  ],
                  [
                    -74.330417,
                    40.738364
                  ],
                  [
                    -74.330427,
                    40.738372
                  ],
                  [
                    -74.330416,
                    40.738404
                  ],
                  [
                    -74.330416,
                    40.738414
                  ],
                  [
                    -74.330455,
                    40.738464
                  ],
                  [
                    -74.330435,
                    40.738502
                  ],
                  [
                    -74.330508,
                    40.738585
                  ],
                  [
                    -74.330551,
                    40.738602
                  ],
                  [
                    -74.330574,
                    40.738602
                  ],
                  [
                    -74.330593,
                    40.738592
                  ],
                  [
                    -74.330614,
                    40.738564
                  ],
                  [
                    -74.330643,
                    40.73855
                  ],
                  [
                    -74.330685,
                    40.738604
                  ],
                  [
                    -74.330696,
                    40.738639
                  ],
                  [
                    -74.330715,
                    40.738647
                  ],
                  [
                    -74.330766,
                    40.738638
                  ],
                  [
                    -74.33077,
                    40.738643
                  ],
                  [
                    -74.330744,
                    40.738678
                  ],
                  [
                    -74.330714,
                    40.738753
                  ],
                  [
                    -74.330711,
                    40.738878
                  ],
                  [
                    -74.330004,
                    40.738088
                  ],
                  [
                    -74.330264,
                    40.738018
                  ],
                  [
                    -74.330573,
                    40.737847
                  ],
                  [
                    -74.331204,
                    40.7386
                  ],
                  [
                    -74.331228,
                    40.738622
                  ]
                ]
              ]
            },
            "properties": {
              "id": 2,
              "area": 31979.57,
              "perimeter": 1577.55
            }
          },
          {
            "type": "Feature",
            "geometry": {
              "type": "Polygon",
              "coordinates": [
                [
                  [
                    -74.330931,
                    40.738552
                  ],
                  [
                    -74.330924,
                    40.738556
                  ],
                  [
                    -74.330894,
                    40.738552
                  ],
                  [
                    -74.330879,
                    40.738558
                  ],
                  [
                    -74.330861,
                    40.738555
                  ],
                  [
                    -74.330865,
                    40.738538
                  ],
                  [
                    -74.330887,
                    40.738527
                  ],
                  [
                    -74.3309,
                    40.738533
                  ],
                  [
                    -74.330919,
                    40.738532
                  ],
                  [
                    -74.330933,
                    40.738541
                  ],
                  [
                    -74.330938,
                    40.73854
                  ],
                  [
                    -74.330931,
                    40.738552
                  ]
                ]
              ]
            },
            "properties": {
              "id": 3,
              "area": 155.49,
              "perimeter": 55.05
            }
          },
          {
            "type": "Feature",
            "geometry": {
              "type": "Polygon",
              "coordinates": [
                [
                  [
                    -74.330784,
                    40.738721
                  ],
                  [
                    -74.330791,
                    40.738714
                  ],
                  [
                    -74.330795,
                    40.738701
                  ],
                  [
                    -74.33081,
                    40.738678
                  ],
                  [
                    -74.330836,
                    40.738653
                  ],
                  [
                    -74.330862,
                    40.738637
                  ],
                  [
                    -74.330913,
                    40.738613
                  ],
                  [
                    -74.330952,
                    40.738602
                  ],
                  [
                    -74.330995,
                    40.7386
                  ],
                  [
                    -74.331059,
                    40.738623
                  ],
                  [
                    -74.331079,
                    40.738634
                  ],
                  [
                    -74.331097,
                    40.738649
                  ],
                  [
                    -74.331094,
                    40.738658
                  ],
                  [
                    -74.331109,
                    40.73867
                  ],
                  [
                    -74.331109,
                    40.738704
                  ],
                  [
                    -74.331102,
                    40.738708
                  ],
                  [
                    -74.3311,
                    40.738713
                  ],
                  [
                    -74.330802,
                    40.738925
                  ],
                  [
                    -74.330771,
                    40.738801
                  ],
                  [
                    -74.330785,
                    40.738731
                  ],
                  [
                    -74.330784,
                    40.738721
                  ]
                ]
              ]
            },
            "properties": {
              "id": 4,
              "area": 6285.0,
              "perimeter": 326.9
            }
          }
        ]
      }
    }
  ],
  "input": {
    "id": "a20cdc56-4312-4352-a66f-18777b23f626",
    "address": "261 Hartshorn Drive, Short Hills, NJ, USA",
    "aoi_geojson": {
      "type": "FeatureCollection",
      "features": [
        {
          "type": "Feature",
          "geometry": {
            "type": "Polygon",
            "coordinates": [
              [
                [
                  -74.330573,
                  40.737847
                ],
                [
                  -74.331204,
                  40.7386
                ],
                [
                  -74.330747,
                  40.738919
                ],
                [
                  -74.330004,
                  40.738088
                ],
                [
                  -74.330264,
                  40.738018
                ],
                [
                  -74.330573,
                  40.737847
                ]
              ]
            ]
          },
          "properties": {}
        }
      ]
    },
    "parcel_area": 61194,
    "name": "Parcel",
    "lat": null,
    "lon": null,
    "is_edited": false
  },
  "status": 3,
  "additional_seconds": 0,
  "eta": 355.07,
  "initial_eta": 355.07,
  "completed_at": "2021-02-08T21:21:23.365199+05:30",
  "generated_at": null,
  "created_at": "2021-02-08T21:13:21.152098+05:30",
  "is_eta_update": false,
  "feature_report": {
    "id": "17854716-6609-4797-aeda-14490ab3c5e0",
    "name": "Lawn Report",
    "description": "Lawn measurement, ideal for all properties.",
    "features": [
      {
        "id": "73ddf02e-a068-45f7-a2a1-77c9ec207a3c",
        "name": "Lawn",
        "identifier": "lawn"
      }
    ],
    "attributes": {
      "id": "71a8d434-5427-4366-9aef-91306e0ad796",
      "min_threshold_price": 0.2,
      "max_threshold_price": 0.12,
      "first_range_price": 0.17,
      "second_range_price": 0.14,
      "min_threshold_area": 50000,
      "mid_threshold_area": 200000,
      "max_threshold_area": 1000000,
      "feature_report_definition": null,
      "average_time": 720,
      "average_time_exceed": 360,
      "pdf_sample": "https://storage.googleapis.com/falcon-prod-filestore/prod/pdf_samples/2021_4_20/LAWN_REPORT.pdf",
      "excel_sample": "https://storage.googleapis.com/falcon-prod-filestore/prod/excel_samples/2021_4_20/Lawn_Report___Sample_2.xlsx",
      "order": 1,
      "is_default": false
    }
  },
  "job_id_map": {
    "ml_process": "6b864f3b-fc36-4e72-94b1-7f82d4ad3ea1",
    "qa_process": "10fe7fc3-daf1-460c-9515-7d24ac9629ef",
    "qc_process": "665a02d0-5344-48d4-9c0e-97f46626a7e6",
    "tiff_to_png_process": "d84c930d-81ca-4648-b184-c9ecef11172d",
    "imagery_fetching_process": "c549c7f0-db66-4ad4-ab74-17ce72561576",
    "parcel_correction_process": "a6690043-eb8e-44df-80e6-2191bf55c148"
  },
  "tiff_url": "https://storage.googleapis.com/autofx-outputs/ImageryFetchingProcess/c549c7f0-db66-4ad4-ab74-17ce72561576/output_tiff.tif",
  "feedback": {},
  "is_sample": false,
  "shareable_link": "",
  "features": [
    {
      "id": "73ddf02e-a068-45f7-a2a1-77c9ec207a3c",
      "name": "Lawn",
      "identifier": "lawn"
    }
  ]
}