{
  "id": "592a7d18-fab3-4164-8e7a-dd5f6304586d",
  "outputs": [
    {
      "id": "c81153de-3857-40d4-9081-95a22aac4fe5",
      "feature": {
        "id": "73ddf02e-a068-45f7-a2a1-77c9ec207a3c",
        "name": "Lawn",
        "geometry_type": 3,
        "is_custom": false
      },
      "style": {
        "color": "#ff00a7",
        "width": 3,
        "opacity": 0.3,
        "is_visible": true,
        "layer_order": 1
      },
      "measurements": [
        {
          "name": "area",
          "value": 16697,
          "unit": "sqft"
        },
        {
          "name": "perimeter",
          "value": 1569,
          "unit": "ft"
        }
      ],
      "output_geojson": {
        "type": "FeatureCollection",
        "features": [
          {
            "type": "Feature",
            "geometry": {
              "type": "Polygon",
              "coordinates": [
                [
                  [
                    -88.016262,
                    41.840941
                  ],
                  [
                    -88.016229,
                    41.840335
                  ],
                  [
                    -88.016906,
                    41.840316
                  ],
                  [
                    -88.016905,
                    41.840326
                  ],
                  [
                    -88.01638,
                    41.840346
                  ],
                  [
                    -88.01639,
                    41.840552
                  ],
                  [
                    -88.016431,
                    41.840553
                  ],
                  [
                    -88.016444,
                    41.840788
                  ],
                  [
                    -88.016414,
                    41.840788
                  ],
                  [
                    -88.016414,
                    41.840791
                  ],
                  [
                    -88.016411,
                    41.840791
                  ],
                  [
                    -88.016415,
                    41.840845
                  ],
                  [
                    -88.016463,
                    41.840847
                  ],
                  [
                    -88.016464,
                    41.840863
                  ],
                  [
                    -88.016464,
                    41.840935
                  ],
                  [
                    -88.016262,
                    41.840941
                  ]
                ]
              ]
            },
            "properties": {
              "id": 1,
              "area": 11161.97,
              "perimeter": 855.2
            }
          },
          {
            "type": "Feature",
            "geometry": {
              "type": "Polygon",
              "coordinates": [
                [
                  [
                    -88.016908,
                    41.840316
                  ],
                  [
                    -88.016908,
                    41.840316
                  ],
                  [
                    -88.016908,
                    41.840316
                  ],
                  [
                    -88.016908,
                    41.840316
                  ]
                ]
              ]
            },
            "properties": {
              "id": 2,
              "area": 0.0,
              "perimeter": 0.0
            }
          },
          {
            "type": "Feature",
            "geometry": {
              "type": "Polygon",
              "coordinates": [
                [
                  [
                    -88.016465,
                    41.840935
                  ],
                  [
                    -88.016465,
                    41.840935
                  ],
                  [
                    -88.016465,
                    41.840935
                  ],
                  [
                    -88.016465,
                    41.840935
                  ]
                ]
              ]
            },
            "properties": {
              "id": 3,
              "area": 0.0,
              "perimeter": 0.0
            }
          },
          {
            "type": "Feature",
            "geometry": {
              "type": "Polygon",
              "coordinates": [
                [
                  [
                    -88.017291,
                    41.84075
                  ],
                  [
                    -88.01729,
                    41.840715
                  ],
                  [
                    -88.01729,
                    41.840667
                  ],
                  [
                    -88.017289,
                    41.840667
                  ],
                  [
                    -88.017289,
                    41.840661
                  ],
                  [
                    -88.01728,
                    41.840658
                  ],
                  [
                    -88.017247,
                    41.840659
                  ],
                  [
                    -88.017234,
                    41.840658
                  ],
                  [
                    -88.017228,
                    41.840656
                  ],
                  [
                    -88.017224,
                    41.840654
                  ],
                  [
                    -88.017222,
                    41.840639
                  ],
                  [
                    -88.017221,
                    41.840623
                  ],
                  [
                    -88.017218,
                    41.840622
                  ],
                  [
                    -88.017218,
                    41.84062
                  ],
                  [
                    -88.017212,
                    41.840616
                  ],
                  [
                    -88.017119,
                    41.840619
                  ],
                  [
                    -88.017113,
                    41.840504
                  ],
                  [
                    -88.017289,
                    41.8405
                  ],
                  [
                    -88.017288,
                    41.840461
                  ],
                  [
                    -88.017311,
                    41.840457
                  ],
                  [
                    -88.017315,
                    41.840458
                  ],
                  [
                    -88.017332,
                    41.84046
                  ],
                  [
                    -88.017352,
                    41.840466
                  ],
                  [
                    -88.017367,
                    41.84048
                  ],
                  [
                    -88.017376,
                    41.840581
                  ],
                  [
                    -88.017388,
                    41.840835
                  ],
                  [
                    -88.017387,
                    41.840835
                  ],
                  [
                    -88.017387,
                    41.840832
                  ],
                  [
                    -88.017367,
                    41.840842
                  ],
                  [
                    -88.017367,
                    41.840842
                  ],
                  [
                    -88.017343,
                    41.840845
                  ],
                  [
                    -88.017306,
                    41.840843
                  ],
                  [
                    -88.017302,
                    41.840842
                  ],
                  [
                    -88.017293,
                    41.840835
                  ],
                  [
                    -88.017292,
                    41.840833
                  ],
                  [
                    -88.017292,
                    41.840832
                  ],
                  [
                    -88.017291,
                    41.840781
                  ],
                  [
                    -88.017322,
                    41.84078
                  ],
                  [
                    -88.017334,
                    41.840773
                  ],
                  [
                    -88.017336,
                    41.840767
                  ],
                  [
                    -88.017329,
                    41.840759
                  ],
                  [
                    -88.017319,
                    41.840752
                  ],
                  [
                    -88.017291,
                    41.84075
                  ]
                ],
                [
                  [
                    -88.017361,
                    41.840648
                  ],
                  [
                    -88.017354,
                    41.840633
                  ],
                  [
                    -88.017349,
                    41.840629
                  ],
                  [
                    -88.017334,
                    41.840627
                  ],
                  [
                    -88.017324,
                    41.840637
                  ],
                  [
                    -88.01733,
                    41.840647
                  ],
                  [
                    -88.017328,
                    41.840657
                  ],
                  [
                    -88.017316,
                    41.840664
                  ],
                  [
                    -88.017316,
                    41.84067
                  ],
                  [
                    -88.017324,
                    41.840678
                  ],
                  [
                    -88.01733,
                    41.84068
                  ],
                  [
                    -88.017352,
                    41.840677
                  ],
                  [
                    -88.01736,
                    41.840664
                  ],
                  [
                    -88.017361,
                    41.840648
                  ]
                ],
                [
                  [
                    -88.01716,
                    41.840585
                  ],
                  [
                    -88.017234,
                    41.840594
                  ],
                  [
                    -88.017246,
                    41.840592
                  ],
                  [
                    -88.017266,
                    41.840581
                  ],
                  [
                    -88.017271,
                    41.840565
                  ],
                  [
                    -88.01727,
                    41.840556
                  ],
                  [
                    -88.017249,
                    41.840549
                  ],
                  [
                    -88.017211,
                    41.840554
                  ],
                  [
                    -88.017164,
                    41.840552
                  ],
                  [
                    -88.017154,
                    41.840556
                  ],
                  [
                    -88.017148,
                    41.84057
                  ],
                  [
                    -88.017152,
                    41.840581
                  ],
                  [
                    -88.01716,
                    41.840585
                  ]
                ]
              ]
            },
            "properties": {
              "id": 4,
              "area": 4892.73,
              "perimeter": 565.57
            }
          },
          {
            "type": "Feature",
            "geometry": {
              "type": "Polygon",
              "coordinates": [
                [
                  [
                    -88.017376,
                    41.840302
                  ],
                  [
                    -88.017366,
                    41.84037
                  ],
                  [
                    -88.017361,
                    41.840381
                  ],
                  [
                    -88.01734,
                    41.840386
                  ],
                  [
                    -88.017303,
                    41.840386
                  ],
                  [
                    -88.017278,
                    41.840369
                  ],
                  [
                    -88.017273,
                    41.840361
                  ],
                  [
                    -88.017269,
                    41.840305
                  ],
                  [
                    -88.017376,
                    41.840302
                  ]
                ],
                [
                  [
                    -88.017289,
                    41.84034
                  ],
                  [
                    -88.017311,
                    41.84034
                  ],
                  [
                    -88.017334,
                    41.840334
                  ],
                  [
                    -88.017335,
                    41.840324
                  ],
                  [
                    -88.017331,
                    41.840316
                  ],
                  [
                    -88.017298,
                    41.840314
                  ],
                  [
                    -88.017282,
                    41.840322
                  ],
                  [
                    -88.017281,
                    41.840334
                  ],
                  [
                    -88.017289,
                    41.84034
                  ]
                ]
              ]
            },
            "properties": {
              "id": 5,
              "area": 642.5,
              "perimeter": 148.13
            }
          }
        ]
      }
    },
    {
      "id": "873db387-ec7f-463b-841f-6f17af24f715",
      "feature": {
        "id": "179e99fd-b756-4e2d-a8e6-acb09f6f4807",
        "name": "Pavement",
        "geometry_type": 3,
        "is_custom": false
      },
      "style": {
        "color": "#FF7D51",
        "width": 3,
        "opacity": 0.3,
        "is_visible": true,
        "layer_order": 1
      },
      "measurements": [
        {
          "name": "area",
          "value": 1014,
          "unit": "sqft"
        },
        {
          "name": "perimeter",
          "value": 227,
          "unit": "ft"
        }
      ],
      "output_geojson": {
        "type": "FeatureCollection",
        "features": [
          {
            "type": "Feature",
            "geometry": {
              "type": "Polygon",
              "coordinates": [
                [
                  [
                    -88.016398,
                    41.840415
                  ],
                  [
                    -88.016418,
                    41.840414
                  ],
                  [
                    -88.016467,
                    41.840414
                  ],
                  [
                    -88.016469,
                    41.840417
                  ],
                  [
                    -88.016473,
                    41.840452
                  ],
                  [
                    -88.016475,
                    41.840483
                  ],
                  [
                    -88.016414,
                    41.840486
                  ],
                  [
                    -88.016413,
                    41.840491
                  ],
                  [
                    -88.016442,
                    41.840492
                  ],
                  [
                    -88.016443,
                    41.840502
                  ],
                  [
                    -88.016433,
                    41.840502
                  ],
                  [
                    -88.016435,
                    41.840513
                  ],
                  [
                    -88.016456,
                    41.840513
                  ],
                  [
                    -88.016457,
                    41.840517
                  ],
                  [
                    -88.016443,
                    41.84052
                  ],
                  [
                    -88.016445,
                    41.840548
                  ],
                  [
                    -88.016399,
                    41.84055
                  ],
                  [
                    -88.016393,
                    41.840493
                  ],
                  [
                    -88.0164,
                    41.84049
                  ],
                  [
                    -88.016398,
                    41.840415
                  ]
                ]
              ]
            },
            "properties": {
              "id": 1,
              "area": 794.33,
              "perimeter": 165.0
            }
          },
          {
            "type": "Feature",
            "geometry": {
              "type": "Polygon",
              "coordinates": [
                [
                  [
                    -88.016457,
                    41.840841
                  ],
                  [
                    -88.016417,
                    41.840842
                  ],
                  [
                    -88.016414,
                    41.840788
                  ],
                  [
                    -88.016456,
                    41.840787
                  ],
                  [
                    -88.016457,
                    41.840841
                  ]
                ]
              ]
            },
            "properties": {
              "id": 2,
              "area": 220.06,
              "perimeter": 61.67
            }
          }
        ]
      }
    },
    {
      "id": "32f65a5b-4ccc-48be-a434-7b1983203079",
      "feature": {
        "id": "df73cc66-4d50-445e-a906-70b6e7bfc189",
        "name": "Sidewalk",
        "geometry_type": 3,
        "is_custom": false
      },
      "style": {
        "color": "#0AAFFF",
        "width": 1,
        "opacity": 0.3,
        "is_visible": true,
        "layer_order": 1
      },
      "measurements": [
        {
          "name": "area",
          "value": 824,
          "unit": "sqft"
        },
        {
          "name": "perimeter",
          "value": 277,
          "unit": "ft"
        }
      ],
      "output_geojson": {
        "type": "FeatureCollection",
        "features": [
          {
            "type": "Feature",
            "geometry": {
              "type": "Polygon",
              "coordinates": [
                [
                  [
                    -88.01711,
                    41.840824
                  ],
                  [
                    -88.017105,
                    41.840743
                  ],
                  [
                    -88.017101,
                    41.840738
                  ],
                  [
                    -88.01708,
                    41.840737
                  ],
                  [
                    -88.017078,
                    41.840708
                  ],
                  [
                    -88.017099,
                    41.840709
                  ],
                  [
                    -88.017104,
                    41.840701
                  ],
                  [
                    -88.017095,
                    41.840546
                  ],
                  [
                    -88.017088,
                    41.84054
                  ],
                  [
                    -88.01707,
                    41.840539
                  ],
                  [
                    -88.017069,
                    41.840502
                  ],
                  [
                    -88.017113,
                    41.840501
                  ],
                  [
                    -88.017123,
                    41.840702
                  ],
                  [
                    -88.017126,
                    41.840714
                  ],
                  [
                    -88.017141,
                    41.840715
                  ],
                  [
                    -88.017141,
                    41.84073
                  ],
                  [
                    -88.017127,
                    41.840731
                  ],
                  [
                    -88.017125,
                    41.840737
                  ],
                  [
                    -88.017128,
                    41.840824
                  ],
                  [
                    -88.01711,
                    41.840824
                  ]
                ]
              ]
            },
            "properties": {
              "id": 1,
              "area": 824.31,
              "perimeter": 276.71
            }
          }
        ]
      }
    },
    {
      "id": "b4a76e0a-9253-4224-83bb-f55c19eb42ec",
      "feature": {
        "id": "7b7dc0e2-9622-4bd3-b7f4-c99d47f3d560",
        "name": "Parking Spot",
        "geometry_type": 3,
        "is_custom": false
      },
      "style": {
        "color": "#12009D",
        "width": 3,
        "opacity": 0.3,
        "is_visible": true,
        "layer_order": 1
      },
      "measurements": [
        {
          "name": "area",
          "value": 11254,
          "unit": "sqft"
        },
        {
          "name": "perimeter",
          "value": 1402,
          "unit": "ft"
        }
      ],
      "output_geojson": {
        "type": "FeatureCollection",
        "features": [
          {
            "type": "Feature",
            "geometry": {
              "type": "Polygon",
              "coordinates": [
                [
                  [
                    -88.016398,
                    41.8404
                  ],
                  [
                    -88.016399,
                    41.840349
                  ],
                  [
                    -88.016905,
                    41.840331
                  ],
                  [
                    -88.016906,
                    41.840316
                  ],
                  [
                    -88.017106,
                    41.84031
                  ],
                  [
                    -88.017108,
                    41.840373
                  ],
                  [
                    -88.016398,
                    41.8404
                  ]
                ]
              ]
            },
            "properties": {
              "id": 1,
              "area": 3820.1,
              "perimeter": 433.59
            }
          },
          {
            "type": "Feature",
            "geometry": {
              "type": "Polygon",
              "coordinates": [
                [
                  [
                    -88.017287,
                    41.840464
                  ],
                  [
                    -88.017288,
                    41.8405
                  ],
                  [
                    -88.017113,
                    41.840503
                  ],
                  [
                    -88.017113,
                    41.840501
                  ],
                  [
                    -88.017069,
                    41.840502
                  ],
                  [
                    -88.017069,
                    41.840504
                  ],
                  [
                    -88.016453,
                    41.840518
                  ],
                  [
                    -88.016457,
                    41.840517
                  ],
                  [
                    -88.016456,
                    41.840513
                  ],
                  [
                    -88.016443,
                    41.840513
                  ],
                  [
                    -88.016442,
                    41.840502
                  ],
                  [
                    -88.016443,
                    41.840502
                  ],
                  [
                    -88.016442,
                    41.840499
                  ],
                  [
                    -88.016442,
                    41.840485
                  ],
                  [
                    -88.016472,
                    41.840483
                  ],
                  [
                    -88.016472,
                    41.840483
                  ],
                  [
                    -88.016475,
                    41.840483
                  ],
                  [
                    -88.016475,
                    41.84048
                  ],
                  [
                    -88.016476,
                    41.840479
                  ],
                  [
                    -88.016474,
                    41.840461
                  ],
                  [
                    -88.017249,
                    41.840446
                  ],
                  [
                    -88.017272,
                    41.840454
                  ],
                  [
                    -88.017275,
                    41.840456
                  ],
                  [
                    -88.017287,
                    41.840464
                  ]
                ]
              ]
            },
            "properties": {
              "id": 2,
              "area": 4535.53,
              "perimeter": 499.67
            }
          },
          {
            "type": "Feature",
            "geometry": {
              "type": "Polygon",
              "coordinates": [
                [
                  [
                    -88.017197,
                    41.840307
                  ],
                  [
                    -88.017265,
                    41.840306
                  ],
                  [
                    -88.017264,
                    41.840345
                  ],
                  [
                    -88.017267,
                    41.840362
                  ],
                  [
                    -88.017275,
                    41.840376
                  ],
                  [
                    -88.017291,
                    41.840385
                  ],
                  [
                    -88.017199,
                    41.840387
                  ],
                  [
                    -88.017197,
                    41.840307
                  ]
                ]
              ]
            },
            "properties": {
              "id": 3,
              "area": 553.22,
              "perimeter": 103.84
            }
          },
          {
            "type": "Feature",
            "geometry": {
              "type": "Polygon",
              "coordinates": [
                [
                  [
                    -88.01723,
                    41.840658
                  ],
                  [
                    -88.017279,
                    41.840662
                  ],
                  [
                    -88.01729,
                    41.840667
                  ],
                  [
                    -88.017292,
                    41.840834
                  ],
                  [
                    -88.017226,
                    41.840834
                  ],
                  [
                    -88.017227,
                    41.840668
                  ],
                  [
                    -88.017226,
                    41.840668
                  ],
                  [
                    -88.017226,
                    41.840668
                  ],
                  [
                    -88.017139,
                    41.840668
                  ],
                  [
                    -88.017136,
                    41.840623
                  ],
                  [
                    -88.017218,
                    41.840622
                  ],
                  [
                    -88.017221,
                    41.840623
                  ],
                  [
                    -88.017222,
                    41.840652
                  ],
                  [
                    -88.01723,
                    41.840658
                  ]
                ]
              ]
            },
            "properties": {
              "id": 4,
              "area": 1494.54,
              "perimeter": 233.56
            }
          },
          {
            "type": "Feature",
            "geometry": {
              "type": "Polygon",
              "coordinates": [
                [
                  [
                    -88.016953,
                    41.840832
                  ],
                  [
                    -88.017129,
                    41.840825
                  ],
                  [
                    -88.017131,
                    41.840874
                  ],
                  [
                    -88.016954,
                    41.840879
                  ],
                  [
                    -88.016953,
                    41.840832
                  ]
                ]
              ]
            },
            "properties": {
              "id": 5,
              "area": 851.02,
              "perimeter": 131.64
            }
          }
        ]
      }
    },
    {
      "id": "7e9d6257-e66a-4e65-8df5-940bcce7e397",
      "feature": {
        "id": "95f4b6ba-519c-42fe-ac9c-30a02773baf1",
        "name": "Drivable Area",
        "geometry_type": 3,
        "is_custom": false
      },
      "style": {
        "color": "#7551E9",
        "width": 3,
        "opacity": 0.3,
        "is_visible": true,
        "layer_order": 1
      },
      "measurements": [
        {
          "name": "area",
          "value": 14680,
          "unit": "sqft"
        },
        {
          "name": "perimeter",
          "value": 1393,
          "unit": "ft"
        }
      ],
      "output_geojson": {
        "type": "FeatureCollection",
        "features": [
          {
            "type": "Feature",
            "geometry": {
              "type": "Polygon",
              "coordinates": [
                [
                  [
                    -88.01737,
                    41.840482
                  ],
                  [
                    -88.01735,
                    41.840465
                  ],
                  [
                    -88.01734,
                    41.840461
                  ],
                  [
                    -88.017312,
                    41.840457
                  ],
                  [
                    -88.017287,
                    41.840461
                  ],
                  [
                    -88.017262,
                    41.840449
                  ],
                  [
                    -88.017249,
                    41.840446
                  ],
                  [
                    -88.016474,
                    41.840461
                  ],
                  [
                    -88.016469,
                    41.840414
                  ],
                  [
                    -88.016398,
                    41.840414
                  ],
                  [
                    -88.016398,
                    41.8404
                  ],
                  [
                    -88.017108,
                    41.840373
                  ],
                  [
                    -88.017106,
                    41.84031
                  ],
                  [
                    -88.017197,
                    41.840307
                  ],
                  [
                    -88.017199,
                    41.840387
                  ],
                  [
                    -88.017307,
                    41.84039
                  ],
                  [
                    -88.017366,
                    41.840387
                  ],
                  [
                    -88.01737,
                    41.840482
                  ]
                ]
              ]
            },
            "properties": {
              "id": 1,
              "area": 6907.3,
              "perimeter": 641.16
            }
          },
          {
            "type": "Feature",
            "geometry": {
              "type": "Polygon",
              "coordinates": [
                [
                  [
                    -88.016464,
                    41.840935
                  ],
                  [
                    -88.016464,
                    41.840845
                  ],
                  [
                    -88.016506,
                    41.840845
                  ],
                  [
                    -88.016508,
                    41.840887
                  ],
                  [
                    -88.016509,
                    41.84089
                  ],
                  [
                    -88.016513,
                    41.84089
                  ],
                  [
                    -88.016596,
                    41.840887
                  ],
                  [
                    -88.016595,
                    41.840841
                  ],
                  [
                    -88.016953,
                    41.840832
                  ],
                  [
                    -88.016954,
                    41.840879
                  ],
                  [
                    -88.017131,
                    41.840874
                  ],
                  [
                    -88.017129,
                    41.840825
                  ],
                  [
                    -88.017143,
                    41.840821
                  ],
                  [
                    -88.017146,
                    41.840817
                  ],
                  [
                    -88.017141,
                    41.840716
                  ],
                  [
                    -88.017141,
                    41.840715
                  ],
                  [
                    -88.017141,
                    41.840715
                  ],
                  [
                    -88.017138,
                    41.840668
                  ],
                  [
                    -88.017226,
                    41.840668
                  ],
                  [
                    -88.017226,
                    41.840834
                  ],
                  [
                    -88.017292,
                    41.840834
                  ],
                  [
                    -88.017303,
                    41.840843
                  ],
                  [
                    -88.017343,
                    41.840845
                  ],
                  [
                    -88.017367,
                    41.840842
                  ],
                  [
                    -88.017387,
                    41.840832
                  ],
                  [
                    -88.01739,
                    41.840903
                  ],
                  [
                    -88.016464,
                    41.840935
                  ]
                ]
              ]
            },
            "properties": {
              "id": 2,
              "area": 7772.35,
              "perimeter": 751.85
            }
          }
        ]
      }
    },
    {
      "id": "2d3c8537-e0fa-4a53-986a-f0b670687a28",
      "feature": {
        "id": "a362e15f-ee52-473a-8b9e-425974275744",
        "name": "Beds",
        "geometry_type": 3,
        "is_custom": false
      },
      "style": {
        "color": "#00863E",
        "width": 3,
        "opacity": 0.3,
        "is_visible": true,
        "layer_order": 1
      },
      "measurements": [
        {
          "name": "area",
          "value": 1561,
          "unit": "sqft"
        },
        {
          "name": "perimeter",
          "value": 528,
          "unit": "ft"
        }
      ],
      "output_geojson": {
        "type": "FeatureCollection",
        "features": [
          {
            "type": "Feature",
            "geometry": {
              "type": "Polygon",
              "coordinates": [
                [
                  [
                    -88.017289,
                    41.84034
                  ],
                  [
                    -88.017281,
                    41.840334
                  ],
                  [
                    -88.017282,
                    41.840322
                  ],
                  [
                    -88.017298,
                    41.840314
                  ],
                  [
                    -88.017331,
                    41.840316
                  ],
                  [
                    -88.017335,
                    41.840324
                  ],
                  [
                    -88.017334,
                    41.840334
                  ],
                  [
                    -88.017311,
                    41.84034
                  ],
                  [
                    -88.017289,
                    41.84034
                  ]
                ]
              ]
            },
            "properties": {
              "id": 1,
              "area": 117.57,
              "perimeter": 41.31
            }
          },
          {
            "type": "Feature",
            "geometry": {
              "type": "Polygon",
              "coordinates": [
                [
                  [
                    -88.01716,
                    41.840585
                  ],
                  [
                    -88.017152,
                    41.840581
                  ],
                  [
                    -88.017148,
                    41.84057
                  ],
                  [
                    -88.017154,
                    41.840556
                  ],
                  [
                    -88.017164,
                    41.840552
                  ],
                  [
                    -88.017211,
                    41.840554
                  ],
                  [
                    -88.017249,
                    41.840549
                  ],
                  [
                    -88.01727,
                    41.840556
                  ],
                  [
                    -88.017271,
                    41.840565
                  ],
                  [
                    -88.017266,
                    41.840581
                  ],
                  [
                    -88.017246,
                    41.840592
                  ],
                  [
                    -88.017234,
                    41.840594
                  ],
                  [
                    -88.01716,
                    41.840585
                  ]
                ]
              ]
            },
            "properties": {
              "id": 2,
              "area": 428.65,
              "perimeter": 84.81
            }
          },
          {
            "type": "Feature",
            "geometry": {
              "type": "Polygon",
              "coordinates": [
                [
                  [
                    -88.017078,
                    41.840709
                  ],
                  [
                    -88.017068,
                    41.840539
                  ],
                  [
                    -88.017076,
                    41.840539
                  ],
                  [
                    -88.017088,
                    41.84054
                  ],
                  [
                    -88.017094,
                    41.840545
                  ],
                  [
                    -88.017094,
                    41.840545
                  ],
                  [
                    -88.017101,
                    41.840643
                  ],
                  [
                    -88.017104,
                    41.840701
                  ],
                  [
                    -88.0171,
                    41.840708
                  ],
                  [
                    -88.017092,
                    41.840708
                  ],
                  [
                    -88.017078,
                    41.840708
                  ],
                  [
                    -88.017078,
                    41.840709
                  ],
                  [
                    -88.017078,
                    41.840709
                  ]
                ]
              ]
            },
            "properties": {
              "id": 3,
              "area": 431.85,
              "perimeter": 135.66
            }
          },
          {
            "type": "Feature",
            "geometry": {
              "type": "Polygon",
              "coordinates": [
                [
                  [
                    -88.017134,
                    41.840619
                  ],
                  [
                    -88.017133,
                    41.840619
                  ],
                  [
                    -88.017139,
                    41.840715
                  ],
                  [
                    -88.017126,
                    41.840714
                  ],
                  [
                    -88.017123,
                    41.840702
                  ],
                  [
                    -88.017119,
                    41.840619
                  ],
                  [
                    -88.017134,
                    41.840619
                  ]
                ]
              ]
            },
            "properties": {
              "id": 4,
              "area": 141.27,
              "perimeter": 77.63
            }
          },
          {
            "type": "Feature",
            "geometry": {
              "type": "Polygon",
              "coordinates": [
                [
                  [
                    -88.017291,
                    41.840754
                  ],
                  [
                    -88.017291,
                    41.84075
                  ],
                  [
                    -88.017319,
                    41.840752
                  ],
                  [
                    -88.017329,
                    41.840759
                  ],
                  [
                    -88.017336,
                    41.840767
                  ],
                  [
                    -88.017334,
                    41.840773
                  ],
                  [
                    -88.017322,
                    41.84078
                  ],
                  [
                    -88.017291,
                    41.840781
                  ],
                  [
                    -88.017291,
                    41.840754
                  ]
                ]
              ]
            },
            "properties": {
              "id": 5,
              "area": 111.15,
              "perimeter": 40.76
            }
          },
          {
            "type": "Feature",
            "geometry": {
              "type": "Polygon",
              "coordinates": [
                [
                  [
                    -88.01713,
                    41.840823
                  ],
                  [
                    -88.017127,
                    41.840771
                  ],
                  [
                    -88.017126,
                    41.840771
                  ],
                  [
                    -88.017125,
                    41.840748
                  ],
                  [
                    -88.017126,
                    41.840747
                  ],
                  [
                    -88.017126,
                    41.840733
                  ],
                  [
                    -88.017127,
                    41.840731
                  ],
                  [
                    -88.017127,
                    41.840731
                  ],
                  [
                    -88.017139,
                    41.84073
                  ],
                  [
                    -88.017143,
                    41.840817
                  ],
                  [
                    -88.017136,
                    41.840823
                  ],
                  [
                    -88.01713,
                    41.840823
                  ]
                ]
              ]
            },
            "properties": {
              "id": 6,
              "area": 125.14,
              "perimeter": 73.3
            }
          },
          {
            "type": "Feature",
            "geometry": {
              "type": "Polygon",
              "coordinates": [
                [
                  [
                    -88.01711,
                    41.840824
                  ],
                  [
                    -88.017084,
                    41.840824
                  ],
                  [
                    -88.017081,
                    41.840738
                  ],
                  [
                    -88.017102,
                    41.840739
                  ],
                  [
                    -88.017103,
                    41.840741
                  ],
                  [
                    -88.017107,
                    41.840781
                  ],
                  [
                    -88.01711,
                    41.840824
                  ]
                ]
              ]
            },
            "properties": {
              "id": 7,
              "area": 204.97,
              "perimeter": 74.81
            }
          }
        ]
      }
    },
    {
      "id": "c81a253e-d001-4563-a560-b98744e76f68",
      "feature": {
        "id": "a774a2f1-b6ac-4802-90cf-c3e21d93fa6e",
        "name": "Hedge",
        "geometry_type": 3,
        "is_custom": false
      },
      "style": {
        "color": "#795235",
        "width": 3,
        "opacity": 0.3,
        "is_visible": true,
        "layer_order": 1
      },
      "measurements": [
        {
          "name": "area",
          "value": 163,
          "unit": "sqft"
        },
        {
          "name": "perimeter",
          "value": 53,
          "unit": "ft"
        }
      ],
      "output_geojson": {
        "type": "FeatureCollection",
        "features": [
          {
            "type": "Feature",
            "geometry": {
              "type": "Polygon",
              "coordinates": [
                [
                  [
                    -88.017361,
                    41.840648
                  ],
                  [
                    -88.01736,
                    41.840664
                  ],
                  [
                    -88.017352,
                    41.840677
                  ],
                  [
                    -88.01733,
                    41.84068
                  ],
                  [
                    -88.017324,
                    41.840678
                  ],
                  [
                    -88.017316,
                    41.84067
                  ],
                  [
                    -88.017316,
                    41.840664
                  ],
                  [
                    -88.017328,
                    41.840657
                  ],
                  [
                    -88.01733,
                    41.840647
                  ],
                  [
                    -88.017324,
                    41.840637
                  ],
                  [
                    -88.017334,
                    41.840627
                  ],
                  [
                    -88.017349,
                    41.840629
                  ],
                  [
                    -88.017354,
                    41.840633
                  ],
                  [
                    -88.017361,
                    41.840648
                  ]
                ]
              ]
            },
            "properties": {
              "id": 1,
              "area": 162.83,
              "perimeter": 53.11
            }
          }
        ]
      }
    },
    {
      "id": "160c3710-0231-4f19-8d3d-a93c215b4a78",
      "feature": {
        "id": "8aa6d1a9-2b88-47c3-a0c3-8af988c831e2",
        "name": "Tree",
        "geometry_type": 1,
        "is_custom": false
      },
      "style": {
        "color": "#CBFF3C",
        "width": 3,
        "opacity": 0.3,
        "is_visible": true,
        "layer_order": 1
      },
      "measurements": [
        {
          "name": "count",
          "value": 40,
          "unit": "number"
        }
      ],
      "output_geojson": {
        "type": "FeatureCollection",
        "features": [
          {
            "type": "Feature",
            "geometry": {
              "type": "Point",
              "coordinates": [
                -88.016266,
                41.840581
              ]
            },
            "properties": {
              "id": 1
            }
          },
          {
            "type": "Feature",
            "geometry": {
              "type": "Point",
              "coordinates": [
                -88.016264,
                41.840638
              ]
            },
            "properties": {
              "id": 2
            }
          },
          {
            "type": "Feature",
            "geometry": {
              "type": "Point",
              "coordinates": [
                -88.016267,
                41.840698
              ]
            },
            "properties": {
              "id": 3
            }
          },
          {
            "type": "Feature",
            "geometry": {
              "type": "Point",
              "coordinates": [
                -88.016287,
                41.840777
              ]
            },
            "properties": {
              "id": 4
            }
          },
          {
            "type": "Feature",
            "geometry": {
              "type": "Point",
              "coordinates": [
                -88.016278,
                41.84092
              ]
            },
            "properties": {
              "id": 5
            }
          },
          {
            "type": "Feature",
            "geometry": {
              "type": "Point",
              "coordinates": [
                -88.016272,
                41.840863
              ]
            },
            "properties": {
              "id": 6
            }
          },
          {
            "type": "Feature",
            "geometry": {
              "type": "Point",
              "coordinates": [
                -88.016275,
                41.840836
              ]
            },
            "properties": {
              "id": 7
            }
          },
          {
            "type": "Feature",
            "geometry": {
              "type": "Point",
              "coordinates": [
                -88.016285,
                41.840884
              ]
            },
            "properties": {
              "id": 8
            }
          },
          {
            "type": "Feature",
            "geometry": {
              "type": "Point",
              "coordinates": [
                -88.016256,
                41.84046
              ]
            },
            "properties": {
              "id": 9
            }
          },
          {
            "type": "Feature",
            "geometry": {
              "type": "Point",
              "coordinates": [
                -88.016268,
                41.840434
              ]
            },
            "properties": {
              "id": 10
            }
          },
          {
            "type": "Feature",
            "geometry": {
              "type": "Point",
              "coordinates": [
                -88.016271,
                41.840384
              ]
            },
            "properties": {
              "id": 11
            }
          },
          {
            "type": "Feature",
            "geometry": {
              "type": "Point",
              "coordinates": [
                -88.016262,
                41.84035
              ]
            },
            "properties": {
              "id": 12
            }
          },
          {
            "type": "Feature",
            "geometry": {
              "type": "Point",
              "coordinates": [
                -88.016265,
                41.840495
              ]
            },
            "properties": {
              "id": 13
            }
          },
          {
            "type": "Feature",
            "geometry": {
              "type": "Point",
              "coordinates": [
                -88.016274,
                41.840517
              ]
            },
            "properties": {
              "id": 14
            }
          },
          {
            "type": "Feature",
            "geometry": {
              "type": "Point",
              "coordinates": [
                -88.016269,
                41.84054
              ]
            },
            "properties": {
              "id": 15
            }
          },
          {
            "type": "Feature",
            "geometry": {
              "type": "Point",
              "coordinates": [
                -88.016281,
                41.84056
              ]
            },
            "properties": {
              "id": 16
            }
          },
          {
            "type": "Feature",
            "geometry": {
              "type": "Point",
              "coordinates": [
                -88.016328,
                41.840761
              ]
            },
            "properties": {
              "id": 17
            }
          },
          {
            "type": "Feature",
            "geometry": {
              "type": "Point",
              "coordinates": [
                -88.016299,
                41.840815
              ]
            },
            "properties": {
              "id": 18
            }
          },
          {
            "type": "Feature",
            "geometry": {
              "type": "Point",
              "coordinates": [
                -88.01632,
                41.840797
              ]
            },
            "properties": {
              "id": 19
            }
          },
          {
            "type": "Feature",
            "geometry": {
              "type": "Point",
              "coordinates": [
                -88.016322,
                41.840839
              ]
            },
            "properties": {
              "id": 20
            }
          },
          {
            "type": "Feature",
            "geometry": {
              "type": "Point",
              "coordinates": [
                -88.016316,
                41.84092
              ]
            },
            "properties": {
              "id": 21
            }
          },
          {
            "type": "Feature",
            "geometry": {
              "type": "Point",
              "coordinates": [
                -88.016316,
                41.840888
              ]
            },
            "properties": {
              "id": 22
            }
          },
          {
            "type": "Feature",
            "geometry": {
              "type": "Point",
              "coordinates": [
                -88.016297,
                41.840855
              ]
            },
            "properties": {
              "id": 23
            }
          },
          {
            "type": "Feature",
            "geometry": {
              "type": "Point",
              "coordinates": [
                -88.016362,
                41.840931
              ]
            },
            "properties": {
              "id": 24
            }
          },
          {
            "type": "Feature",
            "geometry": {
              "type": "Point",
              "coordinates": [
                -88.017165,
                41.840571
              ]
            },
            "properties": {
              "id": 25
            }
          },
          {
            "type": "Feature",
            "geometry": {
              "type": "Point",
              "coordinates": [
                -88.017237,
                41.840574
              ]
            },
            "properties": {
              "id": 26
            }
          },
          {
            "type": "Feature",
            "geometry": {
              "type": "Point",
              "coordinates": [
                -88.016304,
                41.840592
              ]
            },
            "properties": {
              "id": 27
            }
          },
          {
            "type": "Feature",
            "geometry": {
              "type": "Point",
              "coordinates": [
                -88.016305,
                41.840644
              ]
            },
            "properties": {
              "id": 28
            }
          },
          {
            "type": "Feature",
            "geometry": {
              "type": "Point",
              "coordinates": [
                -88.016292,
                41.840675
              ]
            },
            "properties": {
              "id": 29
            }
          },
          {
            "type": "Feature",
            "geometry": {
              "type": "Point",
              "coordinates": [
                -88.016291,
                41.840603
              ]
            },
            "properties": {
              "id": 30
            }
          },
          {
            "type": "Feature",
            "geometry": {
              "type": "Point",
              "coordinates": [
                -88.016315,
                41.8407
              ]
            },
            "properties": {
              "id": 31
            }
          },
          {
            "type": "Feature",
            "geometry": {
              "type": "Point",
              "coordinates": [
                -88.016288,
                41.840731
              ]
            },
            "properties": {
              "id": 32
            }
          },
          {
            "type": "Feature",
            "geometry": {
              "type": "Point",
              "coordinates": [
                -88.016306,
                41.840399
              ]
            },
            "properties": {
              "id": 33
            }
          },
          {
            "type": "Feature",
            "geometry": {
              "type": "Point",
              "coordinates": [
                -88.01629,
                41.840342
              ]
            },
            "properties": {
              "id": 34
            }
          },
          {
            "type": "Feature",
            "geometry": {
              "type": "Point",
              "coordinates": [
                -88.016299,
                41.840424
              ]
            },
            "properties": {
              "id": 35
            }
          },
          {
            "type": "Feature",
            "geometry": {
              "type": "Point",
              "coordinates": [
                -88.016306,
                41.840355
              ]
            },
            "properties": {
              "id": 36
            }
          },
          {
            "type": "Feature",
            "geometry": {
              "type": "Point",
              "coordinates": [
                -88.016306,
                41.840381
              ]
            },
            "properties": {
              "id": 37
            }
          },
          {
            "type": "Feature",
            "geometry": {
              "type": "Point",
              "coordinates": [
                -88.016301,
                41.840457
              ]
            },
            "properties": {
              "id": 38
            }
          },
          {
            "type": "Feature",
            "geometry": {
              "type": "Point",
              "coordinates": [
                -88.016302,
                41.840516
              ]
            },
            "properties": {
              "id": 39
            }
          },
          {
            "type": "Feature",
            "geometry": {
              "type": "Point",
              "coordinates": [
                -88.016303,
                41.840553
              ]
            },
            "properties": {
              "id": 40
            }
          }
        ]
      }
    },
    {
      "id": "ec0a8938-4d29-4504-ac3e-6c6cf35ddf99",
      "feature": {
        "id": "49d3af3d-f7cd-43d0-a8d1-293eadc92f88",
        "name": "Hard Edge",
        "geometry_type": 2,
        "is_custom": false
      },
      "style": {
        "color": "#1921FF",
        "width": 3,
        "opacity": 0.3,
        "is_visible": true,
        "layer_order": 1
      },
      "measurements": [
        {
          "name": "length",
          "value": 873,
          "unit": "ft"
        }
      ],
      "output_geojson": {
        "type": "FeatureCollection",
        "features": [
          {
            "type": "Feature",
            "geometry": {
              "type": "LineString",
              "coordinates": [
                [
                  -88.017291,
                  41.84075
                ],
                [
                  -88.017291,
                  41.840748
                ],
                [
                  -88.017289,
                  41.840661
                ],
                [
                  -88.01728,
                  41.840658
                ],
                [
                  -88.017269,
                  41.840658
                ],
                [
                  -88.017238,
                  41.840659
                ],
                [
                  -88.017225,
                  41.840655
                ],
                [
                  -88.017222,
                  41.840649
                ],
                [
                  -88.017222,
                  41.840638
                ],
                [
                  -88.01722,
                  41.840629
                ],
                [
                  -88.017218,
                  41.84062
                ],
                [
                  -88.017212,
                  41.840616
                ],
                [
                  -88.017134,
                  41.840619
                ]
              ]
            },
            "properties": {
              "id": 1,
              "length": 86.87
            }
          },
          {
            "type": "Feature",
            "geometry": {
              "type": "LineString",
              "coordinates": [
                [
                  -88.016465,
                  41.840935
                ],
                [
                  -88.016444,
                  41.840936
                ]
              ]
            },
            "properties": {
              "id": 2,
              "length": 5.73
            }
          },
          {
            "type": "Feature",
            "geometry": {
              "type": "LineString",
              "coordinates": [
                [
                  -88.016908,
                  41.840316
                ],
                [
                  -88.016906,
                  41.840326
                ],
                [
                  -88.01663,
                  41.840336
                ],
                [
                  -88.01638,
                  41.840346
                ],
                [
                  -88.01639,
                  41.840552
                ],
                [
                  -88.016431,
                  41.840553
                ],
                [
                  -88.016444,
                  41.84079
                ],
                [
                  -88.016411,
                  41.840791
                ],
                [
                  -88.016415,
                  41.840845
                ],
                [
                  -88.016443,
                  41.840845
                ],
                [
                  -88.016443,
                  41.840846
                ],
                [
                  -88.016443,
                  41.840845
                ],
                [
                  -88.016463,
                  41.840847
                ],
                [
                  -88.016465,
                  41.840925
                ],
                [
                  -88.016465,
                  41.840935
                ]
              ]
            },
            "properties": {
              "id": 3,
              "length": 394.59
            }
          },
          {
            "type": "Feature",
            "geometry": {
              "type": "LineString",
              "coordinates": [
                [
                  -88.017376,
                  41.840302
                ],
                [
                  -88.017371,
                  41.840327
                ],
                [
                  -88.017368,
                  41.84035
                ],
                [
                  -88.017368,
                  41.84036
                ],
                [
                  -88.017366,
                  41.84037
                ],
                [
                  -88.017361,
                  41.840381
                ],
                [
                  -88.017353,
                  41.840384
                ],
                [
                  -88.01734,
                  41.840386
                ],
                [
                  -88.017303,
                  41.840386
                ],
                [
                  -88.017296,
                  41.840382
                ],
                [
                  -88.017285,
                  41.840375
                ],
                [
                  -88.017278,
                  41.840369
                ],
                [
                  -88.017273,
                  41.840361
                ],
                [
                  -88.017269,
                  41.840305
                ]
              ]
            },
            "properties": {
              "id": 4,
              "length": 78.23
            }
          },
          {
            "type": "Feature",
            "geometry": {
              "type": "LineString",
              "coordinates": [
                [
                  -88.017117,
                  41.840619
                ],
                [
                  -88.017112,
                  41.840504
                ],
                [
                  -88.017289,
                  41.8405
                ],
                [
                  -88.017288,
                  41.840459
                ],
                [
                  -88.0173,
                  41.840457
                ],
                [
                  -88.017314,
                  41.840456
                ],
                [
                  -88.017328,
                  41.840458
                ],
                [
                  -88.017338,
                  41.840461
                ],
                [
                  -88.017352,
                  41.840467
                ],
                [
                  -88.017365,
                  41.840474
                ],
                [
                  -88.017367,
                  41.840477
                ],
                [
                  -88.017376,
                  41.840581
                ],
                [
                  -88.017383,
                  41.840732
                ],
                [
                  -88.017388,
                  41.840835
                ],
                [
                  -88.017378,
                  41.840838
                ],
                [
                  -88.017367,
                  41.840842
                ],
                [
                  -88.017341,
                  41.840845
                ],
                [
                  -88.017309,
                  41.840844
                ],
                [
                  -88.017296,
                  41.84084
                ],
                [
                  -88.017292,
                  41.840833
                ],
                [
                  -88.017289,
                  41.840781
                ]
              ]
            },
            "properties": {
              "id": 5,
              "length": 307.46
            }
          }
        ]
      }
    },
    {
      "id": "4ec9c10d-b015-4e5a-bb99-0b622878bef4",
      "feature": {
        "id": "726fed81-2c9a-46aa-a8c1-612c5a5f693d",
        "name": "Soft Edge",
        "geometry_type": 2,
        "is_custom": false
      },
      "style": {
        "color": "#D80090",
        "width": 3,
        "opacity": 0.3,
        "is_visible": true,
        "layer_order": 1
      },
      "measurements": [
        {
          "name": "length",
          "value": 701,
          "unit": "ft"
        }
      ],
      "output_geojson": {
        "type": "FeatureCollection",
        "features": [
          {
            "type": "Feature",
            "geometry": {
              "type": "LineString",
              "coordinates": [
                [
                  -88.017134,
                  41.840619
                ],
                [
                  -88.017117,
                  41.840619
                ]
              ]
            },
            "properties": {
              "id": 1,
              "length": 4.63
            }
          },
          {
            "type": "Feature",
            "geometry": {
              "type": "LineString",
              "coordinates": [
                [
                  -88.017361,
                  41.840648
                ],
                [
                  -88.017354,
                  41.840633
                ],
                [
                  -88.017349,
                  41.840629
                ],
                [
                  -88.017334,
                  41.840627
                ],
                [
                  -88.017326,
                  41.840633
                ],
                [
                  -88.017324,
                  41.840637
                ],
                [
                  -88.017324,
                  41.840638
                ],
                [
                  -88.017324,
                  41.840641
                ],
                [
                  -88.017326,
                  41.840642
                ],
                [
                  -88.017328,
                  41.840645
                ],
                [
                  -88.01733,
                  41.840647
                ],
                [
                  -88.01733,
                  41.840652
                ],
                [
                  -88.017328,
                  41.840657
                ],
                [
                  -88.017326,
                  41.84066
                ],
                [
                  -88.017316,
                  41.840664
                ],
                [
                  -88.017316,
                  41.840668
                ],
                [
                  -88.017316,
                  41.84067
                ],
                [
                  -88.017318,
                  41.840674
                ],
                [
                  -88.017324,
                  41.840678
                ],
                [
                  -88.01733,
                  41.84068
                ],
                [
                  -88.017338,
                  41.84068
                ],
                [
                  -88.017347,
                  41.840679
                ],
                [
                  -88.017352,
                  41.840677
                ],
                [
                  -88.017354,
                  41.840672
                ],
                [
                  -88.01736,
                  41.840664
                ],
                [
                  -88.017361,
                  41.840658
                ],
                [
                  -88.017361,
                  41.840648
                ]
              ]
            },
            "properties": {
              "id": 2,
              "length": 53.88
            }
          },
          {
            "type": "Feature",
            "geometry": {
              "type": "LineString",
              "coordinates": [
                [
                  -88.017289,
                  41.840781
                ],
                [
                  -88.017295,
                  41.84078
                ],
                [
                  -88.017302,
                  41.84078
                ],
                [
                  -88.017314,
                  41.84078
                ],
                [
                  -88.017322,
                  41.84078
                ],
                [
                  -88.017331,
                  41.840775
                ],
                [
                  -88.017334,
                  41.840773
                ],
                [
                  -88.017336,
                  41.840767
                ],
                [
                  -88.017332,
                  41.840761
                ],
                [
                  -88.017329,
                  41.840759
                ],
                [
                  -88.017323,
                  41.840754
                ],
                [
                  -88.017321,
                  41.840753
                ],
                [
                  -88.017319,
                  41.840752
                ],
                [
                  -88.017302,
                  41.840749
                ],
                [
                  -88.017291,
                  41.84075
                ]
              ]
            },
            "properties": {
              "id": 3,
              "length": 30.51
            }
          },
          {
            "type": "Feature",
            "geometry": {
              "type": "LineString",
              "coordinates": [
                [
                  -88.016444,
                  41.840936
                ],
                [
                  -88.016368,
                  41.840938
                ],
                [
                  -88.016352,
                  41.840939
                ],
                [
                  -88.016262,
                  41.840941
                ]
              ]
            },
            "properties": {
              "id": 4,
              "length": 49.64
            }
          },
          {
            "type": "Feature",
            "geometry": {
              "type": "LineString",
              "coordinates": [
                [
                  -88.017289,
                  41.84034
                ],
                [
                  -88.017301,
                  41.840341
                ],
                [
                  -88.017311,
                  41.84034
                ],
                [
                  -88.017323,
                  41.840337
                ],
                [
                  -88.017334,
                  41.840334
                ],
                [
                  -88.017336,
                  41.840331
                ],
                [
                  -88.017335,
                  41.840324
                ],
                [
                  -88.017333,
                  41.840319
                ],
                [
                  -88.017331,
                  41.840316
                ],
                [
                  -88.017326,
                  41.840315
                ],
                [
                  -88.017319,
                  41.840314
                ],
                [
                  -88.017307,
                  41.840313
                ],
                [
                  -88.017298,
                  41.840314
                ],
                [
                  -88.017292,
                  41.840316
                ],
                [
                  -88.017285,
                  41.840319
                ],
                [
                  -88.017282,
                  41.840322
                ],
                [
                  -88.017281,
                  41.840327
                ],
                [
                  -88.017281,
                  41.84033
                ],
                [
                  -88.017281,
                  41.840334
                ],
                [
                  -88.017282,
                  41.840336
                ],
                [
                  -88.017289,
                  41.84034
                ]
              ]
            },
            "properties": {
              "id": 5,
              "length": 41.64
            }
          },
          {
            "type": "Feature",
            "geometry": {
              "type": "LineString",
              "coordinates": [
                [
                  -88.016262,
                  41.840941
                ],
                [
                  -88.016251,
                  41.840752
                ],
                [
                  -88.016229,
                  41.840335
                ],
                [
                  -88.016493,
                  41.840327
                ],
                [
                  -88.016908,
                  41.840316
                ]
              ]
            },
            "properties": {
              "id": 6,
              "length": 406.19
            }
          },
          {
            "type": "Feature",
            "geometry": {
              "type": "LineString",
              "coordinates": [
                [
                  -88.017269,
                  41.840305
                ],
                [
                  -88.017376,
                  41.840302
                ]
              ]
            },
            "properties": {
              "id": 7,
              "length": 29.18
            }
          },
          {
            "type": "Feature",
            "geometry": {
              "type": "LineString",
              "coordinates": [
                [
                  -88.01716,
                  41.840585
                ],
                [
                  -88.017169,
                  41.840585
                ],
                [
                  -88.017183,
                  41.840586
                ],
                [
                  -88.017193,
                  41.840589
                ],
                [
                  -88.017204,
                  41.840591
                ],
                [
                  -88.017213,
                  41.840592
                ],
                [
                  -88.017223,
                  41.840593
                ],
                [
                  -88.017234,
                  41.840594
                ],
                [
                  -88.017246,
                  41.840592
                ],
                [
                  -88.017257,
                  41.840588
                ],
                [
                  -88.017266,
                  41.840581
                ],
                [
                  -88.017271,
                  41.840565
                ],
                [
                  -88.01727,
                  41.840556
                ],
                [
                  -88.017262,
                  41.840552
                ],
                [
                  -88.017249,
                  41.840549
                ],
                [
                  -88.017238,
                  41.840549
                ],
                [
                  -88.017228,
                  41.84055
                ],
                [
                  -88.017219,
                  41.840553
                ],
                [
                  -88.017211,
                  41.840554
                ],
                [
                  -88.017195,
                  41.840553
                ],
                [
                  -88.017174,
                  41.840552
                ],
                [
                  -88.017164,
                  41.840552
                ],
                [
                  -88.017158,
                  41.840554
                ],
                [
                  -88.017154,
                  41.840556
                ],
                [
                  -88.017152,
                  41.84056
                ],
                [
                  -88.01715,
                  41.840565
                ],
                [
                  -88.017148,
                  41.84057
                ],
                [
                  -88.017148,
                  41.840574
                ],
                [
                  -88.01715,
                  41.840577
                ],
                [
                  -88.017152,
                  41.840581
                ],
                [
                  -88.01716,
                  41.840585
                ]
              ]
            },
            "properties": {
              "id": 8,
              "length": 85.18
            }
          }
        ]
      }
    }
  ],
  "input": {
    "id": "bd0eccc7-0fd9-47cf-92fd-1ff595dd88b9",
    "address": "11 Eisenhower Lane South, Lombard, IL, USA",
    "aoi_geojson": {
      "type": "FeatureCollection",
      "features": [
        {
          "type": "Feature",
          "geometry": {
            "type": "Polygon",
            "coordinates": [
              [
                [
                  -88.017364,
                  41.840305
                ],
                [
                  -88.017359,
                  41.840346
                ],
                [
                  -88.017358,
                  41.840387
                ],
                [
                  -88.017383,
                  41.840895
                ],
                [
                  -88.016261,
                  41.840925
                ],
                [
                  -88.01623,
                  41.840335
                ],
                [
                  -88.017364,
                  41.840305
                ]
              ]
            ]
          },
          "properties": {}
        }
      ]
    },
    "parcel_area": 68422,
    "name": "Parcel",
    "lat": null,
    "lon": null,
    "is_edited": false
  },
  "status": 3,
  "additional_seconds": 0,
  "eta": 3564.86,
  "initial_eta": 3564.86,
  "completed_at": "2021-04-20T21:52:39.640084+05:30",
  "generated_at": "2021-04-20T20:58:50.823162+05:30",
  "created_at": "2021-04-20T20:58:45.476597+05:30",
  "is_eta_update": false,
  "feature_report": {
    "id": "56588128-8f09-47f2-97f5-4fb3f0251c83",
    "name": "Advanced Landscaping Report",
    "description": "Includes all property-features. The most comprehensive report for any property.",
    "features": [
      {
        "id": "73ddf02e-a068-45f7-a2a1-77c9ec207a3c",
        "name": "Lawn",
        "identifier": "lawn"
      },
      {
        "id": "179e99fd-b756-4e2d-a8e6-acb09f6f4807",
        "name": "Pavement",
        "identifier": "pavement"
      },
      {
        "id": "df73cc66-4d50-445e-a906-70b6e7bfc189",
        "name": "Sidewalk",
        "identifier": "sidewalk"
      },
      {
        "id": "c51a1b40-95d5-4dcc-80c4-41043c3cbf3e",
        "name": "Driveway",
        "identifier": "driveway"
      },
      {
        "id": "7b7dc0e2-9622-4bd3-b7f4-c99d47f3d560",
        "name": "Parking Spot",
        "identifier": "parking_spot"
      },
      {
        "id": "a774a2f1-b6ac-4802-90cf-c3e21d93fa6e",
        "name": "Hedge",
        "identifier": "hedge"
      },
      {
        "id": "8aa6d1a9-2b88-47c3-a0c3-8af988c831e2",
        "name": "Tree",
        "identifier": "tree"
      },
      {
        "id": "49d3af3d-f7cd-43d0-a8d1-293eadc92f88",
        "name": "Hard Edge",
        "identifier": "hard_edge"
      },
      {
        "id": "726fed81-2c9a-46aa-a8c1-612c5a5f693d",
        "name": "Soft Edge",
        "identifier": "soft_edge"
      },
      {
        "id": "113e8390-fc4b-4ca8-a03b-223db2a55c01",
        "name": "Mulch Bed",
        "identifier": "mulch_bed"
      },
      {
        "id": "117e842d-849e-4a1c-90b4-88de50122971",
        "name": "Gravel Bed",
        "identifier": "gravel_bed"
      },
      {
        "id": "f70c4b1b-f806-46f8-a239-6cb6290e1e75",
        "name": "Road",
        "identifier": "road"
      }
    ],
    "attributes": {
      "id": "ecc0ce78-bdfc-41cd-9680-5891ad7f6f78",
      "min_threshold_price": 0.98,
      "max_threshold_price": 0.53,
      "first_range_price": 0.81,
      "second_range_price": 0.68,
      "min_threshold_area": 50000,
      "mid_threshold_area": 200000,
      "max_threshold_area": 1000000,
      "feature_report_definition": null,
      "average_time": 2400,
      "average_time_exceed": 1440,
      "pdf_sample": "https://storage.googleapis.com/falcon-prod-filestore/prod/pdf_samples/2021_4_20/ADVANCED_LANDSCAPING_REPORT.pdf",
      "excel_sample": "https://storage.googleapis.com/falcon-prod-filestore/prod/excel_samples/2021_4_20/Advanced_Landscaping_Report___Sample.xlsx",
      "order": 4,
      "is_default": false
    }
  },
  "job_id_map": {
    "ml_process": {
      "FalconHardscape": "df3069ea-221d-4b4b-8aee-dae7ed6df319"
    },
    "qa_process": "db1a453d-bcff-4ff6-8147-5d2f542f4ea9",
    "qc_process": "ec8bcb54-8de2-452e-b769-7c7c99256762",
    "lawn_edge_qa_process": "8aaf67e0-3b9d-4d06-a0fa-a4552e0c5bba",
    "lawn_edge_qc_process": "27a8043f-b115-4c27-93b2-5fe2d6e509dc",
    "imagery_fetching_process": "2b88cfa5-1e8f-40a9-b9e2-9a488b800bce",
    "parcel_correction_process": "e3ddef7f-f05f-4a5f-a593-8c2c7269f34e",
    "parcel_correction_qa_process": "3a69f9c8-524c-441a-ab77-da110cdb16ea"
  },
  "tiff_url": "https://storage.googleapis.com/autofx-outputs/ImageryFetchingProcessV3/2b88cfa5-1e8f-40a9-b9e2-9a488b800bce/output_tiff.tif",
  "feedback": {},
  "is_sample": false,
  "shareable_link": "",
  "features": [
    {
      "id": "73ddf02e-a068-45f7-a2a1-77c9ec207a3c",
      "name": "Lawn",
      "identifier": "lawn"
    },
    {
      "id": "179e99fd-b756-4e2d-a8e6-acb09f6f4807",
      "name": "Pavement",
      "identifier": "pavement"
    },
    {
      "id": "df73cc66-4d50-445e-a906-70b6e7bfc189",
      "name": "Sidewalk",
      "identifier": "sidewalk"
    },
    {
      "id": "7b7dc0e2-9622-4bd3-b7f4-c99d47f3d560",
      "name": "Parking Spot",
      "identifier": "parking_spot"
    },
    {
      "id": "95f4b6ba-519c-42fe-ac9c-30a02773baf1",
      "name": "Drivable Area",
      "identifier": "drivable_area"
    },
    {
      "id": "a362e15f-ee52-473a-8b9e-425974275744",
      "name": "Beds",
      "identifier": "beds"
    },
    {
      "id": "a774a2f1-b6ac-4802-90cf-c3e21d93fa6e",
      "name": "Hedge",
      "identifier": "hedge"
    },
    {
      "id": "8aa6d1a9-2b88-47c3-a0c3-8af988c831e2",
      "name": "Tree",
      "identifier": "tree"
    },
    {
      "id": "49d3af3d-f7cd-43d0-a8d1-293eadc92f88",
      "name": "Hard Edge",
      "identifier": "hard_edge"
    },
    {
      "id": "726fed81-2c9a-46aa-a8c1-612c5a5f693d",
      "name": "Soft Edge",
      "identifier": "soft_edge"
    }
  ]
}