{
  "id": "8e1879af-ad04-4c51-b64e-7974922a2f65",
  "outputs": [
    {
      "id": "9825f360-6e5e-4a08-8e28-9073a4de3e2f",
      "feature": {
        "id": "73ddf02e-a068-45f7-a2a1-77c9ec207a3c",
        "name": "Lawn",
        "geometry_type": 3,
        "is_custom": false
      },
      "style": {
        "color": "#2DCA73",
        "width": 1,
        "opacity": 0.2,
        "is_visible": true,
        "layer_order": 1
      },
      "measurements": [
        {
          "name": "area",
          "value": 1734,
          "unit": "sqft"
        },
        {
          "name": "perimeter",
          "value": 288,
          "unit": "ft"
        }
      ],
      "output_geojson": {
        "type": "FeatureCollection",
        "features": [
          {
            "type": "Feature",
            "geometry": {
              "type": "Polygon",
              "coordinates": [
                [
                  [
                    -118.26595,
                    34.052614
                  ],
                  [
                    -118.265965,
                    34.052621
                  ],
                  [
                    -118.265944,
                    34.052654
                  ],
                  [
                    -118.265898,
                    34.052633
                  ],
                  [
                    -118.265918,
                    34.0526
                  ],
                  [
                    -118.26595,
                    34.052614
                  ]
                ]
              ]
            },
            "properties": {
              "id": 1,
              "area": 217.39,
              "perimeter": 59.1
            }
          },
          {
            "type": "Feature",
            "geometry": {
              "type": "Polygon",
              "coordinates": [
                [
                  [
                    -118.266744,
                    34.053524
                  ],
                  [
                    -118.266689,
                    34.053496
                  ],
                  [
                    -118.266748,
                    34.053409
                  ],
                  [
                    -118.266805,
                    34.053437
                  ],
                  [
                    -118.266744,
                    34.053524
                  ]
                ]
              ]
            },
            "properties": {
              "id": 2,
              "area": 722.27,
              "perimeter": 112.6
            }
          },
          {
            "type": "Feature",
            "geometry": {
              "type": "Polygon",
              "coordinates": [
                [
                  [
                    -118.266734,
                    34.053537
                  ],
                  [
                    -118.266676,
                    34.053621
                  ],
                  [
                    -118.266609,
                    34.053596
                  ],
                  [
                    -118.266671,
                    34.053508
                  ],
                  [
                    -118.266734,
                    34.053537
                  ]
                ]
              ]
            },
            "properties": {
              "id": 3,
              "area": 794.8,
              "perimeter": 116.44
            }
          }
        ]
      }
    }
  ],
  "input": {
    "id": "fe486db5-772d-4b06-ab74-1159f83acc22",
    "address": "1234 Wilshire Boulevard, Los Angeles, CA, USA",
    "aoi_geojson": {
      "type": "FeatureCollection",
      "features": [
        {
          "type": "Feature",
          "geometry": {
            "type": "Polygon",
            "coordinates": [
              [
                [
                  -118.265823,
                  34.052557
                ],
                [
                  -118.26655,
                  34.052885
                ],
                [
                  -118.266345,
                  34.053199
                ],
                [
                  -118.266762,
                  34.053387
                ],
                [
                  -118.266637,
                  34.053579
                ],
                [
                  -118.266632,
                  34.053586
                ],
                [
                  -118.266625,
                  34.053592
                ],
                [
                  -118.266617,
                  34.053598
                ],
                [
                  -118.266608,
                  34.053602
                ],
                [
                  -118.266598,
                  34.053605
                ],
                [
                  -118.266588,
                  34.053607
                ],
                [
                  -118.266578,
                  34.053607
                ],
                [
                  -118.266567,
                  34.053606
                ],
                [
                  -118.266557,
                  34.053604
                ],
                [
                  -118.266548,
                  34.053601
                ],
                [
                  -118.265466,
                  34.053111
                ],
                [
                  -118.265823,
                  34.052557
                ]
              ]
            ]
          },
          "properties": {}
        }
      ]
    },
    "parcel_area": 84972,
    "name": "Parcel",
    "lat": null,
    "lon": null,
    "is_edited": false
  },
  "status": 3,
  "additional_seconds": 0,
  "eta": 60.0,
  "initial_eta": 60.0,
  "completed_at": null,
  "generated_at": null,
  "created_at": "2021-02-10T15:20:32.561624+05:30",
  "is_eta_update": false,
  "feature_report": {
    "id": "17854716-6609-4797-aeda-14490ab3c5e0",
    "name": "Lawn Report",
    "description": "Lawn measurement, ideal for all properties.",
    "features": [
      {
        "id": "73ddf02e-a068-45f7-a2a1-77c9ec207a3c",
        "name": "Lawn",
        "identifier": "lawn"
      }
    ],
    "attributes": {
      "id": "71a8d434-5427-4366-9aef-91306e0ad796",
      "min_threshold_price": 0.2,
      "max_threshold_price": 0.12,
      "first_range_price": 0.17,
      "second_range_price": 0.14,
      "min_threshold_area": 50000,
      "mid_threshold_area": 200000,
      "max_threshold_area": 1000000,
      "feature_report_definition": null,
      "average_time": 720,
      "average_time_exceed": 360,
      "pdf_sample": "https://storage.googleapis.com/falcon-prod-filestore/prod/pdf_samples/2021_4_20/LAWN_REPORT.pdf",
      "excel_sample": "https://storage.googleapis.com/falcon-prod-filestore/prod/excel_samples/2021_4_20/Lawn_Report___Sample_2.xlsx",
      "order": 1,
      "is_default": false
    }
  },
  "job_id_map": {},
  "tiff_url": null,
  "feedback": {},
  "is_sample": false,
  "shareable_link": "",
  "features": [
    {
      "id": "73ddf02e-a068-45f7-a2a1-77c9ec207a3c",
      "name": "Lawn",
      "identifier": "lawn"
    }
  ]
}