{
  "id": "9103819e-cdb1-4f4f-bd97-fbc7ff81ba62",
  "outputs": [
    {
      "id": "6650b090-639a-4e1c-bc85-798cfb2c098f",
      "feature": {
        "id": "c51a1b40-95d5-4dcc-80c4-41043c3cbf3e",
        "name": "Driveway",
        "geometry_type": 3,
        "is_custom": false
      },
      "style": {
        "color": "#7551E9",
        "width": 1,
        "opacity": 0.2,
        "is_visible": true,
        "layer_order": 1
      },
      "measurements": [
        {
          "name": "area",
          "value": 0,
          "unit": "sqft"
        },
        {
          "name": "perimeter",
          "value": 0,
          "unit": "ft"
        }
      ],
      "output_geojson": {
        "type": "FeatureCollection",
        "features": []
      }
    },
    {
      "id": "3dbca5af-441e-4333-bd3e-d4a80182e876",
      "feature": {
        "id": "7b7dc0e2-9622-4bd3-b7f4-c99d47f3d560",
        "name": "Parking Spot",
        "geometry_type": 3,
        "is_custom": false
      },
      "style": {
        "color": "#D44E74",
        "width": 1,
        "opacity": 0.2,
        "is_visible": true,
        "layer_order": 1
      },
      "measurements": [
        {
          "name": "area",
          "value": 120090,
          "unit": "sqft"
        },
        {
          "name": "perimeter",
          "value": 9368,
          "unit": "ft"
        }
      ],
      "output_geojson": {
        "type": "FeatureCollection",
        "features": [
          {
            "type": "Feature",
            "geometry": {
              "type": "Polygon",
              "coordinates": [
                [
                  [
                    -84.530997,
                    39.103757
                  ],
                  [
                    -84.531006,
                    39.103707
                  ],
                  [
                    -84.53161,
                    39.103756
                  ],
                  [
                    -84.531603,
                    39.103781
                  ],
                  [
                    -84.531576,
                    39.103815
                  ],
                  [
                    -84.531007,
                    39.103775
                  ],
                  [
                    -84.530997,
                    39.103757
                  ]
                ]
              ]
            },
            "properties": {
              "id": 1,
              "area": 3982.35,
              "perimeter": 383.91
            }
          },
          {
            "type": "Feature",
            "geometry": {
              "type": "Polygon",
              "coordinates": [
                [
                  [
                    -84.530532,
                    39.103924
                  ],
                  [
                    -84.530401,
                    39.103915
                  ],
                  [
                    -84.530388,
                    39.103797
                  ],
                  [
                    -84.530547,
                    39.103795
                  ],
                  [
                    -84.530532,
                    39.103924
                  ]
                ]
              ]
            },
            "properties": {
              "id": 2,
              "area": 1851.39,
              "perimeter": 172.77
            }
          },
          {
            "type": "Feature",
            "geometry": {
              "type": "Polygon",
              "coordinates": [
                [
                  [
                    -84.53017,
                    39.104788
                  ],
                  [
                    -84.530173,
                    39.104788
                  ],
                  [
                    -84.530169,
                    39.104785
                  ],
                  [
                    -84.530299,
                    39.103662
                  ],
                  [
                    -84.530545,
                    39.103686
                  ],
                  [
                    -84.530543,
                    39.103709
                  ],
                  [
                    -84.530532,
                    39.103742
                  ],
                  [
                    -84.530353,
                    39.10373
                  ],
                  [
                    -84.530259,
                    39.104789
                  ],
                  [
                    -84.53051,
                    39.104944
                  ],
                  [
                    -84.53048,
                    39.104993
                  ],
                  [
                    -84.530185,
                    39.104822
                  ],
                  [
                    -84.53017,
                    39.104788
                  ]
                ]
              ]
            },
            "properties": {
              "id": 3,
              "area": 12071.7,
              "perimeter": 1170.08
            }
          },
          {
            "type": "Feature",
            "geometry": {
              "type": "Polygon",
              "coordinates": [
                [
                  [
                    -84.530455,
                    39.10393
                  ],
                  [
                    -84.530393,
                    39.104798
                  ],
                  [
                    -84.530299,
                    39.104797
                  ],
                  [
                    -84.530376,
                    39.103924
                  ],
                  [
                    -84.530455,
                    39.10393
                  ]
                ]
              ]
            },
            "properties": {
              "id": 4,
              "area": 7808.39,
              "perimeter": 684.6
            }
          },
          {
            "type": "Feature",
            "geometry": {
              "type": "Polygon",
              "coordinates": [
                [
                  [
                    -84.531654,
                    39.104743
                  ],
                  [
                    -84.532445,
                    39.104812
                  ],
                  [
                    -84.532445,
                    39.104868
                  ],
                  [
                    -84.532199,
                    39.10485
                  ],
                  [
                    -84.532182,
                    39.10492
                  ],
                  [
                    -84.532284,
                    39.104924
                  ],
                  [
                    -84.532172,
                    39.105289
                  ],
                  [
                    -84.532105,
                    39.105278
                  ],
                  [
                    -84.532046,
                    39.105457
                  ],
                  [
                    -84.531971,
                    39.105455
                  ],
                  [
                    -84.531937,
                    39.105551
                  ],
                  [
                    -84.531862,
                    39.105544
                  ],
                  [
                    -84.532005,
                    39.104836
                  ],
                  [
                    -84.531654,
                    39.10481
                  ],
                  [
                    -84.531654,
                    39.104743
                  ]
                ]
              ]
            },
            "properties": {
              "id": 5,
              "area": 20981.42,
              "perimeter": 1059.33
            }
          },
          {
            "type": "Feature",
            "geometry": {
              "type": "Polygon",
              "coordinates": [
                [
                  [
                    -84.531805,
                    39.105449
                  ],
                  [
                    -84.531706,
                    39.105438
                  ],
                  [
                    -84.531785,
                    39.104822
                  ],
                  [
                    -84.531889,
                    39.104833
                  ],
                  [
                    -84.531805,
                    39.105449
                  ]
                ]
              ]
            },
            "properties": {
              "id": 6,
              "area": 6555.43,
              "perimeter": 509.3
            }
          },
          {
            "type": "Feature",
            "geometry": {
              "type": "Polygon",
              "coordinates": [
                [
                  [
                    -84.531435,
                    39.105105
                  ],
                  [
                    -84.531425,
                    39.105203
                  ],
                  [
                    -84.531095,
                    39.105182
                  ],
                  [
                    -84.531078,
                    39.105093
                  ],
                  [
                    -84.531435,
                    39.105105
                  ]
                ]
              ]
            },
            "properties": {
              "id": 7,
              "area": 3313.81,
              "perimeter": 263.96
            }
          },
          {
            "type": "Feature",
            "geometry": {
              "type": "Polygon",
              "coordinates": [
                [
                  [
                    -84.531093,
                    39.105176
                  ],
                  [
                    -84.53109,
                    39.105166
                  ],
                  [
                    -84.531092,
                    39.105172
                  ],
                  [
                    -84.531093,
                    39.105176
                  ]
                ]
              ]
            },
            "properties": {
              "id": 8,
              "area": 0.1,
              "perimeter": 7.48
            }
          },
          {
            "type": "Feature",
            "geometry": {
              "type": "Polygon",
              "coordinates": [
                [
                  [
                    -84.530819,
                    39.105108
                  ],
                  [
                    -84.530823,
                    39.105078
                  ],
                  [
                    -84.530827,
                    39.105083
                  ],
                  [
                    -84.53143,
                    39.105472
                  ],
                  [
                    -84.53142,
                    39.10559
                  ],
                  [
                    -84.530773,
                    39.105168
                  ],
                  [
                    -84.530819,
                    39.105108
                  ]
                ]
              ]
            },
            "properties": {
              "id": 9,
              "area": 7871.04,
              "perimeter": 543.31
            }
          },
          {
            "type": "Feature",
            "geometry": {
              "type": "Polygon",
              "coordinates": [
                [
                  [
                    -84.531408,
                    39.104136
                  ],
                  [
                    -84.531152,
                    39.104126
                  ],
                  [
                    -84.531138,
                    39.104059
                  ],
                  [
                    -84.5312,
                    39.104059
                  ],
                  [
                    -84.531195,
                    39.104007
                  ],
                  [
                    -84.531386,
                    39.104021
                  ],
                  [
                    -84.531383,
                    39.104074
                  ],
                  [
                    -84.531403,
                    39.10408
                  ],
                  [
                    -84.531408,
                    39.104136
                  ]
                ]
              ]
            },
            "properties": {
              "id": 10,
              "area": 2762.61,
              "perimeter": 234.36
            }
          },
          {
            "type": "Feature",
            "geometry": {
              "type": "Polygon",
              "coordinates": [
                [
                  [
                    -84.531497,
                    39.104644
                  ],
                  [
                    -84.530956,
                    39.104648
                  ],
                  [
                    -84.530959,
                    39.104565
                  ],
                  [
                    -84.53149,
                    39.104565
                  ],
                  [
                    -84.531497,
                    39.104644
                  ]
                ]
              ]
            },
            "properties": {
              "id": 11,
              "area": 4488.12,
              "perimeter": 363.33
            }
          },
          {
            "type": "Feature",
            "geometry": {
              "type": "Polygon",
              "coordinates": [
                [
                  [
                    -84.531033,
                    39.103895
                  ],
                  [
                    -84.531026,
                    39.103832
                  ],
                  [
                    -84.531532,
                    39.103868
                  ],
                  [
                    -84.53152,
                    39.103911
                  ],
                  [
                    -84.531033,
                    39.103895
                  ]
                ]
              ]
            },
            "properties": {
              "id": 12,
              "area": 2726.75,
              "perimeter": 321.6
            }
          },
          {
            "type": "Feature",
            "geometry": {
              "type": "Polygon",
              "coordinates": [
                [
                  [
                    -84.531463,
                    39.103992
                  ],
                  [
                    -84.531095,
                    39.103961
                  ],
                  [
                    -84.531098,
                    39.103907
                  ],
                  [
                    -84.531473,
                    39.10393
                  ],
                  [
                    -84.531463,
                    39.103992
                  ]
                ]
              ]
            },
            "properties": {
              "id": 13,
              "area": 2245.37,
              "perimeter": 254.25
            }
          },
          {
            "type": "Feature",
            "geometry": {
              "type": "Polygon",
              "coordinates": [
                [
                  [
                    -84.531552,
                    39.104242
                  ],
                  [
                    -84.531471,
                    39.104225
                  ],
                  [
                    -84.531475,
                    39.104242
                  ],
                  [
                    -84.53145,
                    39.104273
                  ],
                  [
                    -84.531068,
                    39.104281
                  ],
                  [
                    -84.531076,
                    39.104155
                  ],
                  [
                    -84.53146,
                    39.104177
                  ],
                  [
                    -84.53147,
                    39.104221
                  ],
                  [
                    -84.531482,
                    39.103911
                  ],
                  [
                    -84.531579,
                    39.103919
                  ],
                  [
                    -84.531552,
                    39.104242
                  ]
                ]
              ]
            },
            "properties": {
              "id": 14,
              "area": 7481.57,
              "perimeter": 581.95
            }
          },
          {
            "type": "Feature",
            "geometry": {
              "type": "Polygon",
              "coordinates": [
                [
                  [
                    -84.531645,
                    39.104701
                  ],
                  [
                    -84.531651,
                    39.104642
                  ],
                  [
                    -84.531574,
                    39.104638
                  ],
                  [
                    -84.53167,
                    39.103833
                  ],
                  [
                    -84.531693,
                    39.103819
                  ],
                  [
                    -84.531693,
                    39.103822
                  ],
                  [
                    -84.53175,
                    39.103826
                  ],
                  [
                    -84.531661,
                    39.104635
                  ],
                  [
                    -84.532667,
                    39.104695
                  ],
                  [
                    -84.532619,
                    39.104816
                  ],
                  [
                    -84.532505,
                    39.105064
                  ],
                  [
                    -84.532346,
                    39.105315
                  ],
                  [
                    -84.532197,
                    39.105472
                  ],
                  [
                    -84.531974,
                    39.105719
                  ],
                  [
                    -84.531594,
                    39.105686
                  ],
                  [
                    -84.531614,
                    39.105588
                  ],
                  [
                    -84.531941,
                    39.105619
                  ],
                  [
                    -84.5322,
                    39.105341
                  ],
                  [
                    -84.532423,
                    39.105012
                  ],
                  [
                    -84.532542,
                    39.10476
                  ],
                  [
                    -84.531645,
                    39.104701
                  ]
                ]
              ]
            },
            "properties": {
              "id": 15,
              "area": 28755.5,
              "perimeter": 2222.89
            }
          },
          {
            "type": "Feature",
            "geometry": {
              "type": "Polygon",
              "coordinates": [
                [
                  [
                    -84.531654,
                    39.105565
                  ],
                  [
                    -84.531562,
                    39.105557
                  ],
                  [
                    -84.531678,
                    39.104822
                  ],
                  [
                    -84.531773,
                    39.104825
                  ],
                  [
                    -84.531654,
                    39.105565
                  ]
                ]
              ]
            },
            "properties": {
              "id": 16,
              "area": 7194.42,
              "perimeter": 594.65
            }
          }
        ]
      }
    },
    {
      "id": "c3a31228-0c38-4dae-af91-bddd3758bfc2",
      "feature": {
        "id": "9145e50f-6132-4c70-ad46-05f969cb358f",
        "name": "Drivelane",
        "geometry_type": 3,
        "is_custom": false
      },
      "style": {
        "color": "#07D2E8",
        "width": 1,
        "opacity": 0.2,
        "is_visible": true,
        "layer_order": 1
      },
      "measurements": [
        {
          "name": "area",
          "value": 110928,
          "unit": "sqft"
        },
        {
          "name": "perimeter",
          "value": 7713,
          "unit": "ft"
        }
      ],
      "output_geojson": {
        "type": "FeatureCollection",
        "features": [
          {
            "type": "Feature",
            "geometry": {
              "type": "Polygon",
              "coordinates": [
                [
                  [
                    -84.531496,
                    39.105646
                  ],
                  [
                    -84.53142,
                    39.105587
                  ],
                  [
                    -84.53143,
                    39.105472
                  ],
                  [
                    -84.531422,
                    39.105467
                  ],
                  [
                    -84.531422,
                    39.1054
                  ],
                  [
                    -84.531421,
                    39.105279
                  ],
                  [
                    -84.531422,
                    39.105467
                  ],
                  [
                    -84.530827,
                    39.105083
                  ],
                  [
                    -84.530823,
                    39.105078
                  ],
                  [
                    -84.530822,
                    39.105086
                  ],
                  [
                    -84.530821,
                    39.105085
                  ],
                  [
                    -84.530817,
                    39.10505
                  ],
                  [
                    -84.530614,
                    39.105034
                  ],
                  [
                    -84.530566,
                    39.105048
                  ],
                  [
                    -84.530478,
                    39.104994
                  ],
                  [
                    -84.530479,
                    39.104992
                  ],
                  [
                    -84.53048,
                    39.104993
                  ],
                  [
                    -84.53051,
                    39.104944
                  ],
                  [
                    -84.530259,
                    39.104789
                  ],
                  [
                    -84.530349,
                    39.10378
                  ],
                  [
                    -84.530355,
                    39.10373
                  ],
                  [
                    -84.530382,
                    39.103732
                  ],
                  [
                    -84.530519,
                    39.103747
                  ],
                  [
                    -84.53053,
                    39.103742
                  ],
                  [
                    -84.530532,
                    39.103742
                  ],
                  [
                    -84.530532,
                    39.103741
                  ],
                  [
                    -84.530534,
                    39.10374
                  ],
                  [
                    -84.530545,
                    39.103705
                  ],
                  [
                    -84.530557,
                    39.103681
                  ],
                  [
                    -84.530568,
                    39.103636
                  ],
                  [
                    -84.530648,
                    39.103642
                  ],
                  [
                    -84.530639,
                    39.103693
                  ],
                  [
                    -84.530644,
                    39.103723
                  ],
                  [
                    -84.530997,
                    39.103754
                  ],
                  [
                    -84.530997,
                    39.103757
                  ],
                  [
                    -84.531007,
                    39.103775
                  ],
                  [
                    -84.531576,
                    39.103815
                  ],
                  [
                    -84.531578,
                    39.103812
                  ],
                  [
                    -84.53158,
                    39.103812
                  ],
                  [
                    -84.531584,
                    39.103805
                  ],
                  [
                    -84.531603,
                    39.103781
                  ],
                  [
                    -84.531609,
                    39.103761
                  ],
                  [
                    -84.531621,
                    39.103739
                  ],
                  [
                    -84.531708,
                    39.10375
                  ],
                  [
                    -84.531705,
                    39.103822
                  ],
                  [
                    -84.531703,
                    39.103823
                  ],
                  [
                    -84.531693,
                    39.103822
                  ],
                  [
                    -84.531693,
                    39.103819
                  ],
                  [
                    -84.53167,
                    39.103833
                  ],
                  [
                    -84.531574,
                    39.104638
                  ],
                  [
                    -84.531651,
                    39.104642
                  ],
                  [
                    -84.531645,
                    39.104701
                  ],
                  [
                    -84.531656,
                    39.104702
                  ],
                  [
                    -84.531659,
                    39.104743
                  ],
                  [
                    -84.531654,
                    39.104743
                  ],
                  [
                    -84.531654,
                    39.10481
                  ],
                  [
                    -84.531666,
                    39.104811
                  ],
                  [
                    -84.53169,
                    39.104822
                  ],
                  [
                    -84.531678,
                    39.104822
                  ],
                  [
                    -84.531563,
                    39.10555
                  ],
                  [
                    -84.531527,
                    39.105548
                  ],
                  [
                    -84.531508,
                    39.105571
                  ],
                  [
                    -84.531496,
                    39.105646
                  ]
                ],
                [
                  [
                    -84.53147,
                    39.104973
                  ],
                  [
                    -84.531477,
                    39.104964
                  ],
                  [
                    -84.531502,
                    39.104769
                  ],
                  [
                    -84.531503,
                    39.104768
                  ],
                  [
                    -84.531509,
                    39.104768
                  ],
                  [
                    -84.531511,
                    39.104758
                  ],
                  [
                    -84.531517,
                    39.104751
                  ],
                  [
                    -84.531508,
                    39.104719
                  ],
                  [
                    -84.531235,
                    39.104706
                  ],
                  [
                    -84.531005,
                    39.104695
                  ],
                  [
                    -84.530986,
                    39.104695
                  ],
                  [
                    -84.530926,
                    39.104692
                  ],
                  [
                    -84.53093,
                    39.104642
                  ],
                  [
                    -84.530956,
                    39.104642
                  ],
                  [
                    -84.530956,
                    39.104648
                  ],
                  [
                    -84.531497,
                    39.104644
                  ],
                  [
                    -84.531497,
                    39.104639
                  ],
                  [
                    -84.5315,
                    39.104639
                  ],
                  [
                    -84.531494,
                    39.104608
                  ],
                  [
                    -84.53149,
                    39.104565
                  ],
                  [
                    -84.530959,
                    39.104565
                  ],
                  [
                    -84.530959,
                    39.104572
                  ],
                  [
                    -84.530936,
                    39.104561
                  ],
                  [
                    -84.530947,
                    39.104437
                  ],
                  [
                    -84.531192,
                    39.104457
                  ],
                  [
                    -84.531198,
                    39.104338
                  ],
                  [
                    -84.531192,
                    39.10433
                  ],
                  [
                    -84.531049,
                    39.104326
                  ],
                  [
                    -84.53106,
                    39.104265
                  ],
                  [
                    -84.531069,
                    39.104265
                  ],
                  [
                    -84.531068,
                    39.104281
                  ],
                  [
                    -84.53145,
                    39.104273
                  ],
                  [
                    -84.531475,
                    39.104242
                  ],
                  [
                    -84.531474,
                    39.104238
                  ],
                  [
                    -84.531477,
                    39.104235
                  ],
                  [
                    -84.531506,
                    39.104232
                  ],
                  [
                    -84.531552,
                    39.104242
                  ],
                  [
                    -84.531579,
                    39.103919
                  ],
                  [
                    -84.531518,
                    39.103914
                  ],
                  [
                    -84.531519,
                    39.103911
                  ],
                  [
                    -84.53152,
                    39.103911
                  ],
                  [
                    -84.531532,
                    39.103868
                  ],
                  [
                    -84.531027,
                    39.103832
                  ],
                  [
                    -84.531019,
                    39.103817
                  ],
                  [
                    -84.530638,
                    39.103805
                  ],
                  [
                    -84.530636,
                    39.103915
                  ],
                  [
                    -84.530534,
                    39.103917
                  ],
                  [
                    -84.530537,
                    39.10388
                  ],
                  [
                    -84.530547,
                    39.103795
                  ],
                  [
                    -84.530388,
                    39.103797
                  ],
                  [
                    -84.530401,
                    39.103915
                  ],
                  [
                    -84.53041,
                    39.103916
                  ],
                  [
                    -84.530411,
                    39.103927
                  ],
                  [
                    -84.530376,
                    39.103924
                  ],
                  [
                    -84.530299,
                    39.104797
                  ],
                  [
                    -84.530393,
                    39.104798
                  ],
                  [
                    -84.530394,
                    39.104785
                  ],
                  [
                    -84.530665,
                    39.104806
                  ],
                  [
                    -84.530655,
                    39.104937
                  ],
                  [
                    -84.530899,
                    39.10494
                  ],
                  [
                    -84.530899,
                    39.104964
                  ],
                  [
                    -84.530904,
                    39.104964
                  ],
                  [
                    -84.530904,
                    39.104971
                  ],
                  [
                    -84.530994,
                    39.104973
                  ],
                  [
                    -84.530994,
                    39.104969
                  ],
                  [
                    -84.531001,
                    39.10497
                  ],
                  [
                    -84.531001,
                    39.104973
                  ],
                  [
                    -84.531207,
                    39.104986
                  ],
                  [
                    -84.53131,
                    39.104987
                  ],
                  [
                    -84.531465,
                    39.104998
                  ],
                  [
                    -84.53147,
                    39.104973
                  ]
                ],
                [
                  [
                    -84.531435,
                    39.105105
                  ],
                  [
                    -84.531078,
                    39.105093
                  ],
                  [
                    -84.531095,
                    39.105182
                  ],
                  [
                    -84.531425,
                    39.105203
                  ],
                  [
                    -84.531435,
                    39.105105
                  ]
                ],
                [
                  [
                    -84.531093,
                    39.105176
                  ],
                  [
                    -84.531092,
                    39.105172
                  ],
                  [
                    -84.53109,
                    39.105166
                  ],
                  [
                    -84.531093,
                    39.105176
                  ]
                ]
              ]
            },
            "properties": {
              "id": 1,
              "area": 79212.01,
              "perimeter": 4917.48
            }
          },
          {
            "type": "Feature",
            "geometry": {
              "type": "Polygon",
              "coordinates": [
                [
                  [
                    -84.531465,
                    39.103981
                  ],
                  [
                    -84.531472,
                    39.103981
                  ],
                  [
                    -84.531475,
                    39.104079
                  ],
                  [
                    -84.531472,
                    39.104181
                  ],
                  [
                    -84.531461,
                    39.10418
                  ],
                  [
                    -84.53146,
                    39.104177
                  ],
                  [
                    -84.531093,
                    39.104156
                  ],
                  [
                    -84.530956,
                    39.104147
                  ],
                  [
                    -84.530968,
                    39.104075
                  ],
                  [
                    -84.531001,
                    39.104075
                  ],
                  [
                    -84.531011,
                    39.103891
                  ],
                  [
                    -84.531033,
                    39.103891
                  ],
                  [
                    -84.531033,
                    39.103895
                  ],
                  [
                    -84.531103,
                    39.103897
                  ],
                  [
                    -84.531101,
                    39.103907
                  ],
                  [
                    -84.531098,
                    39.103907
                  ],
                  [
                    -84.531095,
                    39.103961
                  ],
                  [
                    -84.531463,
                    39.103992
                  ],
                  [
                    -84.531465,
                    39.103981
                  ]
                ],
                [
                  [
                    -84.531401,
                    39.104144
                  ],
                  [
                    -84.531401,
                    39.104136
                  ],
                  [
                    -84.531408,
                    39.104136
                  ],
                  [
                    -84.531403,
                    39.10408
                  ],
                  [
                    -84.531398,
                    39.104079
                  ],
                  [
                    -84.531396,
                    39.104023
                  ],
                  [
                    -84.531386,
                    39.104023
                  ],
                  [
                    -84.531386,
                    39.104021
                  ],
                  [
                    -84.531195,
                    39.104007
                  ],
                  [
                    -84.5312,
                    39.104059
                  ],
                  [
                    -84.531138,
                    39.104059
                  ],
                  [
                    -84.53115,
                    39.104117
                  ],
                  [
                    -84.531149,
                    39.104129
                  ],
                  [
                    -84.531401,
                    39.104144
                  ]
                ],
                [
                  [
                    -84.531025,
                    39.104103
                  ],
                  [
                    -84.531026,
                    39.104061
                  ],
                  [
                    -84.531006,
                    39.104059
                  ],
                  [
                    -84.531003,
                    39.104107
                  ],
                  [
                    -84.531025,
                    39.104103
                  ]
                ]
              ]
            },
            "properties": {
              "id": 2,
              "area": 7102.44,
              "perimeter": 770.65
            }
          },
          {
            "type": "Feature",
            "geometry": {
              "type": "Polygon",
              "coordinates": [
                [
                  [
                    -84.532115,
                    39.10528
                  ],
                  [
                    -84.53211,
                    39.105279
                  ],
                  [
                    -84.532115,
                    39.10528
                  ],
                  [
                    -84.532115,
                    39.10528
                  ]
                ]
              ]
            },
            "properties": {
              "id": 3,
              "area": 0.0,
              "perimeter": 2.93
            }
          },
          {
            "type": "Feature",
            "geometry": {
              "type": "Polygon",
              "coordinates": [
                [
                  [
                    -84.532199,
                    39.104851
                  ],
                  [
                    -84.5322,
                    39.10485
                  ],
                  [
                    -84.532445,
                    39.104868
                  ],
                  [
                    -84.532445,
                    39.104812
                  ],
                  [
                    -84.531659,
                    39.104743
                  ],
                  [
                    -84.531655,
                    39.104702
                  ],
                  [
                    -84.532542,
                    39.10476
                  ],
                  [
                    -84.532423,
                    39.105012
                  ],
                  [
                    -84.5322,
                    39.105341
                  ],
                  [
                    -84.531941,
                    39.105619
                  ],
                  [
                    -84.531619,
                    39.105589
                  ],
                  [
                    -84.531621,
                    39.105562
                  ],
                  [
                    -84.531654,
                    39.105565
                  ],
                  [
                    -84.531676,
                    39.105428
                  ],
                  [
                    -84.531707,
                    39.105432
                  ],
                  [
                    -84.531706,
                    39.105438
                  ],
                  [
                    -84.531805,
                    39.105449
                  ],
                  [
                    -84.531889,
                    39.104833
                  ],
                  [
                    -84.531884,
                    39.104832
                  ],
                  [
                    -84.531884,
                    39.104832
                  ],
                  [
                    -84.531923,
                    39.10483
                  ],
                  [
                    -84.532005,
                    39.104836
                  ],
                  [
                    -84.531862,
                    39.105544
                  ],
                  [
                    -84.531937,
                    39.105551
                  ],
                  [
                    -84.531971,
                    39.105456
                  ],
                  [
                    -84.531996,
                    39.105456
                  ],
                  [
                    -84.532046,
                    39.105457
                  ],
                  [
                    -84.532047,
                    39.105455
                  ],
                  [
                    -84.532049,
                    39.105455
                  ],
                  [
                    -84.532069,
                    39.105386
                  ],
                  [
                    -84.532105,
                    39.105279
                  ],
                  [
                    -84.532119,
                    39.10528
                  ],
                  [
                    -84.532172,
                    39.105289
                  ],
                  [
                    -84.532284,
                    39.104924
                  ],
                  [
                    -84.532182,
                    39.10492
                  ],
                  [
                    -84.532199,
                    39.104851
                  ]
                ]
              ]
            },
            "properties": {
              "id": 4,
              "area": 24613.68,
              "perimeter": 2021.68
            }
          }
        ]
      }
    },
    {
      "id": "09d29124-0cd7-4b2e-81c9-552eebfdcfce",
      "feature": {
        "id": "df73cc66-4d50-445e-a906-70b6e7bfc189",
        "name": "Sidewalk",
        "geometry_type": 3,
        "is_custom": false
      },
      "style": {
        "color": "#FFC212",
        "width": 1,
        "opacity": 0.2,
        "is_visible": true,
        "layer_order": 1
      },
      "measurements": [
        {
          "name": "area",
          "value": 6646,
          "unit": "sqft"
        },
        {
          "name": "perimeter",
          "value": 2893,
          "unit": "ft"
        }
      ],
      "output_geojson": {
        "type": "FeatureCollection",
        "features": [
          {
            "type": "Feature",
            "geometry": {
              "type": "Polygon",
              "coordinates": [
                [
                  [
                    -84.53099,
                    39.104149
                  ],
                  [
                    -84.53099,
                    39.104152
                  ],
                  [
                    -84.530957,
                    39.104151
                  ],
                  [
                    -84.530958,
                    39.104147
                  ],
                  [
                    -84.53099,
                    39.104149
                  ]
                ]
              ]
            },
            "properties": {
              "id": 1,
              "area": 11.84,
              "perimeter": 21.06
            }
          },
          {
            "type": "Feature",
            "geometry": {
              "type": "Polygon",
              "coordinates": [
                [
                  [
                    -84.53097,
                    39.104075
                  ],
                  [
                    -84.53097,
                    39.104073
                  ],
                  [
                    -84.530967,
                    39.104073
                  ],
                  [
                    -84.530968,
                    39.104061
                  ],
                  [
                    -84.530979,
                    39.10406
                  ],
                  [
                    -84.530985,
                    39.103959
                  ],
                  [
                    -84.530981,
                    39.103955
                  ],
                  [
                    -84.53098,
                    39.103943
                  ],
                  [
                    -84.530991,
                    39.103826
                  ],
                  [
                    -84.530985,
                    39.103823
                  ],
                  [
                    -84.53091,
                    39.103818
                  ],
                  [
                    -84.530646,
                    39.103807
                  ],
                  [
                    -84.530637,
                    39.103919
                  ],
                  [
                    -84.530624,
                    39.103919
                  ],
                  [
                    -84.530624,
                    39.103915
                  ],
                  [
                    -84.530636,
                    39.103915
                  ],
                  [
                    -84.530638,
                    39.103805
                  ],
                  [
                    -84.531003,
                    39.103816
                  ],
                  [
                    -84.531012,
                    39.103817
                  ],
                  [
                    -84.530999,
                    39.103947
                  ],
                  [
                    -84.530992,
                    39.104075
                  ],
                  [
                    -84.530989,
                    39.104075
                  ],
                  [
                    -84.53097,
                    39.104075
                  ]
                ]
              ]
            },
            "properties": {
              "id": 2,
              "area": 670.59,
              "perimeter": 489.46
            }
          },
          {
            "type": "Feature",
            "geometry": {
              "type": "Polygon",
              "coordinates": [
                [
                  [
                    -84.530776,
                    39.104938
                  ],
                  [
                    -84.530656,
                    39.104933
                  ],
                  [
                    -84.530667,
                    39.104811
                  ],
                  [
                    -84.530665,
                    39.104811
                  ],
                  [
                    -84.530665,
                    39.104806
                  ],
                  [
                    -84.530554,
                    39.104797
                  ],
                  [
                    -84.530553,
                    39.104795
                  ],
                  [
                    -84.530689,
                    39.104801
                  ],
                  [
                    -84.530679,
                    39.10492
                  ],
                  [
                    -84.530759,
                    39.104926
                  ],
                  [
                    -84.530761,
                    39.10493
                  ],
                  [
                    -84.530783,
                    39.104932
                  ],
                  [
                    -84.530785,
                    39.104928
                  ],
                  [
                    -84.530814,
                    39.10493
                  ],
                  [
                    -84.53081,
                    39.104939
                  ],
                  [
                    -84.530776,
                    39.104938
                  ]
                ]
              ]
            },
            "properties": {
              "id": 3,
              "area": 495.89,
              "perimeter": 249.2
            }
          },
          {
            "type": "Feature",
            "geometry": {
              "type": "Polygon",
              "coordinates": [
                [
                  [
                    -84.530142,
                    39.104815
                  ],
                  [
                    -84.530151,
                    39.104805
                  ],
                  [
                    -84.530223,
                    39.104845
                  ],
                  [
                    -84.530472,
                    39.104996
                  ],
                  [
                    -84.530773,
                    39.105188
                  ],
                  [
                    -84.531271,
                    39.105522
                  ],
                  [
                    -84.531667,
                    39.10577
                  ],
                  [
                    -84.531756,
                    39.105818
                  ],
                  [
                    -84.531803,
                    39.105825
                  ],
                  [
                    -84.531862,
                    39.105821
                  ],
                  [
                    -84.531912,
                    39.105803
                  ],
                  [
                    -84.531992,
                    39.105744
                  ],
                  [
                    -84.532181,
                    39.105553
                  ],
                  [
                    -84.532261,
                    39.10546
                  ],
                  [
                    -84.532331,
                    39.105375
                  ],
                  [
                    -84.532423,
                    39.105248
                  ],
                  [
                    -84.532494,
                    39.10514
                  ],
                  [
                    -84.532595,
                    39.104954
                  ],
                  [
                    -84.532659,
                    39.104807
                  ],
                  [
                    -84.532672,
                    39.104812
                  ],
                  [
                    -84.53263,
                    39.104913
                  ],
                  [
                    -84.532501,
                    39.105153
                  ],
                  [
                    -84.532438,
                    39.105252
                  ],
                  [
                    -84.53229,
                    39.105447
                  ],
                  [
                    -84.532198,
                    39.105552
                  ],
                  [
                    -84.532035,
                    39.105724
                  ],
                  [
                    -84.53191,
                    39.105823
                  ],
                  [
                    -84.531842,
                    39.105841
                  ],
                  [
                    -84.531746,
                    39.105831
                  ],
                  [
                    -84.531654,
                    39.105783
                  ],
                  [
                    -84.531323,
                    39.105577
                  ],
                  [
                    -84.530884,
                    39.105284
                  ],
                  [
                    -84.530406,
                    39.104974
                  ],
                  [
                    -84.530217,
                    39.10486
                  ],
                  [
                    -84.530138,
                    39.104819
                  ],
                  [
                    -84.530142,
                    39.104815
                  ]
                ]
              ]
            },
            "properties": {
              "id": 4,
              "area": 5468.18,
              "perimeter": 2132.79
            }
          }
        ]
      }
    },
    {
      "id": "9e73b72e-858d-4e77-9557-7d1307e32421",
      "feature": {
        "id": "179e99fd-b756-4e2d-a8e6-acb09f6f4807",
        "name": "Pavement",
        "geometry_type": 3,
        "is_custom": false
      },
      "style": {
        "color": "#FF7D51",
        "width": 1,
        "opacity": 0.2,
        "is_visible": true,
        "layer_order": 1
      },
      "measurements": [
        {
          "name": "area",
          "value": 5509,
          "unit": "sqft"
        },
        {
          "name": "perimeter",
          "value": 832,
          "unit": "ft"
        }
      ],
      "output_geojson": {
        "type": "FeatureCollection",
        "features": [
          {
            "type": "Feature",
            "geometry": {
              "type": "Polygon",
              "coordinates": [
                [
                  [
                    -84.530414,
                    39.103654
                  ],
                  [
                    -84.530389,
                    39.103656
                  ],
                  [
                    -84.530394,
                    39.103644
                  ],
                  [
                    -84.530416,
                    39.103648
                  ],
                  [
                    -84.530414,
                    39.103654
                  ]
                ]
              ]
            },
            "properties": {
              "id": 1,
              "area": 22.22,
              "perimeter": 20.4
            }
          },
          {
            "type": "Feature",
            "geometry": {
              "type": "Polygon",
              "coordinates": [
                [
                  [
                    -84.531025,
                    39.104103
                  ],
                  [
                    -84.531003,
                    39.104107
                  ],
                  [
                    -84.531006,
                    39.104059
                  ],
                  [
                    -84.531026,
                    39.104061
                  ],
                  [
                    -84.531025,
                    39.104103
                  ]
                ]
              ]
            },
            "properties": {
              "id": 2,
              "area": 97.47,
              "perimeter": 44.94
            }
          },
          {
            "type": "Feature",
            "geometry": {
              "type": "Polygon",
              "coordinates": [
                [
                  [
                    -84.531005,
                    39.104695
                  ],
                  [
                    -84.531492,
                    39.104719
                  ],
                  [
                    -84.531491,
                    39.104741
                  ],
                  [
                    -84.531482,
                    39.104743
                  ],
                  [
                    -84.531485,
                    39.104749
                  ],
                  [
                    -84.531513,
                    39.10475
                  ],
                  [
                    -84.531509,
                    39.104768
                  ],
                  [
                    -84.531408,
                    39.104763
                  ],
                  [
                    -84.531404,
                    39.104772
                  ],
                  [
                    -84.531337,
                    39.104766
                  ],
                  [
                    -84.530919,
                    39.104747
                  ],
                  [
                    -84.530922,
                    39.104694
                  ],
                  [
                    -84.531005,
                    39.104695
                  ]
                ]
              ]
            },
            "properties": {
              "id": 3,
              "area": 3228.24,
              "perimeter": 379.16
            }
          },
          {
            "type": "Feature",
            "geometry": {
              "type": "Polygon",
              "coordinates": [
                [
                  [
                    -84.531465,
                    39.104998
                  ],
                  [
                    -84.53131,
                    39.104987
                  ],
                  [
                    -84.531207,
                    39.104986
                  ],
                  [
                    -84.531001,
                    39.104973
                  ],
                  [
                    -84.531003,
                    39.104951
                  ],
                  [
                    -84.530997,
                    39.104951
                  ],
                  [
                    -84.530994,
                    39.104973
                  ],
                  [
                    -84.530904,
                    39.104971
                  ],
                  [
                    -84.530903,
                    39.104933
                  ],
                  [
                    -84.531392,
                    39.104954
                  ],
                  [
                    -84.531392,
                    39.104962
                  ],
                  [
                    -84.531471,
                    39.104969
                  ],
                  [
                    -84.531465,
                    39.104998
                  ]
                ]
              ]
            },
            "properties": {
              "id": 4,
              "area": 2127.14,
              "perimeter": 364.42
            }
          },
          {
            "type": "Feature",
            "geometry": {
              "type": "Polygon",
              "coordinates": [
                [
                  [
                    -84.530763,
                    39.105091
                  ],
                  [
                    -84.530751,
                    39.105103
                  ],
                  [
                    -84.530736,
                    39.105093
                  ],
                  [
                    -84.530747,
                    39.105081
                  ],
                  [
                    -84.530752,
                    39.105081
                  ],
                  [
                    -84.530763,
                    39.105091
                  ]
                ]
              ]
            },
            "properties": {
              "id": 5,
              "area": 33.7,
              "perimeter": 22.73
            }
          }
        ]
      }
    },
    {
      "id": "e069022e-896a-494f-9dc3-85d986ba12b9",
      "feature": {
        "id": "e04b0ee1-6e1a-424d-b1bd-51153d5537e8",
        "name": "Parking Lot",
        "geometry_type": 3,
        "is_custom": false
      },
      "style": {
        "color": "#02665F",
        "width": 1,
        "opacity": 0.2,
        "is_visible": true,
        "layer_order": 1
      },
      "measurements": [
        {
          "name": "area",
          "value": 231340,
          "unit": "sqft"
        },
        {
          "name": "perimeter",
          "value": 6036,
          "unit": "ft"
        }
      ],
      "output_geojson": {
        "type": "FeatureCollection",
        "features": [
          {
            "type": "Feature",
            "geometry": {
              "type": "Polygon",
              "coordinates": [
                [
                  [
                    -84.530999,
                    39.103755
                  ],
                  [
                    -84.531006,
                    39.103707
                  ],
                  [
                    -84.53161,
                    39.103756
                  ],
                  [
                    -84.531609,
                    39.10376
                  ],
                  [
                    -84.531621,
                    39.103739
                  ],
                  [
                    -84.531708,
                    39.10375
                  ],
                  [
                    -84.531703,
                    39.103823
                  ],
                  [
                    -84.53175,
                    39.103826
                  ],
                  [
                    -84.531661,
                    39.104635
                  ],
                  [
                    -84.532667,
                    39.104695
                  ],
                  [
                    -84.532619,
                    39.104816
                  ],
                  [
                    -84.532505,
                    39.105064
                  ],
                  [
                    -84.532346,
                    39.105315
                  ],
                  [
                    -84.532197,
                    39.105472
                  ],
                  [
                    -84.531974,
                    39.105719
                  ],
                  [
                    -84.531594,
                    39.105686
                  ],
                  [
                    -84.531614,
                    39.105588
                  ],
                  [
                    -84.531619,
                    39.105589
                  ],
                  [
                    -84.531621,
                    39.105562
                  ],
                  [
                    -84.531562,
                    39.105557
                  ],
                  [
                    -84.531563,
                    39.10555
                  ],
                  [
                    -84.531527,
                    39.105548
                  ],
                  [
                    -84.531508,
                    39.105571
                  ],
                  [
                    -84.531496,
                    39.105646
                  ],
                  [
                    -84.53142,
                    39.105587
                  ],
                  [
                    -84.53142,
                    39.10559
                  ],
                  [
                    -84.530773,
                    39.105168
                  ],
                  [
                    -84.530819,
                    39.105108
                  ],
                  [
                    -84.530822,
                    39.105086
                  ],
                  [
                    -84.530817,
                    39.10505
                  ],
                  [
                    -84.530614,
                    39.105034
                  ],
                  [
                    -84.530566,
                    39.105048
                  ],
                  [
                    -84.530479,
                    39.104992
                  ],
                  [
                    -84.530185,
                    39.104822
                  ],
                  [
                    -84.53017,
                    39.104788
                  ],
                  [
                    -84.530173,
                    39.104788
                  ],
                  [
                    -84.530169,
                    39.104785
                  ],
                  [
                    -84.530299,
                    39.103662
                  ],
                  [
                    -84.530545,
                    39.103686
                  ],
                  [
                    -84.530543,
                    39.103709
                  ],
                  [
                    -84.530532,
                    39.103741
                  ],
                  [
                    -84.530557,
                    39.103681
                  ],
                  [
                    -84.530568,
                    39.103636
                  ],
                  [
                    -84.530648,
                    39.103642
                  ],
                  [
                    -84.530639,
                    39.103693
                  ],
                  [
                    -84.530644,
                    39.103723
                  ],
                  [
                    -84.530999,
                    39.103755
                  ]
                ],
                [
                  [
                    -84.531655,
                    39.104702
                  ],
                  [
                    -84.531658,
                    39.104743
                  ],
                  [
                    -84.531659,
                    39.104743
                  ],
                  [
                    -84.531655,
                    39.104702
                  ],
                  [
                    -84.531655,
                    39.104702
                  ]
                ],
                [
                  [
                    -84.531666,
                    39.104811
                  ],
                  [
                    -84.53169,
                    39.104822
                  ],
                  [
                    -84.531773,
                    39.104825
                  ],
                  [
                    -84.531676,
                    39.105428
                  ],
                  [
                    -84.531707,
                    39.105432
                  ],
                  [
                    -84.531785,
                    39.104822
                  ],
                  [
                    -84.531884,
                    39.104832
                  ],
                  [
                    -84.531923,
                    39.10483
                  ],
                  [
                    -84.531666,
                    39.104811
                  ]
                ],
                [
                  [
                    -84.531422,
                    39.105467
                  ],
                  [
                    -84.531422,
                    39.1054
                  ],
                  [
                    -84.531421,
                    39.105279
                  ],
                  [
                    -84.531422,
                    39.105467
                  ],
                  [
                    -84.531422,
                    39.105467
                  ]
                ],
                [
                  [
                    -84.531584,
                    39.103805
                  ],
                  [
                    -84.531578,
                    39.103812
                  ],
                  [
                    -84.53158,
                    39.103812
                  ],
                  [
                    -84.531584,
                    39.103805
                  ]
                ],
                [
                  [
                    -84.530532,
                    39.103924
                  ],
                  [
                    -84.53041,
                    39.103916
                  ],
                  [
                    -84.530411,
                    39.103927
                  ],
                  [
                    -84.530455,
                    39.10393
                  ],
                  [
                    -84.530394,
                    39.104785
                  ],
                  [
                    -84.530665,
                    39.104806
                  ],
                  [
                    -84.530655,
                    39.104937
                  ],
                  [
                    -84.530899,
                    39.10494
                  ],
                  [
                    -84.530899,
                    39.104964
                  ],
                  [
                    -84.531454,
                    39.104995
                  ],
                  [
                    -84.531477,
                    39.104964
                  ],
                  [
                    -84.531502,
                    39.104769
                  ],
                  [
                    -84.531517,
                    39.104751
                  ],
                  [
                    -84.531508,
                    39.104719
                  ],
                  [
                    -84.530926,
                    39.104692
                  ],
                  [
                    -84.53093,
                    39.104642
                  ],
                  [
                    -84.530956,
                    39.104642
                  ],
                  [
                    -84.530959,
                    39.104572
                  ],
                  [
                    -84.530936,
                    39.104561
                  ],
                  [
                    -84.530947,
                    39.104437
                  ],
                  [
                    -84.531192,
                    39.104457
                  ],
                  [
                    -84.531198,
                    39.104338
                  ],
                  [
                    -84.531192,
                    39.10433
                  ],
                  [
                    -84.531049,
                    39.104326
                  ],
                  [
                    -84.53106,
                    39.104265
                  ],
                  [
                    -84.531069,
                    39.104265
                  ],
                  [
                    -84.531076,
                    39.104157
                  ],
                  [
                    -84.530956,
                    39.104147
                  ],
                  [
                    -84.530968,
                    39.104075
                  ],
                  [
                    -84.531001,
                    39.104075
                  ],
                  [
                    -84.531011,
                    39.103891
                  ],
                  [
                    -84.531033,
                    39.103891
                  ],
                  [
                    -84.531027,
                    39.103832
                  ],
                  [
                    -84.531019,
                    39.103817
                  ],
                  [
                    -84.530638,
                    39.103805
                  ],
                  [
                    -84.530636,
                    39.103915
                  ],
                  [
                    -84.530534,
                    39.103917
                  ],
                  [
                    -84.530537,
                    39.10388
                  ],
                  [
                    -84.530532,
                    39.103924
                  ]
                ],
                [
                  [
                    -84.531519,
                    39.103911
                  ],
                  [
                    -84.531103,
                    39.103897
                  ],
                  [
                    -84.531101,
                    39.103907
                  ],
                  [
                    -84.531473,
                    39.10393
                  ],
                  [
                    -84.531465,
                    39.103981
                  ],
                  [
                    -84.531472,
                    39.103981
                  ],
                  [
                    -84.531475,
                    39.104079
                  ],
                  [
                    -84.531482,
                    39.103911
                  ],
                  [
                    -84.531518,
                    39.103914
                  ],
                  [
                    -84.531519,
                    39.103911
                  ]
                ],
                [
                  [
                    -84.531506,
                    39.104232
                  ],
                  [
                    -84.531471,
                    39.104225
                  ],
                  [
                    -84.531474,
                    39.104238
                  ],
                  [
                    -84.531477,
                    39.104235
                  ],
                  [
                    -84.531506,
                    39.104232
                  ]
                ],
                [
                  [
                    -84.531472,
                    39.104181
                  ],
                  [
                    -84.531461,
                    39.10418
                  ],
                  [
                    -84.53147,
                    39.104221
                  ],
                  [
                    -84.531472,
                    39.104181
                  ]
                ],
                [
                  [
                    -84.531401,
                    39.104144
                  ],
                  [
                    -84.531401,
                    39.104136
                  ],
                  [
                    -84.531152,
                    39.104126
                  ],
                  [
                    -84.53115,
                    39.104117
                  ],
                  [
                    -84.531149,
                    39.104129
                  ],
                  [
                    -84.531401,
                    39.104144
                  ]
                ],
                [
                  [
                    -84.531398,
                    39.104079
                  ],
                  [
                    -84.531396,
                    39.104023
                  ],
                  [
                    -84.531386,
                    39.104024
                  ],
                  [
                    -84.531383,
                    39.104074
                  ],
                  [
                    -84.531398,
                    39.104079
                  ]
                ],
                [
                  [
                    -84.53053,
                    39.103742
                  ],
                  [
                    -84.530382,
                    39.103732
                  ],
                  [
                    -84.530519,
                    39.103747
                  ],
                  [
                    -84.53053,
                    39.103742
                  ]
                ],
                [
                  [
                    -84.530355,
                    39.10373
                  ],
                  [
                    -84.530353,
                    39.10373
                  ],
                  [
                    -84.530349,
                    39.10378
                  ],
                  [
                    -84.530355,
                    39.10373
                  ]
                ],
                [
                  [
                    -84.531494,
                    39.104608
                  ],
                  [
                    -84.531497,
                    39.104639
                  ],
                  [
                    -84.5315,
                    39.104639
                  ],
                  [
                    -84.531494,
                    39.104608
                  ]
                ],
                [
                  [
                    -84.5322,
                    39.10485
                  ],
                  [
                    -84.532199,
                    39.10485
                  ],
                  [
                    -84.532199,
                    39.104851
                  ],
                  [
                    -84.5322,
                    39.10485
                  ]
                ],
                [
                  [
                    -84.532119,
                    39.10528
                  ],
                  [
                    -84.532105,
                    39.105278
                  ],
                  [
                    -84.532105,
                    39.105279
                  ],
                  [
                    -84.532119,
                    39.10528
                  ]
                ],
                [
                  [
                    -84.532069,
                    39.105386
                  ],
                  [
                    -84.532047,
                    39.105455
                  ],
                  [
                    -84.532049,
                    39.105455
                  ],
                  [
                    -84.532069,
                    39.105386
                  ]
                ],
                [
                  [
                    -84.531996,
                    39.105456
                  ],
                  [
                    -84.531971,
                    39.105455
                  ],
                  [
                    -84.531971,
                    39.105456
                  ],
                  [
                    -84.531996,
                    39.105456
                  ]
                ]
              ]
            },
            "properties": {
              "id": 1,
              "area": 231339.94,
              "perimeter": 6036.36
            }
          }
        ]
      }
    }
  ],
  "input": {
    "id": "6a040d2d-4672-49de-9c65-9c10e34a86e4",
    "address": "900 W 8th St, Cincinnati, OH 45203, United States",
    "aoi_geojson": {
      "type": "FeatureCollection",
      "features": [
        {
          "type": "Feature",
          "geometry": {
            "type": "Polygon",
            "coordinates": [
              [
                [
                  -84.530304,
                  39.103617
                ],
                [
                  -84.530483,
                  39.103629
                ],
                [
                  -84.530807,
                  39.103655
                ],
                [
                  -84.531131,
                  39.103684
                ],
                [
                  -84.531454,
                  39.103719
                ],
                [
                  -84.531776,
                  39.103758
                ],
                [
                  -84.531676,
                  39.104625
                ],
                [
                  -84.532684,
                  39.104696
                ],
                [
                  -84.532649,
                  39.104791
                ],
                [
                  -84.532609,
                  39.104885
                ],
                [
                  -84.532565,
                  39.104978
                ],
                [
                  -84.532526,
                  39.105053
                ],
                [
                  -84.532479,
                  39.105134
                ],
                [
                  -84.532429,
                  39.105213
                ],
                [
                  -84.532366,
                  39.105305
                ],
                [
                  -84.532298,
                  39.105394
                ],
                [
                  -84.532225,
                  39.105481
                ],
                [
                  -84.532198,
                  39.105512
                ],
                [
                  -84.532109,
                  39.105606
                ],
                [
                  -84.532016,
                  39.105696
                ],
                [
                  -84.531917,
                  39.105783
                ],
                [
                  -84.531902,
                  39.105794
                ],
                [
                  -84.531885,
                  39.105803
                ],
                [
                  -84.531866,
                  39.105809
                ],
                [
                  -84.531846,
                  39.105813
                ],
                [
                  -84.531826,
                  39.105814
                ],
                [
                  -84.531806,
                  39.105813
                ],
                [
                  -84.531786,
                  39.105809
                ],
                [
                  -84.531767,
                  39.105802
                ],
                [
                  -84.53175,
                  39.105793
                ],
                [
                  -84.531513,
                  39.105647
                ],
                [
                  -84.531348,
                  39.105543
                ],
                [
                  -84.53114,
                  39.105407
                ],
                [
                  -84.530797,
                  39.105175
                ],
                [
                  -84.530591,
                  39.105042
                ],
                [
                  -84.530382,
                  39.104912
                ],
                [
                  -84.530169,
                  39.104785
                ],
                [
                  -84.530304,
                  39.103617
                ]
              ]
            ]
          },
          "properties": {}
        }
      ]
    },
    "parcel_area": 347618,
    "name": "Parcel",
    "lat": null,
    "lon": null,
    "is_edited": false
  },
  "status": 3,
  "additional_seconds": 0,
  "eta": 2362.63,
  "initial_eta": 2362.63,
  "completed_at": "2021-01-28T22:49:24.499610+05:30",
  "generated_at": null,
  "created_at": "2021-01-28T22:01:39.367916+05:30",
  "is_eta_update": false,
  "feature_report": {
    "id": "c7108022-af13-44e4-93f0-c432880c5e8a",
    "name": "Advanced Snow Removal Report",
    "description": "Ideal for large properties",
    "features": [
      {
        "id": "179e99fd-b756-4e2d-a8e6-acb09f6f4807",
        "name": "Pavement",
        "identifier": "pavement"
      },
      {
        "id": "df73cc66-4d50-445e-a906-70b6e7bfc189",
        "name": "Sidewalk",
        "identifier": "sidewalk"
      },
      {
        "id": "c51a1b40-95d5-4dcc-80c4-41043c3cbf3e",
        "name": "Driveway",
        "identifier": "driveway"
      },
      {
        "id": "e04b0ee1-6e1a-424d-b1bd-51153d5537e8",
        "name": "Parking Lot",
        "identifier": "parking_lot"
      },
      {
        "id": "7b7dc0e2-9622-4bd3-b7f4-c99d47f3d560",
        "name": "Parking Spot",
        "identifier": "parking_spot"
      },
      {
        "id": "f70c4b1b-f806-46f8-a239-6cb6290e1e75",
        "name": "Road",
        "identifier": "road"
      }
    ],
    "attributes": {
      "id": "6251e9b5-7ce4-468a-9fe2-d669a164808c",
      "min_threshold_price": 0.3,
      "max_threshold_price": 0.15,
      "first_range_price": 0.24,
      "second_range_price": 0.21,
      "min_threshold_area": 50000,
      "mid_threshold_area": 200000,
      "max_threshold_area": 1000000,
      "feature_report_definition": null,
      "average_time": 90,
      "average_time_exceed": 60,
      "pdf_sample": "https://storage.googleapis.com/falcon-prod-filestore/prod/pdf_samples/Advanced%20Snow%20Removal%20Report/2021_1_5/Sample_advanced_snow_removal_report.pdf",
      "excel_sample": "https://storage.googleapis.com/falcon-prod-filestore/prod/excel_samples/Advanced%20Snow%20Removal%20Report/2021_1_11/Advanced_Snow_Removal_Report___Sample.xlsx",
      "order": 3,
      "is_default": false
    }
  },
  "job_id_map": {
    "ml_process": "d7ecde85-da48-4037-a4c6-783ccaf24165",
    "qa_process": "af4bb0a7-599d-4d67-be4e-1bdc4c08d954",
    "qc_process": "f1651d03-6f2e-4847-b619-8ba3c12e6cea",
    "tiff_to_png_process": "a6f54ac0-512f-4d77-9344-2b81a56ece28",
    "imagery_fetching_process": "683acbdb-7e19-44a5-987b-7071d51e8efe",
    "parcel_correction_process": "dc8d6787-921b-414e-8eed-8a15ae44201d"
  },
  "tiff_url": "https://storage.googleapis.com/autofx-outputs/ImageryFetchingProcess/683acbdb-7e19-44a5-987b-7071d51e8efe/output_tiff.tif",
  "feedback": {},
  "is_sample": false,
  "shareable_link": "https://app.attentive.ai/shared-view?id=6d7559a7-8177-4bee-bb8c-bfd600f2461b",
  "features": [
    {
      "id": "179e99fd-b756-4e2d-a8e6-acb09f6f4807",
      "name": "Pavement",
      "identifier": "pavement"
    },
    {
      "id": "df73cc66-4d50-445e-a906-70b6e7bfc189",
      "name": "Sidewalk",
      "identifier": "sidewalk"
    },
    {
      "id": "c51a1b40-95d5-4dcc-80c4-41043c3cbf3e",
      "name": "Driveway",
      "identifier": "driveway"
    },
    {
      "id": "e04b0ee1-6e1a-424d-b1bd-51153d5537e8",
      "name": "Parking Lot",
      "identifier": "parking_lot"
    },
    {
      "id": "7b7dc0e2-9622-4bd3-b7f4-c99d47f3d560",
      "name": "Parking Spot",
      "identifier": "parking_spot"
    },
    {
      "id": "9145e50f-6132-4c70-ad46-05f969cb358f",
      "name": "Drivelane",
      "identifier": "drivelane"
    }
  ]
}