{
  "id": "9b3cdd80-a4c3-4201-bd45-d34c3e23f68e",
  "outputs": [
    {
      "id": "bc01ced3-8844-4ef1-8d82-8a8c10d6656f",
      "feature": {
        "id": "73ddf02e-a068-45f7-a2a1-77c9ec207a3c",
        "name": "Lawn",
        "geometry_type": 3,
        "is_custom": false
      },
      "style": {
        "color": "#2DCA73",
        "width": 1,
        "opacity": 0.2,
        "is_visible": true,
        "layer_order": 1
      },
      "measurements": [
        {
          "name": "area",
          "value": 64281,
          "unit": "sqft"
        },
        {
          "name": "perimeter",
          "value": 3265,
          "unit": "ft"
        }
      ],
      "output_geojson": {
        "type": "FeatureCollection",
        "features": [
          {
            "type": "Feature",
            "geometry": {
              "type": "Polygon",
              "coordinates": [
                [
                  [
                    -75.211982,
                    40.01128
                  ],
                  [
                    -75.212017,
                    40.011323
                  ],
                  [
                    -75.212154,
                    40.011487
                  ],
                  [
                    -75.212117,
                    40.011505
                  ],
                  [
                    -75.211949,
                    40.011292
                  ],
                  [
                    -75.211952,
                    40.011272
                  ],
                  [
                    -75.211966,
                    40.011259
                  ],
                  [
                    -75.211982,
                    40.01128
                  ]
                ]
              ]
            },
            "properties": {
              "id": 1,
              "area": 1059.98,
              "perimeter": 214.86
            }
          },
          {
            "type": "Feature",
            "geometry": {
              "type": "Polygon",
              "coordinates": [
                [
                  [
                    -75.211829,
                    40.011645
                  ],
                  [
                    -75.21159,
                    40.011761
                  ],
                  [
                    -75.211578,
                    40.01175
                  ],
                  [
                    -75.211817,
                    40.011638
                  ],
                  [
                    -75.211829,
                    40.011645
                  ]
                ]
              ]
            },
            "properties": {
              "id": 2,
              "area": 359.09,
              "perimeter": 167.03
            }
          },
          {
            "type": "Feature",
            "geometry": {
              "type": "Polygon",
              "coordinates": [
                [
                  [
                    -75.211768,
                    40.010987
                  ],
                  [
                    -75.211777,
                    40.011
                  ],
                  [
                    -75.21169,
                    40.011061
                  ],
                  [
                    -75.211631,
                    40.01108
                  ],
                  [
                    -75.211576,
                    40.011082
                  ],
                  [
                    -75.211519,
                    40.011105
                  ],
                  [
                    -75.21149,
                    40.011097
                  ],
                  [
                    -75.211471,
                    40.011086
                  ],
                  [
                    -75.211722,
                    40.010916
                  ],
                  [
                    -75.211768,
                    40.010987
                  ]
                ]
              ]
            },
            "properties": {
              "id": 3,
              "area": 2377.99,
              "perimeter": 227.61
            }
          },
          {
            "type": "Feature",
            "geometry": {
              "type": "Polygon",
              "coordinates": [
                [
                  [
                    -75.211414,
                    40.011104
                  ],
                  [
                    -75.211237,
                    40.011224
                  ],
                  [
                    -75.21122,
                    40.011209
                  ],
                  [
                    -75.21114,
                    40.011262
                  ],
                  [
                    -75.211127,
                    40.011253
                  ],
                  [
                    -75.211384,
                    40.011078
                  ],
                  [
                    -75.211414,
                    40.011104
                  ]
                ]
              ]
            },
            "properties": {
              "id": 4,
              "area": 982.94,
              "perimeter": 216.66
            }
          },
          {
            "type": "Feature",
            "geometry": {
              "type": "Polygon",
              "coordinates": [
                [
                  [
                    -75.211436,
                    40.011165
                  ],
                  [
                    -75.211269,
                    40.01128
                  ],
                  [
                    -75.211256,
                    40.011281
                  ],
                  [
                    -75.211235,
                    40.01127
                  ],
                  [
                    -75.211243,
                    40.01125
                  ],
                  [
                    -75.211234,
                    40.011244
                  ],
                  [
                    -75.211404,
                    40.01113
                  ],
                  [
                    -75.211436,
                    40.011165
                  ]
                ]
              ]
            },
            "properties": {
              "id": 5,
              "area": 1043.15,
              "perimeter": 163.31
            }
          },
          {
            "type": "Feature",
            "geometry": {
              "type": "Polygon",
              "coordinates": [
                [
                  [
                    -75.211873,
                    40.011135
                  ],
                  [
                    -75.211897,
                    40.011168
                  ],
                  [
                    -75.21144,
                    40.011446
                  ],
                  [
                    -75.211406,
                    40.011424
                  ],
                  [
                    -75.211873,
                    40.011135
                  ]
                ]
              ]
            },
            "properties": {
              "id": 6,
              "area": 2135.43,
              "perimeter": 357.38
            }
          },
          {
            "type": "Feature",
            "geometry": {
              "type": "Polygon",
              "coordinates": [
                [
                  [
                    -75.210338,
                    40.011219
                  ],
                  [
                    -75.210501,
                    40.011176
                  ],
                  [
                    -75.210495,
                    40.011169
                  ],
                  [
                    -75.211562,
                    40.01064
                  ],
                  [
                    -75.21161,
                    40.010731
                  ],
                  [
                    -75.211714,
                    40.010904
                  ],
                  [
                    -75.211441,
                    40.011083
                  ],
                  [
                    -75.211414,
                    40.011055
                  ],
                  [
                    -75.211398,
                    40.011063
                  ],
                  [
                    -75.211299,
                    40.01097
                  ],
                  [
                    -75.211228,
                    40.010908
                  ],
                  [
                    -75.210917,
                    40.011116
                  ],
                  [
                    -75.210911,
                    40.011112
                  ],
                  [
                    -75.210895,
                    40.011126
                  ],
                  [
                    -75.210882,
                    40.011108
                  ],
                  [
                    -75.210844,
                    40.011121
                  ],
                  [
                    -75.210829,
                    40.011105
                  ],
                  [
                    -75.210765,
                    40.011153
                  ],
                  [
                    -75.2109,
                    40.011275
                  ],
                  [
                    -75.210856,
                    40.011314
                  ],
                  [
                    -75.211197,
                    40.011587
                  ],
                  [
                    -75.211255,
                    40.011608
                  ],
                  [
                    -75.211371,
                    40.011678
                  ],
                  [
                    -75.211527,
                    40.011786
                  ],
                  [
                    -75.21149,
                    40.01181
                  ],
                  [
                    -75.211176,
                    40.011962
                  ],
                  [
                    -75.210338,
                    40.011219
                  ]
                ]
              ]
            },
            "properties": {
              "id": 7,
              "area": 54581.0,
              "perimeter": 1689.39
            }
          },
          {
            "type": "Feature",
            "geometry": {
              "type": "Polygon",
              "coordinates": [
                [
                  [
                    -75.211371,
                    40.011426
                  ],
                  [
                    -75.211422,
                    40.011468
                  ],
                  [
                    -75.211407,
                    40.011473
                  ],
                  [
                    -75.211407,
                    40.011483
                  ],
                  [
                    -75.21135,
                    40.011522
                  ],
                  [
                    -75.211327,
                    40.011525
                  ],
                  [
                    -75.211236,
                    40.011448
                  ],
                  [
                    -75.211257,
                    40.011436
                  ],
                  [
                    -75.2113,
                    40.011426
                  ],
                  [
                    -75.211222,
                    40.011365
                  ],
                  [
                    -75.211238,
                    40.011353
                  ],
                  [
                    -75.211243,
                    40.011344
                  ],
                  [
                    -75.211246,
                    40.011321
                  ],
                  [
                    -75.211371,
                    40.011426
                  ]
                ],
                [
                  [
                    -75.211329,
                    40.011418
                  ],
                  [
                    -75.21135,
                    40.011411
                  ],
                  [
                    -75.211335,
                    40.011415
                  ],
                  [
                    -75.211329,
                    40.011418
                  ]
                ]
              ]
            },
            "properties": {
              "id": 8,
              "area": 1741.58,
              "perimeter": 229.02
            }
          }
        ]
      }
    }
  ],
  "input": {
    "id": "9228f6de-88e3-4731-a33b-529408f25ddd",
    "address": "9 Presidential Blvd, Bala Cynwyd, PA 19004, USA",
    "aoi_geojson": {
      "type": "FeatureCollection",
      "features": [
        {
          "type": "Feature",
          "geometry": {
            "type": "Polygon",
            "coordinates": [
              [
                [
                  -75.211562,
                  40.01064
                ],
                [
                  -75.21161,
                  40.010731
                ],
                [
                  -75.211648,
                  40.010796
                ],
                [
                  -75.211686,
                  40.01086
                ],
                [
                  -75.211727,
                  40.010924
                ],
                [
                  -75.211768,
                  40.010987
                ],
                [
                  -75.211811,
                  40.01105
                ],
                [
                  -75.211856,
                  40.011113
                ],
                [
                  -75.211982,
                  40.01128
                ],
                [
                  -75.212017,
                  40.011323
                ],
                [
                  -75.212069,
                  40.011381
                ],
                [
                  -75.212088,
                  40.011402
                ],
                [
                  -75.212128,
                  40.011441
                ],
                [
                  -75.212169,
                  40.01148
                ],
                [
                  -75.211176,
                  40.011962
                ],
                [
                  -75.210832,
                  40.011686
                ],
                [
                  -75.210492,
                  40.011165
                ],
                [
                  -75.211562,
                  40.01064
                ]
              ]
            ]
          },
          "properties": {}
        }
      ]
    },
    "parcel_area": 126034,
    "name": "Parcel",
    "lat": null,
    "lon": null,
    "is_edited": false
  },
  "status": 3,
  "additional_seconds": 0,
  "eta": 60.0,
  "initial_eta": 60.0,
  "completed_at": null,
  "generated_at": null,
  "created_at": "2021-02-02T21:28:37.352685+05:30",
  "is_eta_update": false,
  "feature_report": {
    "id": "17854716-6609-4797-aeda-14490ab3c5e0",
    "name": "Lawn Report",
    "description": "Lawn measurement, ideal for all properties.",
    "features": [
      {
        "id": "73ddf02e-a068-45f7-a2a1-77c9ec207a3c",
        "name": "Lawn",
        "identifier": "lawn"
      }
    ],
    "attributes": {
      "id": "71a8d434-5427-4366-9aef-91306e0ad796",
      "min_threshold_price": 0.2,
      "max_threshold_price": 0.12,
      "first_range_price": 0.17,
      "second_range_price": 0.14,
      "min_threshold_area": 50000,
      "mid_threshold_area": 200000,
      "max_threshold_area": 1000000,
      "feature_report_definition": null,
      "average_time": 720,
      "average_time_exceed": 360,
      "pdf_sample": "https://storage.googleapis.com/falcon-prod-filestore/prod/pdf_samples/2021_4_20/LAWN_REPORT.pdf",
      "excel_sample": "https://storage.googleapis.com/falcon-prod-filestore/prod/excel_samples/2021_4_20/Lawn_Report___Sample_2.xlsx",
      "order": 1,
      "is_default": false
    }
  },
  "job_id_map": {},
  "tiff_url": null,
  "feedback": {},
  "is_sample": false,
  "shareable_link": "",
  "features": [
    {
      "id": "73ddf02e-a068-45f7-a2a1-77c9ec207a3c",
      "name": "Lawn",
      "identifier": "lawn"
    }
  ]
}