{
  "id": "a3a29a93-c387-4ee6-beb0-925851bdd832",
  "outputs": [
    {
      "id": "7c09c149-14f2-4708-b067-cd8ccb06777a",
      "feature": {
        "id": "73ddf02e-a068-45f7-a2a1-77c9ec207a3c",
        "name": "Lawn",
        "geometry_type": 3,
        "is_custom": false
      },
      "style": {
        "color": "#ff00a7",
        "width": 3,
        "opacity": 0.3,
        "is_visible": true,
        "layer_order": 1
      },
      "measurements": [
        {
          "name": "area",
          "value": 252148,
          "unit": "sqft"
        },
        {
          "name": "perimeter",
          "value": 7404,
          "unit": "ft"
        }
      ],
      "output_geojson": {
        "type": "FeatureCollection",
        "features": [
          {
            "type": "Feature",
            "geometry": {
              "type": "Polygon",
              "coordinates": [
                [
                  [
                    -82.907083,
                    39.923855
                  ],
                  [
                    -82.907058,
                    39.923855
                  ],
                  [
                    -82.907066,
                    39.923766
                  ],
                  [
                    -82.906968,
                    39.923759
                  ],
                  [
                    -82.906973,
                    39.923685
                  ],
                  [
                    -82.906854,
                    39.923678
                  ],
                  [
                    -82.906855,
                    39.923656
                  ],
                  [
                    -82.907101,
                    39.923669
                  ],
                  [
                    -82.907083,
                    39.923855
                  ]
                ]
              ]
            },
            "properties": {
              "id": 1,
              "area": 1758.61,
              "perimeter": 272.76
            }
          },
          {
            "type": "Feature",
            "geometry": {
              "type": "Polygon",
              "coordinates": [
                [
                  [
                    -82.906586,
                    39.923898
                  ],
                  [
                    -82.906327,
                    39.923883
                  ],
                  [
                    -82.906323,
                    39.923879
                  ],
                  [
                    -82.906325,
                    39.923851
                  ],
                  [
                    -82.906455,
                    39.923854
                  ],
                  [
                    -82.906589,
                    39.923867
                  ],
                  [
                    -82.906586,
                    39.923898
                  ]
                ]
              ]
            },
            "properties": {
              "id": 2,
              "area": 912.66,
              "perimeter": 170.46
            }
          },
          {
            "type": "Feature",
            "geometry": {
              "type": "Polygon",
              "coordinates": [
                [
                  [
                    -82.906893,
                    39.923933
                  ],
                  [
                    -82.906894,
                    39.923928
                  ],
                  [
                    -82.90705,
                    39.923938
                  ],
                  [
                    -82.907057,
                    39.923899
                  ],
                  [
                    -82.907053,
                    39.923899
                  ],
                  [
                    -82.907057,
                    39.923877
                  ],
                  [
                    -82.907081,
                    39.923879
                  ],
                  [
                    -82.907074,
                    39.923945
                  ],
                  [
                    -82.906893,
                    39.923933
                  ]
                ]
              ]
            },
            "properties": {
              "id": 3,
              "area": 240.66,
              "perimeter": 150.71
            }
          },
          {
            "type": "Feature",
            "geometry": {
              "type": "Polygon",
              "coordinates": [
                [
                  [
                    -82.905777,
                    39.922815
                  ],
                  [
                    -82.907992,
                    39.922943
                  ],
                  [
                    -82.907868,
                    39.924437
                  ],
                  [
                    -82.907477,
                    39.924409
                  ],
                  [
                    -82.907506,
                    39.924055
                  ],
                  [
                    -82.907535,
                    39.924056
                  ],
                  [
                    -82.907533,
                    39.92407
                  ],
                  [
                    -82.90758,
                    39.924072
                  ],
                  [
                    -82.907582,
                    39.924057
                  ],
                  [
                    -82.907582,
                    39.924038
                  ],
                  [
                    -82.907513,
                    39.924033
                  ],
                  [
                    -82.907513,
                    39.924016
                  ],
                  [
                    -82.907538,
                    39.924019
                  ],
                  [
                    -82.907538,
                    39.924026
                  ],
                  [
                    -82.907574,
                    39.924028
                  ],
                  [
                    -82.907579,
                    39.923994
                  ],
                  [
                    -82.907541,
                    39.923992
                  ],
                  [
                    -82.90754,
                    39.924001
                  ],
                  [
                    -82.907518,
                    39.923999
                  ],
                  [
                    -82.907546,
                    39.923966
                  ],
                  [
                    -82.907783,
                    39.923972
                  ],
                  [
                    -82.907816,
                    39.923679
                  ],
                  [
                    -82.907734,
                    39.923672
                  ],
                  [
                    -82.90772,
                    39.923658
                  ],
                  [
                    -82.907723,
                    39.923619
                  ],
                  [
                    -82.907143,
                    39.923586
                  ],
                  [
                    -82.907136,
                    39.923638
                  ],
                  [
                    -82.906983,
                    39.923629
                  ],
                  [
                    -82.90698,
                    39.923627
                  ],
                  [
                    -82.90698,
                    39.923565
                  ],
                  [
                    -82.906868,
                    39.923558
                  ],
                  [
                    -82.906758,
                    39.923555
                  ],
                  [
                    -82.906705,
                    39.923549
                  ],
                  [
                    -82.906682,
                    39.923533
                  ],
                  [
                    -82.906685,
                    39.923459
                  ],
                  [
                    -82.90652,
                    39.923452
                  ],
                  [
                    -82.906541,
                    39.923212
                  ],
                  [
                    -82.906613,
                    39.92321
                  ],
                  [
                    -82.906631,
                    39.923205
                  ],
                  [
                    -82.906647,
                    39.923197
                  ],
                  [
                    -82.906655,
                    39.923187
                  ],
                  [
                    -82.906663,
                    39.923168
                  ],
                  [
                    -82.906663,
                    39.92315
                  ],
                  [
                    -82.906656,
                    39.923134
                  ],
                  [
                    -82.906621,
                    39.923103
                  ],
                  [
                    -82.906599,
                    39.923095
                  ],
                  [
                    -82.906529,
                    39.923093
                  ],
                  [
                    -82.906483,
                    39.923082
                  ],
                  [
                    -82.906442,
                    39.923076
                  ],
                  [
                    -82.906395,
                    39.92308
                  ],
                  [
                    -82.906336,
                    39.923097
                  ],
                  [
                    -82.906309,
                    39.923139
                  ],
                  [
                    -82.9063,
                    39.92316
                  ],
                  [
                    -82.906306,
                    39.923188
                  ],
                  [
                    -82.906334,
                    39.923211
                  ],
                  [
                    -82.90634,
                    39.923443
                  ],
                  [
                    -82.906274,
                    39.923438
                  ],
                  [
                    -82.906236,
                    39.923838
                  ],
                  [
                    -82.906117,
                    39.923905
                  ],
                  [
                    -82.906105,
                    39.923917
                  ],
                  [
                    -82.9061,
                    39.923926
                  ],
                  [
                    -82.90609,
                    39.923978
                  ],
                  [
                    -82.906064,
                    39.924223
                  ],
                  [
                    -82.906057,
                    39.924226
                  ],
                  [
                    -82.905972,
                    39.924223
                  ],
                  [
                    -82.905757,
                    39.924212
                  ],
                  [
                    -82.905645,
                    39.924201
                  ],
                  [
                    -82.905623,
                    39.924205
                  ],
                  [
                    -82.905566,
                    39.924225
                  ],
                  [
                    -82.905496,
                    39.924257
                  ],
                  [
                    -82.905624,
                    39.922806
                  ],
                  [
                    -82.905777,
                    39.922815
                  ]
                ],
                [
                  [
                    -82.906402,
                    39.923043
                  ],
                  [
                    -82.906462,
                    39.923006
                  ],
                  [
                    -82.906458,
                    39.923001
                  ],
                  [
                    -82.906398,
                    39.92304
                  ],
                  [
                    -82.906402,
                    39.923043
                  ]
                ],
                [
                  [
                    -82.906716,
                    39.923057
                  ],
                  [
                    -82.906716,
                    39.923053
                  ],
                  [
                    -82.906624,
                    39.923048
                  ],
                  [
                    -82.906609,
                    39.923039
                  ],
                  [
                    -82.906579,
                    39.923039
                  ],
                  [
                    -82.906541,
                    39.923005
                  ],
                  [
                    -82.906543,
                    39.922982
                  ],
                  [
                    -82.906535,
                    39.92297
                  ],
                  [
                    -82.906541,
                    39.922898
                  ],
                  [
                    -82.906537,
                    39.9229
                  ],
                  [
                    -82.906526,
                    39.92301
                  ],
                  [
                    -82.90657,
                    39.92305
                  ],
                  [
                    -82.906716,
                    39.923057
                  ]
                ],
                [
                  [
                    -82.907511,
                    39.924375
                  ],
                  [
                    -82.907583,
                    39.924379
                  ],
                  [
                    -82.907583,
                    39.924376
                  ],
                  [
                    -82.907512,
                    39.924371
                  ],
                  [
                    -82.907511,
                    39.924375
                  ]
                ],
                [
                  [
                    -82.907525,
                    39.924254
                  ],
                  [
                    -82.907539,
                    39.924253
                  ],
                  [
                    -82.907544,
                    39.924249
                  ],
                  [
                    -82.907544,
                    39.924234
                  ],
                  [
                    -82.90754,
                    39.92423
                  ],
                  [
                    -82.907526,
                    39.924229
                  ],
                  [
                    -82.907517,
                    39.924234
                  ],
                  [
                    -82.907515,
                    39.924249
                  ],
                  [
                    -82.907525,
                    39.924254
                  ]
                ],
                [
                  [
                    -82.907525,
                    39.924146
                  ],
                  [
                    -82.907534,
                    39.924147
                  ],
                  [
                    -82.907541,
                    39.924142
                  ],
                  [
                    -82.907538,
                    39.924125
                  ],
                  [
                    -82.907522,
                    39.924124
                  ],
                  [
                    -82.907516,
                    39.92413
                  ],
                  [
                    -82.907517,
                    39.924142
                  ],
                  [
                    -82.907525,
                    39.924146
                  ]
                ],
                [
                  [
                    -82.905647,
                    39.923206
                  ],
                  [
                    -82.905662,
                    39.923209
                  ],
                  [
                    -82.905669,
                    39.923204
                  ],
                  [
                    -82.905667,
                    39.923188
                  ],
                  [
                    -82.905644,
                    39.923186
                  ],
                  [
                    -82.905639,
                    39.923189
                  ],
                  [
                    -82.905637,
                    39.923202
                  ],
                  [
                    -82.905647,
                    39.923206
                  ]
                ],
                [
                  [
                    -82.907042,
                    39.923193
                  ],
                  [
                    -82.907068,
                    39.923197
                  ],
                  [
                    -82.907084,
                    39.923191
                  ],
                  [
                    -82.907091,
                    39.923176
                  ],
                  [
                    -82.907083,
                    39.923158
                  ],
                  [
                    -82.907055,
                    39.923154
                  ],
                  [
                    -82.907029,
                    39.923166
                  ],
                  [
                    -82.907024,
                    39.923177
                  ],
                  [
                    -82.907028,
                    39.923187
                  ],
                  [
                    -82.907042,
                    39.923193
                  ]
                ]
              ]
            },
            "properties": {
              "id": 4,
              "area": 222722.74,
              "perimeter": 4026.35
            }
          },
          {
            "type": "Feature",
            "geometry": {
              "type": "Polygon",
              "coordinates": [
                [
                  [
                    -82.906895,
                    39.924037
                  ],
                  [
                    -82.906884,
                    39.924036
                  ],
                  [
                    -82.906886,
                    39.924007
                  ],
                  [
                    -82.90689,
                    39.924008
                  ],
                  [
                    -82.90689,
                    39.924001
                  ],
                  [
                    -82.906887,
                    39.924
                  ],
                  [
                    -82.906891,
                    39.923962
                  ],
                  [
                    -82.906902,
                    39.923963
                  ],
                  [
                    -82.906895,
                    39.924037
                  ]
                ]
              ]
            },
            "properties": {
              "id": 5,
              "area": 86.06,
              "perimeter": 62.64
            }
          },
          {
            "type": "Feature",
            "geometry": {
              "type": "Polygon",
              "coordinates": [
                [
                  [
                    -82.907385,
                    39.924
                  ],
                  [
                    -82.907372,
                    39.924157
                  ],
                  [
                    -82.907294,
                    39.924154
                  ],
                  [
                    -82.907303,
                    39.924061
                  ],
                  [
                    -82.906917,
                    39.924038
                  ],
                  [
                    -82.906924,
                    39.923964
                  ],
                  [
                    -82.907374,
                    39.923989
                  ],
                  [
                    -82.907377,
                    39.923991
                  ],
                  [
                    -82.907365,
                    39.923999
                  ],
                  [
                    -82.907376,
                    39.924007
                  ],
                  [
                    -82.907385,
                    39.924
                  ]
                ],
                [
                  [
                    -82.907287,
                    39.924026
                  ],
                  [
                    -82.907302,
                    39.924024
                  ],
                  [
                    -82.907304,
                    39.924014
                  ],
                  [
                    -82.907289,
                    39.924009
                  ],
                  [
                    -82.907282,
                    39.924012
                  ],
                  [
                    -82.907279,
                    39.924021
                  ],
                  [
                    -82.907287,
                    39.924026
                  ]
                ],
                [
                  [
                    -82.907186,
                    39.924027
                  ],
                  [
                    -82.907196,
                    39.924027
                  ],
                  [
                    -82.907202,
                    39.924023
                  ],
                  [
                    -82.9072,
                    39.924012
                  ],
                  [
                    -82.90719,
                    39.92401
                  ],
                  [
                    -82.907179,
                    39.924017
                  ],
                  [
                    -82.907179,
                    39.924024
                  ],
                  [
                    -82.907186,
                    39.924027
                  ]
                ],
                [
                  [
                    -82.907101,
                    39.924022
                  ],
                  [
                    -82.907112,
                    39.924026
                  ],
                  [
                    -82.907123,
                    39.924025
                  ],
                  [
                    -82.907128,
                    39.924013
                  ],
                  [
                    -82.907128,
                    39.924007
                  ],
                  [
                    -82.907119,
                    39.924
                  ],
                  [
                    -82.90711,
                    39.923999
                  ],
                  [
                    -82.907097,
                    39.924004
                  ],
                  [
                    -82.907094,
                    39.924008
                  ],
                  [
                    -82.907094,
                    39.924017
                  ],
                  [
                    -82.907101,
                    39.924022
                  ]
                ]
              ]
            },
            "properties": {
              "id": 6,
              "area": 4133.27,
              "perimeter": 462.96
            }
          },
          {
            "type": "Feature",
            "geometry": {
              "type": "Polygon",
              "coordinates": [
                [
                  [
                    -82.90627,
                    39.924232
                  ],
                  [
                    -82.906267,
                    39.924237
                  ],
                  [
                    -82.906111,
                    39.924227
                  ],
                  [
                    -82.906099,
                    39.924224
                  ],
                  [
                    -82.906094,
                    39.924215
                  ],
                  [
                    -82.906109,
                    39.92406
                  ],
                  [
                    -82.906121,
                    39.923965
                  ],
                  [
                    -82.906129,
                    39.923934
                  ],
                  [
                    -82.90614,
                    39.92392
                  ],
                  [
                    -82.906261,
                    39.923848
                  ],
                  [
                    -82.906307,
                    39.923852
                  ],
                  [
                    -82.906297,
                    39.923941
                  ],
                  [
                    -82.906192,
                    39.923938
                  ],
                  [
                    -82.906171,
                    39.92414
                  ],
                  [
                    -82.906277,
                    39.924148
                  ],
                  [
                    -82.90627,
                    39.924232
                  ]
                ]
              ]
            },
            "properties": {
              "id": 7,
              "area": 4089.94,
              "perimeter": 413.87
            }
          },
          {
            "type": "Feature",
            "geometry": {
              "type": "Polygon",
              "coordinates": [
                [
                  [
                    -82.906762,
                    39.924264
                  ],
                  [
                    -82.906292,
                    39.924239
                  ],
                  [
                    -82.906288,
                    39.924232
                  ],
                  [
                    -82.906291,
                    39.924208
                  ],
                  [
                    -82.906554,
                    39.924223
                  ],
                  [
                    -82.90656,
                    39.924136
                  ],
                  [
                    -82.906645,
                    39.924143
                  ],
                  [
                    -82.906639,
                    39.924209
                  ],
                  [
                    -82.906767,
                    39.924216
                  ],
                  [
                    -82.906762,
                    39.924264
                  ]
                ]
              ]
            },
            "properties": {
              "id": 8,
              "area": 2445.48,
              "perimeter": 350.81
            }
          },
          {
            "type": "Feature",
            "geometry": {
              "type": "Polygon",
              "coordinates": [
                [
                  [
                    -82.90736,
                    39.9243
                  ],
                  [
                    -82.907217,
                    39.924291
                  ],
                  [
                    -82.906795,
                    39.924267
                  ],
                  [
                    -82.906798,
                    39.92424
                  ],
                  [
                    -82.906823,
                    39.924241
                  ],
                  [
                    -82.906823,
                    39.924244
                  ],
                  [
                    -82.906833,
                    39.924245
                  ],
                  [
                    -82.906834,
                    39.924242
                  ],
                  [
                    -82.907282,
                    39.924269
                  ],
                  [
                    -82.907293,
                    39.924175
                  ],
                  [
                    -82.907371,
                    39.92418
                  ],
                  [
                    -82.90736,
                    39.9243
                  ]
                ]
              ]
            },
            "properties": {
              "id": 9,
              "area": 2299.53,
              "perimeter": 407.44
            }
          },
          {
            "type": "Feature",
            "geometry": {
              "type": "Polygon",
              "coordinates": [
                [
                  [
                    -82.907351,
                    39.9244
                  ],
                  [
                    -82.907328,
                    39.924398
                  ],
                  [
                    -82.905493,
                    39.924288
                  ],
                  [
                    -82.905525,
                    39.92427
                  ],
                  [
                    -82.905642,
                    39.924226
                  ],
                  [
                    -82.905885,
                    39.924239
                  ],
                  [
                    -82.905973,
                    39.92424
                  ],
                  [
                    -82.906201,
                    39.924256
                  ],
                  [
                    -82.906228,
                    39.924272
                  ],
                  [
                    -82.906241,
                    39.924275
                  ],
                  [
                    -82.906343,
                    39.924287
                  ],
                  [
                    -82.906358,
                    39.924286
                  ],
                  [
                    -82.906404,
                    39.924269
                  ],
                  [
                    -82.90642,
                    39.924269
                  ],
                  [
                    -82.907358,
                    39.924321
                  ],
                  [
                    -82.907351,
                    39.9244
                  ]
                ]
              ]
            },
            "properties": {
              "id": 10,
              "area": 13458.94,
              "perimeter": 1085.59
            }
          }
        ]
      }
    }
  ],
  "input": {
    "id": "303fe7ea-e202-4229-b477-3d1e5497974d",
    "address": "2360 Garnet Place, Columbus, OH, USA",
    "aoi_geojson": {
      "type": "FeatureCollection",
      "features": [
        {
          "type": "Feature",
          "geometry": {
            "type": "Polygon",
            "coordinates": [
              [
                [
                  -82.905483,
                  39.923087
                ],
                [
                  -82.907965,
                  39.923232
                ],
                [
                  -82.907858,
                  39.924428
                ],
                [
                  -82.907328,
                  39.924398
                ],
                [
                  -82.905548,
                  39.924293
                ],
                [
                  -82.905375,
                  39.924282
                ],
                [
                  -82.905483,
                  39.923087
                ]
              ]
            ]
          },
          "properties": {}
        }
      ]
    },
    "parcel_area": 361788,
    "name": "Parcel",
    "lat": null,
    "lon": null,
    "is_edited": false
  },
  "status": 3,
  "additional_seconds": 0,
  "eta": 4015.5,
  "initial_eta": 4015.5,
  "completed_at": "2021-05-04T19:11:15.048150+05:30",
  "generated_at": "2021-05-04T18:37:47.216587+05:30",
  "created_at": "2021-05-04T18:37:37.550915+05:30",
  "is_eta_update": false,
  "feature_report": {
    "id": "17854716-6609-4797-aeda-14490ab3c5e0",
    "name": "Lawn Report",
    "description": "Lawn measurement, ideal for all properties.",
    "features": [
      {
        "id": "73ddf02e-a068-45f7-a2a1-77c9ec207a3c",
        "name": "Lawn",
        "identifier": "lawn"
      }
    ],
    "attributes": {
      "id": "71a8d434-5427-4366-9aef-91306e0ad796",
      "min_threshold_price": 0.2,
      "max_threshold_price": 0.12,
      "first_range_price": 0.17,
      "second_range_price": 0.14,
      "min_threshold_area": 50000,
      "mid_threshold_area": 200000,
      "max_threshold_area": 1000000,
      "feature_report_definition": null,
      "average_time": 720,
      "average_time_exceed": 360,
      "pdf_sample": "https://storage.googleapis.com/falcon-prod-filestore/prod/pdf_samples/2021_4_20/LAWN_REPORT.pdf",
      "excel_sample": "https://storage.googleapis.com/falcon-prod-filestore/prod/excel_samples/2021_4_20/Lawn_Report___Sample_2.xlsx",
      "order": 1,
      "is_default": false
    }
  },
  "job_id_map": {
    "ml_process": {
      "FalconHardscape": "4f352fde-bfbf-49d0-920b-6218b584e9b8"
    },
    "qa_process": "161f0df7-0122-4f75-8597-dc9fcb338a80",
    "qc_process": "a4262629-9ec4-45af-8c9e-2d2d58253fb4",
    "imagery_fetching_process": "8a21957b-8612-4f33-b35d-48d69bab3288",
    "parcel_correction_process": "0a2d1427-6b09-4d4d-b1a9-b70b3f677c21",
    "parcel_correction_qa_process": "06f779f9-7313-4e18-853f-a08037865ddd"
  },
  "tiff_url": "https://storage.googleapis.com/autofx-outputs/ImageryFetchingProcessV3/8a21957b-8612-4f33-b35d-48d69bab3288/output_tiff.tif",
  "feedback": {},
  "is_sample": false,
  "shareable_link": "https://app.attentive.ai/shared-view?id=c8d9e7ac-06f7-48ff-84f0-ca14ea93767d",
  "features": [
    {
      "id": "73ddf02e-a068-45f7-a2a1-77c9ec207a3c",
      "name": "Lawn",
      "identifier": "lawn"
    }
  ]
}