{
  "id": "bebccab6-b806-40cf-8db2-ad4f5e853eed",
  "outputs": [
    {
      "id": "63ff8657-a246-4cbb-9cd5-c207e36da713",
      "feature": {
        "id": "73ddf02e-a068-45f7-a2a1-77c9ec207a3c",
        "name": "Lawn",
        "geometry_type": 3,
        "is_custom": false
      },
      "style": {
        "color": "#00ff33",
        "width": 6,
        "opacity": 0.1,
        "is_visible": true,
        "layer_order": 1
      },
      "measurements": [
        {
          "name": "area",
          "value": 264491,
          "unit": "sqft"
        },
        {
          "name": "perimeter",
          "value": 7295,
          "unit": "ft"
        }
      ],
      "output_geojson": {
        "type": "FeatureCollection",
        "features": [
          {
            "type": "Feature",
            "geometry": {
              "type": "Polygon",
              "coordinates": [
                [
                  [
                    -82.907059,
                    39.923855
                  ],
                  [
                    -82.907066,
                    39.923766
                  ],
                  [
                    -82.906967,
                    39.923759
                  ],
                  [
                    -82.906972,
                    39.923686
                  ],
                  [
                    -82.906854,
                    39.923679
                  ],
                  [
                    -82.906856,
                    39.923656
                  ],
                  [
                    -82.907101,
                    39.923671
                  ],
                  [
                    -82.907085,
                    39.923857
                  ],
                  [
                    -82.907059,
                    39.923855
                  ]
                ]
              ]
            },
            "properties": {
              "id": 1,
              "area": 1770.04,
              "perimeter": 272.77
            }
          },
          {
            "type": "Feature",
            "geometry": {
              "type": "Polygon",
              "coordinates": [
                [
                  [
                    -82.906585,
                    39.923899
                  ],
                  [
                    -82.906324,
                    39.923884
                  ],
                  [
                    -82.906324,
                    39.923853
                  ],
                  [
                    -82.906438,
                    39.923854
                  ],
                  [
                    -82.906588,
                    39.923867
                  ],
                  [
                    -82.906585,
                    39.923899
                  ]
                ]
              ]
            },
            "properties": {
              "id": 2,
              "area": 915.11,
              "perimeter": 170.71
            }
          },
          {
            "type": "Feature",
            "geometry": {
              "type": "Polygon",
              "coordinates": [
                [
                  [
                    -82.907075,
                    39.923946
                  ],
                  [
                    -82.906897,
                    39.923935
                  ],
                  [
                    -82.906896,
                    39.923928
                  ],
                  [
                    -82.907051,
                    39.923936
                  ],
                  [
                    -82.907055,
                    39.923877
                  ],
                  [
                    -82.907082,
                    39.923878
                  ],
                  [
                    -82.907075,
                    39.923946
                  ]
                ]
              ]
            },
            "properties": {
              "id": 3,
              "area": 301.0,
              "perimeter": 150.18
            }
          },
          {
            "type": "Feature",
            "geometry": {
              "type": "Polygon",
              "coordinates": [
                [
                  [
                    -82.907495,
                    39.924424
                  ],
                  [
                    -82.907472,
                    39.924423
                  ],
                  [
                    -82.907483,
                    39.924345
                  ],
                  [
                    -82.907488,
                    39.924343
                  ],
                  [
                    -82.907484,
                    39.92431
                  ],
                  [
                    -82.907507,
                    39.924055
                  ],
                  [
                    -82.907534,
                    39.924056
                  ],
                  [
                    -82.907534,
                    39.92407
                  ],
                  [
                    -82.907581,
                    39.924072
                  ],
                  [
                    -82.907582,
                    39.924057
                  ],
                  [
                    -82.907581,
                    39.924037
                  ],
                  [
                    -82.90751,
                    39.924032
                  ],
                  [
                    -82.907513,
                    39.924016
                  ],
                  [
                    -82.907539,
                    39.924018
                  ],
                  [
                    -82.907539,
                    39.924028
                  ],
                  [
                    -82.907577,
                    39.924029
                  ],
                  [
                    -82.907578,
                    39.923994
                  ],
                  [
                    -82.907541,
                    39.923993
                  ],
                  [
                    -82.90754,
                    39.924001
                  ],
                  [
                    -82.907518,
                    39.923999
                  ],
                  [
                    -82.907531,
                    39.923979
                  ],
                  [
                    -82.907542,
                    39.923969
                  ],
                  [
                    -82.907558,
                    39.923965
                  ],
                  [
                    -82.907781,
                    39.923972
                  ],
                  [
                    -82.907784,
                    39.92397
                  ],
                  [
                    -82.907815,
                    39.923677
                  ],
                  [
                    -82.907731,
                    39.923671
                  ],
                  [
                    -82.907722,
                    39.923662
                  ],
                  [
                    -82.90772,
                    39.923655
                  ],
                  [
                    -82.90772,
                    39.923618
                  ],
                  [
                    -82.907143,
                    39.923586
                  ],
                  [
                    -82.907133,
                    39.923638
                  ],
                  [
                    -82.906983,
                    39.92363
                  ],
                  [
                    -82.906977,
                    39.923622
                  ],
                  [
                    -82.90698,
                    39.923566
                  ],
                  [
                    -82.906709,
                    39.92355
                  ],
                  [
                    -82.906689,
                    39.923541
                  ],
                  [
                    -82.906681,
                    39.923532
                  ],
                  [
                    -82.906686,
                    39.92346
                  ],
                  [
                    -82.90652,
                    39.923453
                  ],
                  [
                    -82.906537,
                    39.923237
                  ],
                  [
                    -82.906499,
                    39.923198
                  ],
                  [
                    -82.906475,
                    39.923167
                  ],
                  [
                    -82.906449,
                    39.923159
                  ],
                  [
                    -82.90642,
                    39.923159
                  ],
                  [
                    -82.906375,
                    39.923171
                  ],
                  [
                    -82.906362,
                    39.923193
                  ],
                  [
                    -82.906349,
                    39.923207
                  ],
                  [
                    -82.906345,
                    39.923229
                  ],
                  [
                    -82.906341,
                    39.92344
                  ],
                  [
                    -82.906276,
                    39.923439
                  ],
                  [
                    -82.906235,
                    39.923836
                  ],
                  [
                    -82.906225,
                    39.923845
                  ],
                  [
                    -82.906111,
                    39.923909
                  ],
                  [
                    -82.906101,
                    39.923924
                  ],
                  [
                    -82.906094,
                    39.923956
                  ],
                  [
                    -82.906066,
                    39.924216
                  ],
                  [
                    -82.906063,
                    39.924224
                  ],
                  [
                    -82.906033,
                    39.924227
                  ],
                  [
                    -82.905638,
                    39.924203
                  ],
                  [
                    -82.9056,
                    39.924213
                  ],
                  [
                    -82.905476,
                    39.924266
                  ],
                  [
                    -82.905423,
                    39.924292
                  ],
                  [
                    -82.905407,
                    39.924296
                  ],
                  [
                    -82.90543,
                    39.924235
                  ],
                  [
                    -82.905437,
                    39.924194
                  ],
                  [
                    -82.90549,
                    39.92376
                  ],
                  [
                    -82.905508,
                    39.923672
                  ],
                  [
                    -82.905575,
                    39.923259
                  ],
                  [
                    -82.905594,
                    39.923182
                  ],
                  [
                    -82.905599,
                    39.923046
                  ],
                  [
                    -82.905615,
                    39.922782
                  ],
                  [
                    -82.907981,
                    39.922932
                  ],
                  [
                    -82.907869,
                    39.924433
                  ],
                  [
                    -82.907832,
                    39.924431
                  ],
                  [
                    -82.907741,
                    39.924438
                  ],
                  [
                    -82.907509,
                    39.924425
                  ],
                  [
                    -82.907509,
                    39.924421
                  ],
                  [
                    -82.907495,
                    39.924421
                  ],
                  [
                    -82.907495,
                    39.924424
                  ]
                ],
                [
                  [
                    -82.907017,
                    39.923195
                  ],
                  [
                    -82.907053,
                    39.923206
                  ],
                  [
                    -82.907092,
                    39.923197
                  ],
                  [
                    -82.907102,
                    39.923177
                  ],
                  [
                    -82.907075,
                    39.923159
                  ],
                  [
                    -82.907037,
                    39.92315
                  ],
                  [
                    -82.906998,
                    39.923156
                  ],
                  [
                    -82.906982,
                    39.923169
                  ],
                  [
                    -82.906994,
                    39.923188
                  ],
                  [
                    -82.907017,
                    39.923195
                  ]
                ],
                [
                  [
                    -82.906549,
                    39.923163
                  ],
                  [
                    -82.906589,
                    39.92317
                  ],
                  [
                    -82.906621,
                    39.923163
                  ],
                  [
                    -82.906616,
                    39.923133
                  ],
                  [
                    -82.906523,
                    39.923102
                  ],
                  [
                    -82.906485,
                    39.923096
                  ],
                  [
                    -82.906439,
                    39.923099
                  ],
                  [
                    -82.906377,
                    39.923111
                  ],
                  [
                    -82.906328,
                    39.923135
                  ],
                  [
                    -82.906327,
                    39.923148
                  ],
                  [
                    -82.906445,
                    39.92314
                  ],
                  [
                    -82.906498,
                    39.923147
                  ],
                  [
                    -82.90654,
                    39.923164
                  ],
                  [
                    -82.906549,
                    39.923163
                  ]
                ],
                [
                  [
                    -82.907522,
                    39.92425
                  ],
                  [
                    -82.90753,
                    39.92425
                  ],
                  [
                    -82.907534,
                    39.924244
                  ],
                  [
                    -82.907525,
                    39.924236
                  ],
                  [
                    -82.907516,
                    39.92424
                  ],
                  [
                    -82.907517,
                    39.924249
                  ],
                  [
                    -82.907522,
                    39.92425
                  ]
                ],
                [
                  [
                    -82.907528,
                    39.92415
                  ],
                  [
                    -82.907544,
                    39.92414
                  ],
                  [
                    -82.907544,
                    39.924131
                  ],
                  [
                    -82.907536,
                    39.924124
                  ],
                  [
                    -82.907527,
                    39.924123
                  ],
                  [
                    -82.907518,
                    39.924127
                  ],
                  [
                    -82.907516,
                    39.924131
                  ],
                  [
                    -82.90752,
                    39.924147
                  ],
                  [
                    -82.907528,
                    39.92415
                  ]
                ],
                [
                  [
                    -82.907514,
                    39.924378
                  ],
                  [
                    -82.907587,
                    39.92438
                  ],
                  [
                    -82.907587,
                    39.924375
                  ],
                  [
                    -82.907512,
                    39.924373
                  ],
                  [
                    -82.907514,
                    39.924378
                  ]
                ]
              ]
            },
            "properties": {
              "id": 4,
              "area": 233786.64,
              "perimeter": 3892.05
            }
          },
          {
            "type": "Feature",
            "geometry": {
              "type": "Polygon",
              "coordinates": [
                [
                  [
                    -82.906896,
                    39.924037
                  ],
                  [
                    -82.906884,
                    39.924036
                  ],
                  [
                    -82.906891,
                    39.923962
                  ],
                  [
                    -82.906902,
                    39.923963
                  ],
                  [
                    -82.906896,
                    39.924037
                  ]
                ]
              ]
            },
            "properties": {
              "id": 5,
              "area": 87.61,
              "perimeter": 60.53
            }
          },
          {
            "type": "Feature",
            "geometry": {
              "type": "Polygon",
              "coordinates": [
                [
                  [
                    -82.907374,
                    39.924158
                  ],
                  [
                    -82.907295,
                    39.924154
                  ],
                  [
                    -82.907302,
                    39.924062
                  ],
                  [
                    -82.906915,
                    39.924038
                  ],
                  [
                    -82.906923,
                    39.923963
                  ],
                  [
                    -82.907375,
                    39.923988
                  ],
                  [
                    -82.907387,
                    39.924001
                  ],
                  [
                    -82.907374,
                    39.924158
                  ]
                ],
                [
                  [
                    -82.907289,
                    39.924027
                  ],
                  [
                    -82.907302,
                    39.924022
                  ],
                  [
                    -82.907301,
                    39.924011
                  ],
                  [
                    -82.907293,
                    39.924007
                  ],
                  [
                    -82.90728,
                    39.924006
                  ],
                  [
                    -82.907272,
                    39.924021
                  ],
                  [
                    -82.907282,
                    39.924027
                  ],
                  [
                    -82.907289,
                    39.924027
                  ]
                ],
                [
                  [
                    -82.907194,
                    39.924022
                  ],
                  [
                    -82.907206,
                    39.92402
                  ],
                  [
                    -82.907207,
                    39.924006
                  ],
                  [
                    -82.907194,
                    39.924001
                  ],
                  [
                    -82.907182,
                    39.924002
                  ],
                  [
                    -82.907177,
                    39.924011
                  ],
                  [
                    -82.907177,
                    39.924019
                  ],
                  [
                    -82.907194,
                    39.924022
                  ]
                ],
                [
                  [
                    -82.907116,
                    39.924018
                  ],
                  [
                    -82.907123,
                    39.924016
                  ],
                  [
                    -82.907125,
                    39.924003
                  ],
                  [
                    -82.907122,
                    39.923999
                  ],
                  [
                    -82.907105,
                    39.923999
                  ],
                  [
                    -82.9071,
                    39.924008
                  ],
                  [
                    -82.907103,
                    39.924018
                  ],
                  [
                    -82.907116,
                    39.924018
                  ]
                ]
              ]
            },
            "properties": {
              "id": 6,
              "area": 4260.18,
              "perimeter": 459.83
            }
          },
          {
            "type": "Feature",
            "geometry": {
              "type": "Polygon",
              "coordinates": [
                [
                  [
                    -82.906298,
                    39.923943
                  ],
                  [
                    -82.906192,
                    39.923937
                  ],
                  [
                    -82.906174,
                    39.924141
                  ],
                  [
                    -82.90628,
                    39.924148
                  ],
                  [
                    -82.90627,
                    39.924236
                  ],
                  [
                    -82.906262,
                    39.924238
                  ],
                  [
                    -82.906101,
                    39.924227
                  ],
                  [
                    -82.906094,
                    39.92422
                  ],
                  [
                    -82.906093,
                    39.924209
                  ],
                  [
                    -82.906129,
                    39.923933
                  ],
                  [
                    -82.906132,
                    39.923927
                  ],
                  [
                    -82.906149,
                    39.923914
                  ],
                  [
                    -82.906262,
                    39.923848
                  ],
                  [
                    -82.906305,
                    39.923851
                  ],
                  [
                    -82.906298,
                    39.923943
                  ]
                ]
              ]
            },
            "properties": {
              "id": 7,
              "area": 4113.0,
              "perimeter": 416.83
            }
          },
          {
            "type": "Feature",
            "geometry": {
              "type": "Polygon",
              "coordinates": [
                [
                  [
                    -82.906763,
                    39.924265
                  ],
                  [
                    -82.906296,
                    39.924239
                  ],
                  [
                    -82.90629,
                    39.924237
                  ],
                  [
                    -82.906288,
                    39.924228
                  ],
                  [
                    -82.906291,
                    39.924208
                  ],
                  [
                    -82.906553,
                    39.924224
                  ],
                  [
                    -82.906561,
                    39.924137
                  ],
                  [
                    -82.906647,
                    39.924143
                  ],
                  [
                    -82.906641,
                    39.924209
                  ],
                  [
                    -82.906768,
                    39.924217
                  ],
                  [
                    -82.906763,
                    39.924265
                  ]
                ]
              ]
            },
            "properties": {
              "id": 8,
              "area": 2457.96,
              "perimeter": 350.92
            }
          },
          {
            "type": "Feature",
            "geometry": {
              "type": "Polygon",
              "coordinates": [
                [
                  [
                    -82.907361,
                    39.924299
                  ],
                  [
                    -82.906798,
                    39.924267
                  ],
                  [
                    -82.906799,
                    39.924241
                  ],
                  [
                    -82.907283,
                    39.924269
                  ],
                  [
                    -82.907293,
                    39.924176
                  ],
                  [
                    -82.907371,
                    39.92418
                  ],
                  [
                    -82.907361,
                    39.924299
                  ]
                ]
              ]
            },
            "properties": {
              "id": 9,
              "area": 2241.76,
              "perimeter": 403.32
            }
          },
          {
            "type": "Feature",
            "geometry": {
              "type": "Polygon",
              "coordinates": [
                [
                  [
                    -82.905487,
                    39.924305
                  ],
                  [
                    -82.90546,
                    39.924303
                  ],
                  [
                    -82.905517,
                    39.924273
                  ],
                  [
                    -82.905581,
                    39.924245
                  ],
                  [
                    -82.905643,
                    39.924225
                  ],
                  [
                    -82.905658,
                    39.924225
                  ],
                  [
                    -82.905691,
                    39.924229
                  ],
                  [
                    -82.906105,
                    39.924248
                  ],
                  [
                    -82.906205,
                    39.924258
                  ],
                  [
                    -82.906237,
                    39.924275
                  ],
                  [
                    -82.906335,
                    39.924286
                  ],
                  [
                    -82.906357,
                    39.924286
                  ],
                  [
                    -82.906406,
                    39.924268
                  ],
                  [
                    -82.907357,
                    39.924322
                  ],
                  [
                    -82.90735,
                    39.924415
                  ],
                  [
                    -82.907095,
                    39.9244
                  ],
                  [
                    -82.907094,
                    39.924391
                  ],
                  [
                    -82.906776,
                    39.924376
                  ],
                  [
                    -82.906743,
                    39.924364
                  ],
                  [
                    -82.906715,
                    39.924366
                  ],
                  [
                    -82.906707,
                    39.924372
                  ],
                  [
                    -82.906498,
                    39.924362
                  ],
                  [
                    -82.906478,
                    39.924353
                  ],
                  [
                    -82.906424,
                    39.924348
                  ],
                  [
                    -82.906137,
                    39.924331
                  ],
                  [
                    -82.905826,
                    39.924299
                  ],
                  [
                    -82.905761,
                    39.924295
                  ],
                  [
                    -82.905685,
                    39.924297
                  ],
                  [
                    -82.905663,
                    39.924303
                  ],
                  [
                    -82.905599,
                    39.924299
                  ],
                  [
                    -82.905567,
                    39.924291
                  ],
                  [
                    -82.905541,
                    39.924291
                  ],
                  [
                    -82.905487,
                    39.924305
                  ]
                ]
              ]
            },
            "properties": {
              "id": 10,
              "area": 14557.51,
              "perimeter": 1117.91
            }
          }
        ]
      }
    }
  ],
  "input": {
    "id": "fffff242-e4df-47d8-a152-aa11f4deb612",
    "address": "2360 Garnet Place, Columbus, OH, USA",
    "aoi_geojson": {
      "type": "FeatureCollection",
      "features": [
        {
          "type": "Feature",
          "geometry": {
            "type": "Polygon",
            "coordinates": [
              [
                [
                  -82.905483,
                  39.923087
                ],
                [
                  -82.907965,
                  39.923232
                ],
                [
                  -82.907858,
                  39.924428
                ],
                [
                  -82.907328,
                  39.924398
                ],
                [
                  -82.905548,
                  39.924293
                ],
                [
                  -82.905375,
                  39.924282
                ],
                [
                  -82.905483,
                  39.923087
                ]
              ]
            ]
          },
          "properties": {}
        }
      ]
    },
    "parcel_area": 379268,
    "name": "Parcel",
    "lat": null,
    "lon": null,
    "is_edited": false
  },
  "status": 3,
  "additional_seconds": 0,
  "eta": 60.0,
  "initial_eta": 60.0,
  "completed_at": null,
  "generated_at": "2021-04-22T21:33:38.386132+05:30",
  "created_at": "2021-04-22T21:32:43.684532+05:30",
  "is_eta_update": false,
  "feature_report": {
    "id": "17854716-6609-4797-aeda-14490ab3c5e0",
    "name": "Lawn Report",
    "description": "Lawn measurement, ideal for all properties.",
    "features": [
      {
        "id": "73ddf02e-a068-45f7-a2a1-77c9ec207a3c",
        "name": "Lawn",
        "identifier": "lawn"
      }
    ],
    "attributes": {
      "id": "71a8d434-5427-4366-9aef-91306e0ad796",
      "min_threshold_price": 0.2,
      "max_threshold_price": 0.12,
      "first_range_price": 0.17,
      "second_range_price": 0.14,
      "min_threshold_area": 50000,
      "mid_threshold_area": 200000,
      "max_threshold_area": 1000000,
      "feature_report_definition": null,
      "average_time": 720,
      "average_time_exceed": 360,
      "pdf_sample": "https://storage.googleapis.com/falcon-prod-filestore/prod/pdf_samples/2021_4_20/LAWN_REPORT.pdf",
      "excel_sample": "https://storage.googleapis.com/falcon-prod-filestore/prod/excel_samples/2021_4_20/Lawn_Report___Sample_2.xlsx",
      "order": 1,
      "is_default": false
    }
  },
  "job_id_map": {},
  "tiff_url": null,
  "feedback": {},
  "is_sample": false,
  "shareable_link": "https://app.attentive.ai/shared-view?id=917727de-2b83-4ad2-bc76-1fcd02edf8b5",
  "features": [
    {
      "id": "73ddf02e-a068-45f7-a2a1-77c9ec207a3c",
      "name": "Lawn",
      "identifier": "lawn"
    }
  ]
}