{
  "id": "f6e48137-8b68-4fc9-a40b-d666062bed9a",
  "outputs": [
    {
      "id": "a039b9ce-a6af-4dda-81eb-8ad2d27a6eeb",
      "feature": {
        "id": "73ddf02e-a068-45f7-a2a1-77c9ec207a3c",
        "name": "Lawn",
        "geometry_type": 3,
        "is_custom": false
      },
      "style": {
        "color": "#FF00A7",
        "width": 3,
        "opacity": 0.3,
        "is_visible": true,
        "layer_order": 1
      },
      "measurements": [
        {
          "name": "area",
          "value": 6956,
          "unit": "sqft"
        },
        {
          "name": "perimeter",
          "value": 1742,
          "unit": "ft"
        }
      ],
      "output_geojson": {
        "type": "FeatureCollection",
        "features": [
          {
            "type": "Feature",
            "geometry": {
              "type": "Polygon",
              "coordinates": [
                [
                  [
                    -81.63275,
                    30.142062
                  ],
                  [
                    -81.632776,
                    30.142056
                  ],
                  [
                    -81.632777,
                    30.142214
                  ],
                  [
                    -81.632754,
                    30.142188
                  ],
                  [
                    -81.63275,
                    30.142062
                  ]
                ]
              ]
            },
            "properties": {
              "id": 1,
              "area": 397.1,
              "perimeter": 123.75
            }
          },
          {
            "type": "Feature",
            "geometry": {
              "type": "Polygon",
              "coordinates": [
                [
                  [
                    -81.633623,
                    30.142231
                  ],
                  [
                    -81.633199,
                    30.142329
                  ],
                  [
                    -81.632892,
                    30.1424
                  ],
                  [
                    -81.63288,
                    30.142375
                  ],
                  [
                    -81.632797,
                    30.142393
                  ],
                  [
                    -81.632796,
                    30.142349
                  ],
                  [
                    -81.632821,
                    30.142335
                  ],
                  [
                    -81.632902,
                    30.142312
                  ],
                  [
                    -81.632911,
                    30.142312
                  ],
                  [
                    -81.63292,
                    30.142332
                  ],
                  [
                    -81.632904,
                    30.142335
                  ],
                  [
                    -81.632906,
                    30.142346
                  ],
                  [
                    -81.632922,
                    30.142349
                  ],
                  [
                    -81.632925,
                    30.14236
                  ],
                  [
                    -81.633244,
                    30.142291
                  ],
                  [
                    -81.633597,
                    30.14221
                  ],
                  [
                    -81.633555,
                    30.142048
                  ],
                  [
                    -81.633564,
                    30.142045
                  ],
                  [
                    -81.633543,
                    30.141978
                  ],
                  [
                    -81.633551,
                    30.141974
                  ],
                  [
                    -81.633614,
                    30.142206
                  ],
                  [
                    -81.633622,
                    30.142204
                  ],
                  [
                    -81.633623,
                    30.142231
                  ]
                ]
              ]
            },
            "properties": {
              "id": 2,
              "area": 3533.05,
              "perimeter": 767.63
            }
          },
          {
            "type": "Feature",
            "geometry": {
              "type": "Polygon",
              "coordinates": [
                [
                  [
                    -81.632779,
                    30.142427
                  ],
                  [
                    -81.632756,
                    30.142432
                  ],
                  [
                    -81.632764,
                    30.142378
                  ],
                  [
                    -81.632776,
                    30.142362
                  ],
                  [
                    -81.632779,
                    30.142427
                  ]
                ]
              ]
            },
            "properties": {
              "id": 3,
              "area": 116.69,
              "perimeter": 57.9
            }
          },
          {
            "type": "Feature",
            "geometry": {
              "type": "Polygon",
              "coordinates": [
                [
                  [
                    -81.633521,
                    30.142227
                  ],
                  [
                    -81.633505,
                    30.142208
                  ],
                  [
                    -81.633497,
                    30.142185
                  ],
                  [
                    -81.633505,
                    30.142175
                  ],
                  [
                    -81.633515,
                    30.142169
                  ],
                  [
                    -81.633529,
                    30.142169
                  ],
                  [
                    -81.633539,
                    30.142176
                  ],
                  [
                    -81.633551,
                    30.14222
                  ],
                  [
                    -81.633521,
                    30.142227
                  ]
                ]
              ]
            },
            "properties": {
              "id": 4,
              "area": 244.88,
              "perimeter": 60.33
            }
          },
          {
            "type": "Feature",
            "geometry": {
              "type": "Polygon",
              "coordinates": [
                [
                  [
                    -81.632793,
                    30.142052
                  ],
                  [
                    -81.632947,
                    30.142018
                  ],
                  [
                    -81.633546,
                    30.141885
                  ],
                  [
                    -81.63356,
                    30.141931
                  ],
                  [
                    -81.633531,
                    30.141938
                  ],
                  [
                    -81.633521,
                    30.141903
                  ],
                  [
                    -81.633061,
                    30.142005
                  ],
                  [
                    -81.633062,
                    30.142008
                  ],
                  [
                    -81.632927,
                    30.142034
                  ],
                  [
                    -81.632934,
                    30.142084
                  ],
                  [
                    -81.632809,
                    30.142101
                  ],
                  [
                    -81.632823,
                    30.142228
                  ],
                  [
                    -81.632912,
                    30.14223
                  ],
                  [
                    -81.632918,
                    30.142249
                  ],
                  [
                    -81.632848,
                    30.142265
                  ],
                  [
                    -81.632789,
                    30.142237
                  ],
                  [
                    -81.632793,
                    30.142052
                  ]
                ]
              ]
            },
            "properties": {
              "id": 5,
              "area": 2664.12,
              "perimeter": 731.98
            }
          }
        ]
      }
    }
  ],
  "input": {
    "id": "4912007f-f58a-4ebf-9a5b-e450d10b397e",
    "address": "12428 San Jose Boulevard, Jacksonville, FL, USA",
    "aoi_geojson": {
      "type": "FeatureCollection",
      "features": [
        {
          "type": "Feature",
          "geometry": {
            "type": "Polygon",
            "coordinates": [
              [
                [
                  -81.633745,
                  30.141839
                ],
                [
                  -81.633747,
                  30.142202
                ],
                [
                  -81.632798,
                  30.142417
                ],
                [
                  -81.632797,
                  30.142051
                ],
                [
                  -81.633745,
                  30.141839
                ]
              ]
            ]
          },
          "properties": {}
        }
      ]
    },
    "parcel_area": 41742,
    "name": "Parcel",
    "lat": null,
    "lon": null,
    "is_edited": false
  },
  "status": 3,
  "additional_seconds": 0,
  "eta": 60.0,
  "initial_eta": 60.0,
  "completed_at": null,
  "generated_at": null,
  "created_at": "2021-03-18T00:03:36.114767+05:30",
  "is_eta_update": false,
  "feature_report": {
    "id": "17854716-6609-4797-aeda-14490ab3c5e0",
    "name": "Lawn Report",
    "description": "Lawn measurement, ideal for all properties.",
    "features": [
      {
        "id": "73ddf02e-a068-45f7-a2a1-77c9ec207a3c",
        "name": "Lawn",
        "identifier": "lawn"
      }
    ],
    "attributes": {
      "id": "71a8d434-5427-4366-9aef-91306e0ad796",
      "min_threshold_price": 0.2,
      "max_threshold_price": 0.12,
      "first_range_price": 0.17,
      "second_range_price": 0.14,
      "min_threshold_area": 50000,
      "mid_threshold_area": 200000,
      "max_threshold_area": 1000000,
      "feature_report_definition": null,
      "average_time": 720,
      "average_time_exceed": 360,
      "pdf_sample": "https://storage.googleapis.com/falcon-prod-filestore/prod/pdf_samples/2021_4_20/LAWN_REPORT.pdf",
      "excel_sample": "https://storage.googleapis.com/falcon-prod-filestore/prod/excel_samples/2021_4_20/Lawn_Report___Sample_2.xlsx",
      "order": 1,
      "is_default": false
    }
  },
  "job_id_map": {},
  "tiff_url": null,
  "feedback": {},
  "is_sample": false,
  "shareable_link": "",
  "features": [
    {
      "id": "73ddf02e-a068-45f7-a2a1-77c9ec207a3c",
      "name": "Lawn",
      "identifier": "lawn"
    }
  ]
}