{
  "id": "f6f7572c-a1c8-4cee-8226-8b4ce0a16d01",
  "outputs": [
    {
      "id": "3650a66d-2815-467b-ae6b-1fc69d038b70",
      "feature": {
        "id": "73ddf02e-a068-45f7-a2a1-77c9ec207a3c",
        "name": "Lawn",
        "geometry_type": 3,
        "is_custom": false
      },
      "style": {
        "color": "#67E401",
        "width": 1,
        "opacity": 0.3,
        "is_visible": true,
        "layer_order": 1
      },
      "measurements": [
        {
          "name": "area",
          "value": 7659,
          "unit": "sqft"
        },
        {
          "name": "perimeter",
          "value": 1001,
          "unit": "ft"
        }
      ],
      "output_geojson": {
        "type": "FeatureCollection",
        "features": [
          {
            "type": "Feature",
            "geometry": {
              "type": "Polygon",
              "coordinates": [
                [
                  [
                    -84.239675,
                    39.337762
                  ],
                  [
                    -84.239638,
                    39.337755
                  ],
                  [
                    -84.239636,
                    39.337762
                  ],
                  [
                    -84.23963,
                    39.337773
                  ],
                  [
                    -84.239628,
                    39.337778
                  ],
                  [
                    -84.239654,
                    39.337803
                  ],
                  [
                    -84.239663,
                    39.33779
                  ],
                  [
                    -84.239671,
                    39.337776
                  ],
                  [
                    -84.239673,
                    39.337768
                  ],
                  [
                    -84.239675,
                    39.337762
                  ]
                ],
                [
                  [
                    -84.239644,
                    39.337777
                  ],
                  [
                    -84.239641,
                    39.337778
                  ],
                  [
                    -84.23964,
                    39.337779
                  ],
                  [
                    -84.239639,
                    39.33778
                  ],
                  [
                    -84.239638,
                    39.337782
                  ],
                  [
                    -84.239638,
                    39.337783
                  ],
                  [
                    -84.239639,
                    39.337785
                  ],
                  [
                    -84.23964,
                    39.337786
                  ],
                  [
                    -84.239642,
                    39.337787
                  ],
                  [
                    -84.239644,
                    39.337789
                  ],
                  [
                    -84.239646,
                    39.33779
                  ],
                  [
                    -84.239648,
                    39.33779
                  ],
                  [
                    -84.239649,
                    39.33779
                  ],
                  [
                    -84.239652,
                    39.33779
                  ],
                  [
                    -84.239654,
                    39.337789
                  ],
                  [
                    -84.239655,
                    39.337788
                  ],
                  [
                    -84.239656,
                    39.337787
                  ],
                  [
                    -84.239656,
                    39.337785
                  ],
                  [
                    -84.239655,
                    39.337781
                  ],
                  [
                    -84.239655,
                    39.337781
                  ],
                  [
                    -84.239653,
                    39.337779
                  ],
                  [
                    -84.239652,
                    39.337778
                  ],
                  [
                    -84.23965,
                    39.337778
                  ],
                  [
                    -84.239648,
                    39.337777
                  ],
                  [
                    -84.239647,
                    39.337777
                  ],
                  [
                    -84.239647,
                    39.337777
                  ],
                  [
                    -84.239644,
                    39.337777
                  ]
                ]
              ]
            },
            "properties": {
              "id": 1,
              "area": 117.61,
              "perimeter": 63.29
            }
          },
          {
            "type": "Feature",
            "geometry": {
              "type": "Polygon",
              "coordinates": [
                [
                  [
                    -84.240113,
                    39.337922
                  ],
                  [
                    -84.239891,
                    39.338169
                  ],
                  [
                    -84.239599,
                    39.337864
                  ],
                  [
                    -84.239629,
                    39.337847
                  ],
                  [
                    -84.23968,
                    39.337881
                  ],
                  [
                    -84.239673,
                    39.337891
                  ],
                  [
                    -84.239674,
                    39.337896
                  ],
                  [
                    -84.239693,
                    39.337916
                  ],
                  [
                    -84.239741,
                    39.33793
                  ],
                  [
                    -84.239879,
                    39.337996
                  ],
                  [
                    -84.239904,
                    39.337967
                  ],
                  [
                    -84.239921,
                    39.337975
                  ],
                  [
                    -84.239945,
                    39.337945
                  ],
                  [
                    -84.23993,
                    39.337937
                  ],
                  [
                    -84.239954,
                    39.337906
                  ],
                  [
                    -84.239955,
                    39.337897
                  ],
                  [
                    -84.239949,
                    39.337895
                  ],
                  [
                    -84.239947,
                    39.337898
                  ],
                  [
                    -84.239893,
                    39.337867
                  ],
                  [
                    -84.239759,
                    39.337797
                  ],
                  [
                    -84.239748,
                    39.337787
                  ],
                  [
                    -84.239736,
                    39.337787
                  ],
                  [
                    -84.239728,
                    39.337792
                  ],
                  [
                    -84.239723,
                    39.337803
                  ],
                  [
                    -84.239725,
                    39.33781
                  ],
                  [
                    -84.239704,
                    39.33782
                  ],
                  [
                    -84.239695,
                    39.337832
                  ],
                  [
                    -84.239666,
                    39.337811
                  ],
                  [
                    -84.239681,
                    39.337785
                  ],
                  [
                    -84.239689,
                    39.337764
                  ],
                  [
                    -84.240176,
                    39.337852
                  ],
                  [
                    -84.240113,
                    39.337922
                  ]
                ],
                [
                  [
                    -84.240024,
                    39.337851
                  ],
                  [
                    -84.240027,
                    39.337862
                  ],
                  [
                    -84.240041,
                    39.337886
                  ],
                  [
                    -84.240043,
                    39.337905
                  ],
                  [
                    -84.240035,
                    39.337921
                  ],
                  [
                    -84.239995,
                    39.337978
                  ],
                  [
                    -84.24,
                    39.337988
                  ],
                  [
                    -84.240012,
                    39.337993
                  ],
                  [
                    -84.240031,
                    39.337987
                  ],
                  [
                    -84.240054,
                    39.337972
                  ],
                  [
                    -84.240072,
                    39.337955
                  ],
                  [
                    -84.240084,
                    39.337942
                  ],
                  [
                    -84.240098,
                    39.337918
                  ],
                  [
                    -84.240113,
                    39.337881
                  ],
                  [
                    -84.240112,
                    39.337872
                  ],
                  [
                    -84.240102,
                    39.337856
                  ],
                  [
                    -84.240089,
                    39.337844
                  ],
                  [
                    -84.240055,
                    39.337836
                  ],
                  [
                    -84.240039,
                    39.337837
                  ],
                  [
                    -84.240028,
                    39.337843
                  ],
                  [
                    -84.240024,
                    39.337851
                  ]
                ],
                [
                  [
                    -84.239682,
                    39.337799
                  ],
                  [
                    -84.239682,
                    39.337803
                  ],
                  [
                    -84.239685,
                    39.337806
                  ],
                  [
                    -84.239689,
                    39.337808
                  ],
                  [
                    -84.239693,
                    39.337807
                  ],
                  [
                    -84.239696,
                    39.337805
                  ],
                  [
                    -84.239697,
                    39.337804
                  ],
                  [
                    -84.239698,
                    39.337803
                  ],
                  [
                    -84.239698,
                    39.3378
                  ],
                  [
                    -84.239698,
                    39.337799
                  ],
                  [
                    -84.239696,
                    39.337797
                  ],
                  [
                    -84.239694,
                    39.337795
                  ],
                  [
                    -84.239693,
                    39.337795
                  ],
                  [
                    -84.239691,
                    39.337795
                  ],
                  [
                    -84.23969,
                    39.337794
                  ],
                  [
                    -84.239687,
                    39.337794
                  ],
                  [
                    -84.239687,
                    39.337794
                  ],
                  [
                    -84.239685,
                    39.337795
                  ],
                  [
                    -84.239684,
                    39.337796
                  ],
                  [
                    -84.239683,
                    39.337797
                  ],
                  [
                    -84.239682,
                    39.337799
                  ]
                ],
                [
                  [
                    -84.239646,
                    39.337893
                  ],
                  [
                    -84.23965,
                    39.33789
                  ],
                  [
                    -84.239653,
                    39.337888
                  ],
                  [
                    -84.239654,
                    39.337885
                  ],
                  [
                    -84.239655,
                    39.337883
                  ],
                  [
                    -84.239656,
                    39.337879
                  ],
                  [
                    -84.239656,
                    39.337877
                  ],
                  [
                    -84.239657,
                    39.337875
                  ],
                  [
                    -84.239656,
                    39.337872
                  ],
                  [
                    -84.239653,
                    39.337869
                  ],
                  [
                    -84.239651,
                    39.337867
                  ],
                  [
                    -84.239648,
                    39.337866
                  ],
                  [
                    -84.239645,
                    39.337865
                  ],
                  [
                    -84.239642,
                    39.337865
                  ],
                  [
                    -84.239639,
                    39.337865
                  ],
                  [
                    -84.239635,
                    39.337867
                  ],
                  [
                    -84.239633,
                    39.337869
                  ],
                  [
                    -84.23963,
                    39.33787
                  ],
                  [
                    -84.239628,
                    39.337872
                  ],
                  [
                    -84.239626,
                    39.337874
                  ],
                  [
                    -84.239625,
                    39.337875
                  ],
                  [
                    -84.239624,
                    39.337878
                  ],
                  [
                    -84.239624,
                    39.33788
                  ],
                  [
                    -84.239624,
                    39.337882
                  ],
                  [
                    -84.239623,
                    39.337884
                  ],
                  [
                    -84.239624,
                    39.337887
                  ],
                  [
                    -84.239625,
                    39.337888
                  ],
                  [
                    -84.239626,
                    39.337889
                  ],
                  [
                    -84.239627,
                    39.337891
                  ],
                  [
                    -84.239627,
                    39.337892
                  ],
                  [
                    -84.239628,
                    39.337892
                  ],
                  [
                    -84.23963,
                    39.337893
                  ],
                  [
                    -84.239631,
                    39.337893
                  ],
                  [
                    -84.239633,
                    39.337893
                  ],
                  [
                    -84.239634,
                    39.337893
                  ],
                  [
                    -84.239636,
                    39.337894
                  ],
                  [
                    -84.239639,
                    39.337893
                  ],
                  [
                    -84.23964,
                    39.337893
                  ],
                  [
                    -84.239641,
                    39.337893
                  ],
                  [
                    -84.239646,
                    39.337893
                  ]
                ]
              ]
            },
            "properties": {
              "id": 2,
              "area": 7457.93,
              "perimeter": 900.44
            }
          },
          {
            "type": "Feature",
            "geometry": {
              "type": "Polygon",
              "coordinates": [
                [
                  [
                    -84.239619,
                    39.337838
                  ],
                  [
                    -84.239609,
                    39.337845
                  ],
                  [
                    -84.239599,
                    39.337852
                  ],
                  [
                    -84.239591,
                    39.337856
                  ],
                  [
                    -84.239586,
                    39.337851
                  ],
                  [
                    -84.239575,
                    39.337827
                  ],
                  [
                    -84.23958,
                    39.337825
                  ],
                  [
                    -84.239586,
                    39.33782
                  ],
                  [
                    -84.239619,
                    39.337838
                  ]
                ]
              ]
            },
            "properties": {
              "id": 3,
              "area": 83.09,
              "perimeter": 37.38
            }
          }
        ]
      }
    }
  ],
  "input": {
    "id": "a1486c86-e8ec-4b2e-9e0c-ff0684277416",
    "address": "6759 Silvertip Court, Maineville, OH, USA",
    "aoi_geojson": {
      "type": "FeatureCollection",
      "features": [
        {
          "type": "Feature",
          "geometry": {
            "type": "Polygon",
            "coordinates": [
              [
                [
                  -84.239626,
                  39.337753
                ],
                [
                  -84.240138,
                  39.337846
                ],
                [
                  -84.239874,
                  39.338143
                ],
                [
                  -84.239567,
                  39.337824
                ],
                [
                  -84.239583,
                  39.337813
                ],
                [
                  -84.239598,
                  39.3378
                ],
                [
                  -84.23961,
                  39.337785
                ],
                [
                  -84.23962,
                  39.33777
                ],
                [
                  -84.239626,
                  39.337753
                ]
              ]
            ]
          },
          "properties": {}
        }
      ]
    },
    "parcel_area": 12738,
    "name": "Parcel",
    "lat": null,
    "lon": null,
    "is_edited": false
  },
  "status": 3,
  "additional_seconds": 0,
  "eta": 902.0,
  "initial_eta": 902.0,
  "completed_at": "2021-06-15T01:02:27.262157+05:30",
  "generated_at": "2021-06-15T00:45:37.755074+05:30",
  "created_at": "2021-06-15T00:45:08.133493+05:30",
  "is_eta_update": false,
  "feature_report": {
    "id": "17854716-6609-4797-aeda-14490ab3c5e0",
    "name": "Lawn Report",
    "description": "Lawn measurement, ideal for all properties.",
    "features": [
      {
        "id": "73ddf02e-a068-45f7-a2a1-77c9ec207a3c",
        "name": "Lawn",
        "identifier": "lawn"
      }
    ],
    "attributes": {
      "id": "71a8d434-5427-4366-9aef-91306e0ad796",
      "min_threshold_price": 0.2,
      "max_threshold_price": 0.12,
      "first_range_price": 0.17,
      "second_range_price": 0.14,
      "min_threshold_area": 50000,
      "mid_threshold_area": 200000,
      "max_threshold_area": 1000000,
      "feature_report_definition": null,
      "average_time": 720,
      "average_time_exceed": 360,
      "pdf_sample": "https://storage.googleapis.com/falcon-prod-filestore/prod/pdf_samples/2021_4_20/LAWN_REPORT.pdf",
      "excel_sample": "https://storage.googleapis.com/falcon-prod-filestore/prod/excel_samples/2021_4_20/Lawn_Report___Sample_2.xlsx",
      "order": 1,
      "is_default": false
    }
  },
  "job_id_map": {
    "ml_process": {
      "FalconHardscape": "50593bf1-86e1-4844-af64-ecee277b3864"
    },
    "qa_process": "64d41c72-e385-432e-908c-7662814300fc",
    "qc_process": "fa62ea6b-6a55-427d-b205-da85655f8f2d",
    "imagery_fetching_process": "38945440-6954-45fa-aa85-5eb044cbca25",
    "parcel_correction_process": "84164687-1c8b-4d1b-b8f7-bfded85edbbd",
    "canopy_cover_check_process": "ca1749f7-d14d-4ec6-acd6-651b8735bf80",
    "parcel_correction_qa_process": "556c3a5c-de84-4c84-90d8-1476baf9236d"
  },
  "tiff_url": "https://storage.googleapis.com/autofx-outputs/ImageryFetchingProcessV3/38945440-6954-45fa-aa85-5eb044cbca25/output_tiff.tif",
  "feedback": {},
  "is_sample": false,
  "shareable_link": "https://app.attentive.ai/shared-view?id=8197614d-c0cf-4be7-809f-ed169ea8e011",
  "features": [
    {
      "id": "73ddf02e-a068-45f7-a2a1-77c9ec207a3c",
      "name": "Lawn",
      "identifier": "lawn"
    }
  ]
}