{
  "id": "fe13da2b-806c-42a6-a483-e1e7456674a5",
  "outputs": [
    {
      "id": "7bbe58bb-04dd-4703-9e67-e6536fb5aceb",
      "feature": {
        "id": "c51a1b40-95d5-4dcc-80c4-41043c3cbf3e",
        "name": "Driveway",
        "geometry_type": 3,
        "is_custom": false
      },
      "style": {
        "color": "#7551E9",
        "width": 1,
        "opacity": 0.2,
        "is_visible": true,
        "layer_order": 1
      },
      "measurements": [
        {
          "name": "area",
          "value": 0,
          "unit": "sqft"
        },
        {
          "name": "perimeter",
          "value": 0,
          "unit": "ft"
        }
      ],
      "output_geojson": {
        "type": "FeatureCollection",
        "features": []
      }
    },
    {
      "id": "1e9213dd-c671-4305-add4-238650015218",
      "feature": {
        "id": "179e99fd-b756-4e2d-a8e6-acb09f6f4807",
        "name": "Pavement",
        "geometry_type": 3,
        "is_custom": false
      },
      "style": {
        "color": "#FF7D51",
        "width": 1,
        "opacity": 0.2,
        "is_visible": true,
        "layer_order": 1
      },
      "measurements": [
        {
          "name": "area",
          "value": 1936,
          "unit": "sqft"
        },
        {
          "name": "perimeter",
          "value": 351,
          "unit": "ft"
        }
      ],
      "output_geojson": {
        "type": "FeatureCollection",
        "features": [
          {
            "type": "Feature",
            "geometry": {
              "type": "Polygon",
              "coordinates": [
                [
                  [
                    -83.454388,
                    42.570918
                  ],
                  [
                    -83.45431,
                    42.570922
                  ],
                  [
                    -83.454309,
                    42.570892
                  ],
                  [
                    -83.454384,
                    42.570891
                  ],
                  [
                    -83.454388,
                    42.570918
                  ]
                ]
              ]
            },
            "properties": {
              "id": 1,
              "area": 214.66,
              "perimeter": 62.11
            }
          },
          {
            "type": "Feature",
            "geometry": {
              "type": "Polygon",
              "coordinates": [
                [
                  [
                    -83.454418,
                    42.571073
                  ],
                  [
                    -83.454403,
                    42.571072
                  ],
                  [
                    -83.454393,
                    42.571049
                  ],
                  [
                    -83.454307,
                    42.571052
                  ],
                  [
                    -83.454305,
                    42.570993
                  ],
                  [
                    -83.454444,
                    42.570991
                  ],
                  [
                    -83.454446,
                    42.57107
                  ],
                  [
                    -83.454418,
                    42.571073
                  ]
                ]
              ]
            },
            "properties": {
              "id": 2,
              "area": 896.68,
              "perimeter": 131.44
            }
          },
          {
            "type": "Feature",
            "geometry": {
              "type": "Polygon",
              "coordinates": [
                [
                  [
                    -83.454028,
                    42.571286
                  ],
                  [
                    -83.454011,
                    42.571286
                  ],
                  [
                    -83.45401,
                    42.571274
                  ],
                  [
                    -83.454028,
                    42.571274
                  ],
                  [
                    -83.454028,
                    42.571286
                  ]
                ]
              ]
            },
            "properties": {
              "id": 3,
              "area": 20.62,
              "perimeter": 18.18
            }
          },
          {
            "type": "Feature",
            "geometry": {
              "type": "Polygon",
              "coordinates": [
                [
                  [
                    -83.454404,
                    42.571335
                  ],
                  [
                    -83.454407,
                    42.571366
                  ],
                  [
                    -83.454388,
                    42.571366
                  ],
                  [
                    -83.454389,
                    42.571406
                  ],
                  [
                    -83.454405,
                    42.571412
                  ],
                  [
                    -83.454386,
                    42.571425
                  ],
                  [
                    -83.45439,
                    42.571433
                  ],
                  [
                    -83.454401,
                    42.571441
                  ],
                  [
                    -83.454359,
                    42.571471
                  ],
                  [
                    -83.454333,
                    42.571457
                  ],
                  [
                    -83.454326,
                    42.571337
                  ],
                  [
                    -83.454363,
                    42.571336
                  ],
                  [
                    -83.454373,
                    42.571336
                  ],
                  [
                    -83.454404,
                    42.571335
                  ]
                ]
              ]
            },
            "properties": {
              "id": 4,
              "area": 803.56,
              "perimeter": 139.3
            }
          }
        ]
      }
    },
    {
      "id": "4548b83f-cf99-4139-8b8f-78c671ccd671",
      "feature": {
        "id": "df73cc66-4d50-445e-a906-70b6e7bfc189",
        "name": "Sidewalk",
        "geometry_type": 3,
        "is_custom": false
      },
      "style": {
        "color": "#FFC212",
        "width": 1,
        "opacity": 0.2,
        "is_visible": true,
        "layer_order": 1
      },
      "measurements": [
        {
          "name": "area",
          "value": 1569,
          "unit": "sqft"
        },
        {
          "name": "perimeter",
          "value": 487,
          "unit": "ft"
        }
      ],
      "output_geojson": {
        "type": "FeatureCollection",
        "features": [
          {
            "type": "Feature",
            "geometry": {
              "type": "Polygon",
              "coordinates": [
                [
                  [
                    -83.454771,
                    42.570863
                  ],
                  [
                    -83.454769,
                    42.570879
                  ],
                  [
                    -83.454341,
                    42.570892
                  ],
                  [
                    -83.454309,
                    42.570892
                  ],
                  [
                    -83.454309,
                    42.570893
                  ],
                  [
                    -83.453952,
                    42.570903
                  ],
                  [
                    -83.453951,
                    42.570886
                  ],
                  [
                    -83.453953,
                    42.570886
                  ],
                  [
                    -83.453953,
                    42.570886
                  ],
                  [
                    -83.453991,
                    42.570885
                  ],
                  [
                    -83.454315,
                    42.570874
                  ],
                  [
                    -83.454325,
                    42.570865
                  ],
                  [
                    -83.454324,
                    42.570822
                  ],
                  [
                    -83.454354,
                    42.570821
                  ],
                  [
                    -83.45436,
                    42.570864
                  ],
                  [
                    -83.45437,
                    42.570873
                  ],
                  [
                    -83.454659,
                    42.570866
                  ],
                  [
                    -83.454769,
                    42.570864
                  ],
                  [
                    -83.454769,
                    42.570863
                  ],
                  [
                    -83.454771,
                    42.570863
                  ]
                ]
              ]
            },
            "properties": {
              "id": 1,
              "area": 1569.19,
              "perimeter": 487.29
            }
          }
        ]
      }
    },
    {
      "id": "89e18340-1348-4743-bdc7-492a9c35bdd2",
      "feature": {
        "id": "7b7dc0e2-9622-4bd3-b7f4-c99d47f3d560",
        "name": "Parking Spot",
        "geometry_type": 3,
        "is_custom": false
      },
      "style": {
        "color": "#D44E74",
        "width": 1,
        "opacity": 0.2,
        "is_visible": true,
        "layer_order": 1
      },
      "measurements": [
        {
          "name": "area",
          "value": 11344,
          "unit": "sqft"
        },
        {
          "name": "perimeter",
          "value": 1356,
          "unit": "ft"
        }
      ],
      "output_geojson": {
        "type": "FeatureCollection",
        "features": [
          {
            "type": "Feature",
            "geometry": {
              "type": "Polygon",
              "coordinates": [
                [
                  [
                    -83.454702,
                    42.570683
                  ],
                  [
                    -83.454715,
                    42.570698
                  ],
                  [
                    -83.454715,
                    42.570733
                  ],
                  [
                    -83.453945,
                    42.570761
                  ],
                  [
                    -83.453944,
                    42.570709
                  ],
                  [
                    -83.453951,
                    42.570705
                  ],
                  [
                    -83.454702,
                    42.570683
                  ]
                ]
              ]
            },
            "properties": {
              "id": 1,
              "area": 4006.1,
              "perimeter": 450.74
            }
          },
          {
            "type": "Feature",
            "geometry": {
              "type": "Polygon",
              "coordinates": [
                [
                  [
                    -83.454401,
                    42.57087
                  ],
                  [
                    -83.454401,
                    42.570819
                  ],
                  [
                    -83.454766,
                    42.570809
                  ],
                  [
                    -83.454768,
                    42.570817
                  ],
                  [
                    -83.454769,
                    42.570864
                  ],
                  [
                    -83.454401,
                    42.57087
                  ]
                ]
              ]
            },
            "properties": {
              "id": 2,
              "area": 1912.41,
              "perimeter": 236.24
            }
          },
          {
            "type": "Feature",
            "geometry": {
              "type": "Polygon",
              "coordinates": [
                [
                  [
                    -83.45427,
                    42.570875
                  ],
                  [
                    -83.453953,
                    42.570886
                  ],
                  [
                    -83.45395,
                    42.570852
                  ],
                  [
                    -83.453956,
                    42.570834
                  ],
                  [
                    -83.454269,
                    42.570824
                  ],
                  [
                    -83.45427,
                    42.570875
                  ]
                ]
              ]
            },
            "properties": {
              "id": 3,
              "area": 1604.28,
              "perimeter": 207.65
            }
          },
          {
            "type": "Feature",
            "geometry": {
              "type": "Polygon",
              "coordinates": [
                [
                  [
                    -83.454373,
                    42.571336
                  ],
                  [
                    -83.454033,
                    42.571338
                  ],
                  [
                    -83.45403,
                    42.571288
                  ],
                  [
                    -83.4544,
                    42.571277
                  ],
                  [
                    -83.454404,
                    42.571335
                  ],
                  [
                    -83.454373,
                    42.571336
                  ]
                ]
              ]
            },
            "properties": {
              "id": 4,
              "area": 1980.23,
              "perimeter": 239.12
            }
          },
          {
            "type": "Feature",
            "geometry": {
              "type": "Polygon",
              "coordinates": [
                [
                  [
                    -83.453995,
                    42.571466
                  ],
                  [
                    -83.453991,
                    42.571414
                  ],
                  [
                    -83.454327,
                    42.5714
                  ],
                  [
                    -83.454333,
                    42.571459
                  ],
                  [
                    -83.453995,
                    42.571466
                  ]
                ]
              ]
            },
            "properties": {
              "id": 5,
              "area": 1841.36,
              "perimeter": 222.29
            }
          }
        ]
      }
    },
    {
      "id": "b6f48224-c0df-476d-a22c-10e36db70db4",
      "feature": {
        "id": "9145e50f-6132-4c70-ad46-05f969cb358f",
        "name": "Drivelane",
        "geometry_type": 3,
        "is_custom": false
      },
      "style": {
        "color": "#07D2E8",
        "width": 1,
        "opacity": 0.2,
        "is_visible": true,
        "layer_order": 1
      },
      "measurements": [
        {
          "name": "area",
          "value": 11264,
          "unit": "sqft"
        },
        {
          "name": "perimeter",
          "value": 1099,
          "unit": "ft"
        }
      ],
      "output_geojson": {
        "type": "FeatureCollection",
        "features": [
          {
            "type": "Feature",
            "geometry": {
              "type": "Polygon",
              "coordinates": [
                [
                  [
                    -83.453771,
                    42.570889
                  ],
                  [
                    -83.453762,
                    42.570703
                  ],
                  [
                    -83.453774,
                    42.570728
                  ],
                  [
                    -83.453799,
                    42.570752
                  ],
                  [
                    -83.453824,
                    42.570763
                  ],
                  [
                    -83.453863,
                    42.570767
                  ],
                  [
                    -83.453914,
                    42.570767
                  ],
                  [
                    -83.453938,
                    42.570765
                  ],
                  [
                    -83.453944,
                    42.570761
                  ],
                  [
                    -83.453945,
                    42.570761
                  ],
                  [
                    -83.453945,
                    42.570761
                  ],
                  [
                    -83.454715,
                    42.570733
                  ],
                  [
                    -83.454727,
                    42.570743
                  ],
                  [
                    -83.454765,
                    42.570747
                  ],
                  [
                    -83.454766,
                    42.570809
                  ],
                  [
                    -83.454321,
                    42.57082
                  ],
                  [
                    -83.454276,
                    42.570824
                  ],
                  [
                    -83.454269,
                    42.570824
                  ],
                  [
                    -83.454269,
                    42.570824
                  ],
                  [
                    -83.454223,
                    42.570825
                  ],
                  [
                    -83.453843,
                    42.570836
                  ],
                  [
                    -83.453801,
                    42.570852
                  ],
                  [
                    -83.453776,
                    42.570874
                  ],
                  [
                    -83.453771,
                    42.570889
                  ]
                ]
              ]
            },
            "properties": {
              "id": 1,
              "area": 7411.19,
              "perimeter": 652.89
            }
          },
          {
            "type": "Feature",
            "geometry": {
              "type": "Polygon",
              "coordinates": [
                [
                  [
                    -83.454328,
                    42.5714
                  ],
                  [
                    -83.454327,
                    42.5714
                  ],
                  [
                    -83.454327,
                    42.5714
                  ],
                  [
                    -83.45426,
                    42.571403
                  ],
                  [
                    -83.453987,
                    42.571414
                  ],
                  [
                    -83.45396,
                    42.571411
                  ],
                  [
                    -83.453873,
                    42.571415
                  ],
                  [
                    -83.45384,
                    42.571426
                  ],
                  [
                    -83.453819,
                    42.57144
                  ],
                  [
                    -83.453804,
                    42.571457
                  ],
                  [
                    -83.453799,
                    42.571486
                  ],
                  [
                    -83.453789,
                    42.571279
                  ],
                  [
                    -83.453795,
                    42.571303
                  ],
                  [
                    -83.45381,
                    42.571322
                  ],
                  [
                    -83.45384,
                    42.571341
                  ],
                  [
                    -83.453866,
                    42.571347
                  ],
                  [
                    -83.453956,
                    42.571346
                  ],
                  [
                    -83.454028,
                    42.57134
                  ],
                  [
                    -83.45403,
                    42.571305
                  ],
                  [
                    -83.454033,
                    42.571338
                  ],
                  [
                    -83.454041,
                    42.571339
                  ],
                  [
                    -83.454265,
                    42.571337
                  ],
                  [
                    -83.454325,
                    42.571336
                  ],
                  [
                    -83.454328,
                    42.5714
                  ]
                ]
              ]
            },
            "properties": {
              "id": 2,
              "area": 3852.56,
              "perimeter": 439.28
            }
          },
          {
            "type": "Feature",
            "geometry": {
              "type": "Polygon",
              "coordinates": [
                [
                  [
                    -83.454337,
                    42.571336
                  ],
                  [
                    -83.454325,
                    42.571336
                  ],
                  [
                    -83.454325,
                    42.571336
                  ],
                  [
                    -83.454337,
                    42.571336
                  ]
                ]
              ]
            },
            "properties": {
              "id": 3,
              "area": 0.0,
              "perimeter": 6.47
            }
          }
        ]
      }
    },
    {
      "id": "e7963828-1604-4145-a72b-ac7279f8c423",
      "feature": {
        "id": "e04b0ee1-6e1a-424d-b1bd-51153d5537e8",
        "name": "Parking Lot",
        "geometry_type": 3,
        "is_custom": false
      },
      "style": {
        "color": "#02665F",
        "width": 1,
        "opacity": 0.2,
        "is_visible": true,
        "layer_order": 1
      },
      "measurements": [
        {
          "name": "area",
          "value": 22656,
          "unit": "sqft"
        },
        {
          "name": "perimeter",
          "value": 1646,
          "unit": "ft"
        }
      ],
      "output_geojson": {
        "type": "FeatureCollection",
        "features": [
          {
            "type": "Feature",
            "geometry": {
              "type": "Polygon",
              "coordinates": [
                [
                  [
                    -83.454702,
                    42.570683
                  ],
                  [
                    -83.454715,
                    42.570698
                  ],
                  [
                    -83.454715,
                    42.570733
                  ],
                  [
                    -83.454727,
                    42.570743
                  ],
                  [
                    -83.454765,
                    42.570747
                  ],
                  [
                    -83.454766,
                    42.570809
                  ],
                  [
                    -83.454321,
                    42.57082
                  ],
                  [
                    -83.454269,
                    42.570824
                  ],
                  [
                    -83.45427,
                    42.570875
                  ],
                  [
                    -83.453953,
                    42.570886
                  ],
                  [
                    -83.45395,
                    42.570852
                  ],
                  [
                    -83.453956,
                    42.570834
                  ],
                  [
                    -83.453843,
                    42.570836
                  ],
                  [
                    -83.453801,
                    42.570852
                  ],
                  [
                    -83.453776,
                    42.570874
                  ],
                  [
                    -83.453771,
                    42.570889
                  ],
                  [
                    -83.453762,
                    42.570703
                  ],
                  [
                    -83.453779,
                    42.570734
                  ],
                  [
                    -83.453796,
                    42.57075
                  ],
                  [
                    -83.453817,
                    42.570761
                  ],
                  [
                    -83.453845,
                    42.570766
                  ],
                  [
                    -83.453914,
                    42.570767
                  ],
                  [
                    -83.453938,
                    42.570765
                  ],
                  [
                    -83.453945,
                    42.570761
                  ],
                  [
                    -83.453944,
                    42.570709
                  ],
                  [
                    -83.453951,
                    42.570705
                  ],
                  [
                    -83.454702,
                    42.570683
                  ]
                ]
              ]
            },
            "properties": {
              "id": 1,
              "area": 13052.4,
              "perimeter": 727.05
            }
          },
          {
            "type": "Feature",
            "geometry": {
              "type": "Polygon",
              "coordinates": [
                [
                  [
                    -83.454401,
                    42.57087
                  ],
                  [
                    -83.454401,
                    42.570819
                  ],
                  [
                    -83.454766,
                    42.570809
                  ],
                  [
                    -83.454768,
                    42.570817
                  ],
                  [
                    -83.454769,
                    42.570864
                  ],
                  [
                    -83.454401,
                    42.57087
                  ]
                ]
              ]
            },
            "properties": {
              "id": 2,
              "area": 1912.41,
              "perimeter": 236.24
            }
          },
          {
            "type": "Feature",
            "geometry": {
              "type": "Polygon",
              "coordinates": [
                [
                  [
                    -83.454373,
                    42.571336
                  ],
                  [
                    -83.454325,
                    42.571336
                  ],
                  [
                    -83.454327,
                    42.5714
                  ],
                  [
                    -83.454333,
                    42.571459
                  ],
                  [
                    -83.453995,
                    42.571466
                  ],
                  [
                    -83.453991,
                    42.571414
                  ],
                  [
                    -83.45426,
                    42.571403
                  ],
                  [
                    -83.453987,
                    42.571414
                  ],
                  [
                    -83.453975,
                    42.571411
                  ],
                  [
                    -83.453911,
                    42.571412
                  ],
                  [
                    -83.453861,
                    42.571418
                  ],
                  [
                    -83.453828,
                    42.571433
                  ],
                  [
                    -83.453806,
                    42.571453
                  ],
                  [
                    -83.453799,
                    42.571486
                  ],
                  [
                    -83.453789,
                    42.571279
                  ],
                  [
                    -83.453797,
                    42.571307
                  ],
                  [
                    -83.45381,
                    42.571322
                  ],
                  [
                    -83.453827,
                    42.571334
                  ],
                  [
                    -83.45384,
                    42.571341
                  ],
                  [
                    -83.453866,
                    42.571347
                  ],
                  [
                    -83.453914,
                    42.571347
                  ],
                  [
                    -83.454028,
                    42.57134
                  ],
                  [
                    -83.45403,
                    42.571288
                  ],
                  [
                    -83.4544,
                    42.571277
                  ],
                  [
                    -83.454404,
                    42.571335
                  ],
                  [
                    -83.454373,
                    42.571336
                  ]
                ]
              ]
            },
            "properties": {
              "id": 3,
              "area": 7690.75,
              "perimeter": 682.84
            }
          }
        ]
      }
    }
  ],
  "input": {
    "id": "ba4bec67-f282-48a3-970f-822f1afe5a81",
    "address": "4375 Pineview Dr, Walled Lake, MI 48390",
    "aoi_geojson": {
      "type": "FeatureCollection",
      "features": [
        {
          "type": "Feature",
          "geometry": {
            "type": "Polygon",
            "coordinates": [
              [
                [
                  -83.454882,
                  42.570442
                ],
                [
                  -83.454933,
                  42.571506
                ],
                [
                  -83.453865,
                  42.571549
                ],
                [
                  -83.453814,
                  42.570486
                ],
                [
                  -83.454882,
                  42.570442
                ]
              ]
            ]
          },
          "properties": {}
        }
      ]
    },
    "parcel_area": 127448,
    "name": "Parcel",
    "lat": null,
    "lon": null,
    "is_edited": false
  },
  "status": 3,
  "additional_seconds": 0,
  "eta": 1040.26,
  "initial_eta": 1040.26,
  "completed_at": "2021-02-01T19:52:59.799985+05:30",
  "generated_at": null,
  "created_at": "2021-02-01T19:34:16.243465+05:30",
  "is_eta_update": false,
  "feature_report": {
    "id": "c7108022-af13-44e4-93f0-c432880c5e8a",
    "name": "Advanced Snow Removal Report",
    "description": "Ideal for large properties",
    "features": [
      {
        "id": "179e99fd-b756-4e2d-a8e6-acb09f6f4807",
        "name": "Pavement",
        "identifier": "pavement"
      },
      {
        "id": "df73cc66-4d50-445e-a906-70b6e7bfc189",
        "name": "Sidewalk",
        "identifier": "sidewalk"
      },
      {
        "id": "c51a1b40-95d5-4dcc-80c4-41043c3cbf3e",
        "name": "Driveway",
        "identifier": "driveway"
      },
      {
        "id": "e04b0ee1-6e1a-424d-b1bd-51153d5537e8",
        "name": "Parking Lot",
        "identifier": "parking_lot"
      },
      {
        "id": "7b7dc0e2-9622-4bd3-b7f4-c99d47f3d560",
        "name": "Parking Spot",
        "identifier": "parking_spot"
      },
      {
        "id": "f70c4b1b-f806-46f8-a239-6cb6290e1e75",
        "name": "Road",
        "identifier": "road"
      }
    ],
    "attributes": {
      "id": "6251e9b5-7ce4-468a-9fe2-d669a164808c",
      "min_threshold_price": 0.3,
      "max_threshold_price": 0.15,
      "first_range_price": 0.24,
      "second_range_price": 0.21,
      "min_threshold_area": 50000,
      "mid_threshold_area": 200000,
      "max_threshold_area": 1000000,
      "feature_report_definition": null,
      "average_time": 90,
      "average_time_exceed": 60,
      "pdf_sample": "https://storage.googleapis.com/falcon-prod-filestore/prod/pdf_samples/Advanced%20Snow%20Removal%20Report/2021_1_5/Sample_advanced_snow_removal_report.pdf",
      "excel_sample": "https://storage.googleapis.com/falcon-prod-filestore/prod/excel_samples/Advanced%20Snow%20Removal%20Report/2021_1_11/Advanced_Snow_Removal_Report___Sample.xlsx",
      "order": 3,
      "is_default": false
    }
  },
  "job_id_map": {
    "ml_process": "1b9e3364-2d1c-4bcb-a7c8-60233511957a",
    "qa_process": "7b27a46d-ccab-4eb3-a06e-3ea9aa72a35e",
    "qc_process": "7f344e31-1e77-4b26-a17b-34de2bec8b94",
    "tiff_to_png_process": "ed477080-1d54-463c-9c5e-b213b2716e22",
    "imagery_fetching_process": "f10e7a7d-bbd1-4333-b9dc-5ce15d3b9929",
    "parcel_correction_process": "cc69b32b-05ce-4dd0-9dea-8dbd893f9a98"
  },
  "tiff_url": "https://storage.googleapis.com/autofx-outputs/ImageryFetchingProcess/f10e7a7d-bbd1-4333-b9dc-5ce15d3b9929/output_tiff.tif",
  "feedback": {},
  "is_sample": false,
  "shareable_link": "",
  "features": [
    {
      "id": "179e99fd-b756-4e2d-a8e6-acb09f6f4807",
      "name": "Pavement",
      "identifier": "pavement"
    },
    {
      "id": "df73cc66-4d50-445e-a906-70b6e7bfc189",
      "name": "Sidewalk",
      "identifier": "sidewalk"
    },
    {
      "id": "c51a1b40-95d5-4dcc-80c4-41043c3cbf3e",
      "name": "Driveway",
      "identifier": "driveway"
    },
    {
      "id": "e04b0ee1-6e1a-424d-b1bd-51153d5537e8",
      "name": "Parking Lot",
      "identifier": "parking_lot"
    },
    {
      "id": "7b7dc0e2-9622-4bd3-b7f4-c99d47f3d560",
      "name": "Parking Spot",
      "identifier": "parking_spot"
    },
    {
      "id": "9145e50f-6132-4c70-ad46-05f969cb358f",
      "name": "Drivelane",
      "identifier": "drivelane"
    }
  ]
}