{
  "id": "fe233531-7948-4c4c-bb60-092917f73457",
  "outputs": [
    {
      "id": "94ecab9b-7ae5-4708-9d45-0d1dba3f978b",
      "feature": {
        "id": "73ddf02e-a068-45f7-a2a1-77c9ec207a3c",
        "name": "Lawn",
        "geometry_type": 3,
        "is_custom": false
      },
      "style": {
        "color": "#FF00A7",
        "width": 3,
        "opacity": 0.3,
        "is_visible": true,
        "layer_order": 1
      },
      "measurements": [
        {
          "name": "area",
          "value": 2314,
          "unit": "sqft"
        },
        {
          "name": "perimeter",
          "value": 392,
          "unit": "ft"
        }
      ],
      "output_geojson": {
        "type": "FeatureCollection",
        "features": [
          {
            "type": "Feature",
            "geometry": {
              "type": "Polygon",
              "coordinates": [
                [
                  [
                    -81.857938,
                    26.478933
                  ],
                  [
                    -81.857937,
                    26.478895
                  ],
                  [
                    -81.857941,
                    26.478895
                  ],
                  [
                    -81.857942,
                    26.478811
                  ],
                  [
                    -81.858011,
                    26.478813
                  ],
                  [
                    -81.858027,
                    26.478803
                  ],
                  [
                    -81.858054,
                    26.478796
                  ],
                  [
                    -81.858089,
                    26.478824
                  ],
                  [
                    -81.858087,
                    26.478928
                  ],
                  [
                    -81.858073,
                    26.478932
                  ],
                  [
                    -81.858073,
                    26.478939
                  ],
                  [
                    -81.857938,
                    26.47894
                  ],
                  [
                    -81.857938,
                    26.478933
                  ]
                ],
                [
                  [
                    -81.858046,
                    26.478886
                  ],
                  [
                    -81.858051,
                    26.478886
                  ],
                  [
                    -81.858046,
                    26.478893
                  ],
                  [
                    -81.858057,
                    26.478899
                  ],
                  [
                    -81.858066,
                    26.478899
                  ],
                  [
                    -81.858073,
                    26.478893
                  ],
                  [
                    -81.858071,
                    26.478882
                  ],
                  [
                    -81.858057,
                    26.478878
                  ],
                  [
                    -81.858052,
                    26.478869
                  ],
                  [
                    -81.858014,
                    26.478871
                  ],
                  [
                    -81.857971,
                    26.478867
                  ],
                  [
                    -81.85797,
                    26.478876
                  ],
                  [
                    -81.857965,
                    26.478873
                  ],
                  [
                    -81.857955,
                    26.478874
                  ],
                  [
                    -81.857952,
                    26.478881
                  ],
                  [
                    -81.857953,
                    26.478893
                  ],
                  [
                    -81.85796,
                    26.478896
                  ],
                  [
                    -81.857972,
                    26.478893
                  ],
                  [
                    -81.857975,
                    26.478881
                  ],
                  [
                    -81.858044,
                    26.478882
                  ],
                  [
                    -81.858046,
                    26.478886
                  ]
                ]
              ]
            },
            "properties": {
              "id": 1,
              "area": 2064.02,
              "perimeter": 295.99
            }
          },
          {
            "type": "Feature",
            "geometry": {
              "type": "Polygon",
              "coordinates": [
                [
                  [
                    -81.858191,
                    26.478938
                  ],
                  [
                    -81.858175,
                    26.478938
                  ],
                  [
                    -81.858175,
                    26.478932
                  ],
                  [
                    -81.858169,
                    26.478926
                  ],
                  [
                    -81.85817,
                    26.478834
                  ],
                  [
                    -81.858171,
                    26.478829
                  ],
                  [
                    -81.858188,
                    26.478819
                  ],
                  [
                    -81.858188,
                    26.478903
                  ],
                  [
                    -81.858191,
                    26.478938
                  ]
                ]
              ]
            },
            "properties": {
              "id": 2,
              "area": 249.83,
              "perimeter": 95.58
            }
          }
        ]
      }
    }
  ],
  "input": {
    "id": "962890ac-ca0d-49b4-a59f-451d8a0f4ef4",
    "address": "6255 Cocos Drive, Fort Myers, FL, USA",
    "aoi_geojson": {
      "type": "FeatureCollection",
      "features": [
        {
          "type": "Feature",
          "geometry": {
            "type": "Polygon",
            "coordinates": [
              [
                [
                  -81.858208,
                  26.478548
                ],
                [
                  -81.858223,
                  26.478889
                ],
                [
                  -81.857926,
                  26.478893
                ],
                [
                  -81.857939,
                  26.478552
                ],
                [
                  -81.858208,
                  26.478548
                ]
              ]
            ]
          },
          "properties": {}
        }
      ]
    },
    "parcel_area": 12027,
    "name": "Parcel",
    "lat": null,
    "lon": null,
    "is_edited": false
  },
  "status": 3,
  "additional_seconds": 0,
  "eta": 60.0,
  "initial_eta": 60.0,
  "completed_at": null,
  "generated_at": null,
  "created_at": "2021-03-05T23:06:51.555988+05:30",
  "is_eta_update": false,
  "feature_report": {
    "id": "17854716-6609-4797-aeda-14490ab3c5e0",
    "name": "Lawn Report",
    "description": "Lawn measurement, ideal for all properties.",
    "features": [
      {
        "id": "73ddf02e-a068-45f7-a2a1-77c9ec207a3c",
        "name": "Lawn",
        "identifier": "lawn"
      }
    ],
    "attributes": {
      "id": "71a8d434-5427-4366-9aef-91306e0ad796",
      "min_threshold_price": 0.2,
      "max_threshold_price": 0.12,
      "first_range_price": 0.17,
      "second_range_price": 0.14,
      "min_threshold_area": 50000,
      "mid_threshold_area": 200000,
      "max_threshold_area": 1000000,
      "feature_report_definition": null,
      "average_time": 720,
      "average_time_exceed": 360,
      "pdf_sample": "https://storage.googleapis.com/falcon-prod-filestore/prod/pdf_samples/2021_4_20/LAWN_REPORT.pdf",
      "excel_sample": "https://storage.googleapis.com/falcon-prod-filestore/prod/excel_samples/2021_4_20/Lawn_Report___Sample_2.xlsx",
      "order": 1,
      "is_default": false
    }
  },
  "job_id_map": {},
  "tiff_url": null,
  "feedback": {},
  "is_sample": false,
  "shareable_link": "",
  "features": [
    {
      "id": "73ddf02e-a068-45f7-a2a1-77c9ec207a3c",
      "name": "Lawn",
      "identifier": "lawn"
    }
  ]
}